{
 "creation": "2020-03-01 13:27:12.377624",
 "doctype": "DocType",
 "editable_grid": 1,
 "engine": "InnoDB",
 "field_order": [
  "tipo_vehiculo",
  "marca",
  "modelo",
  "placa",
  "prenda",
  "a_favor_de",
  "valor_comercial"
 ],
 "fields": [
  {
   "fieldname": "tipo_vehiculo",
   "fieldtype": "Select",
   "in_list_view": 1,
   "label": "Tipo de Veh\u00edculo",
   "options": "\nP\u00fablico\nPart\u00edcular",
   "reqd": 1
  },
  {
   "fieldname": "marca",
   "fieldtype": "Data",
   "in_list_view": 1,
   "label": "Marca",
   "reqd": 1
  },
  {
   "fieldname": "modelo",
   "fieldtype": "Data",
   "in_list_view": 1,
   "label": "Modelo",
   "reqd": 1
  },
  {
   "fieldname": "placa",
   "fieldtype": "Data",
   "in_list_view": 1,
   "label": "Placa",
   "reqd": 1
  },
  {
   "default": "0",
   "fieldname": "prenda",
   "fieldtype": "Check",
   "label": "Prenda"
  },
  {
   "fieldname": "a_favor_de",
   "fieldtype": "Data",
   "label": "A Favor De",
   "reqd": 1
  },
  {
   "fieldname": "valor_comercial",
   "fieldtype": "Currency",
   "label": "Valor Comercial",
   "reqd": 1
  }
 ],
 "istable": 1,
 "modified": "2020-03-01 13:53:01.815578",
 "modified_by": "Administrator",
 "module": "TIAN",
 "name": "Tabla Tercero Vehiculos",
 "owner": "miltonmarinol@gmail.com",
 "permissions": [],
 "sort_field": "modified",
 "sort_order": "DESC",
 "track_changes": 1
}