[INFO] 2020-03-11 11:01:05,545 | /home/jhon/public_html/frappe-bench/apps/frappe/frappe/core/doctype/scheduled_job_type/scheduled_job_type.py:
Site: fianzacredito.com
Scheduled Job Complete: frappe.automation.doctype.auto_repeat.auto_repeat.make_auto_repeat_entry for fianzacredito.com
[INFO] 2020-03-11 11:01:05,593 | /home/jhon/public_html/frappe-bench/apps/frappe/frappe/core/doctype/scheduled_job_type/scheduled_job_type.py:
Site: fianzacredito.com
Scheduled Job Start: frappe.integrations.doctype.google_contacts.google_contacts.sync for fianzacredito.com
[INFO] 2020-03-11 11:01:05,750 | /home/jhon/public_html/frappe-bench/apps/frappe/frappe/core/doctype/scheduled_job_type/scheduled_job_type.py:
Site: fianzacredito.com
Scheduled Job Complete: frappe.integrations.doctype.google_contacts.google_contacts.sync for fianzacredito.com
[INFO] 2020-03-11 11:01:05,788 | /home/jhon/public_html/frappe-bench/apps/frappe/frappe/core/doctype/scheduled_job_type/scheduled_job_type.py:
Site: fianzacredito.com
Scheduled Job Start: frappe.social.doctype.energy_point_settings.energy_point_settings.allocate_review_points for fianzacredito.com
[INFO] 2020-03-11 11:01:05,854 | /home/jhon/public_html/frappe-bench/apps/frappe/frappe/core/doctype/scheduled_job_type/scheduled_job_type.py:
Site: fianzacredito.com
Scheduled Job Complete: frappe.social.doctype.energy_point_settings.energy_point_settings.allocate_review_points for fianzacredito.com
[INFO] 2020-03-11 11:01:05,892 | /home/jhon/public_html/frappe-bench/apps/frappe/frappe/core/doctype/scheduled_job_type/scheduled_job_type.py:
Site: fianzacredito.com
Scheduled Job Start: frappe.desk.form.document_follow.send_daily_updates for fianzacredito.com
[INFO] 2020-03-11 11:01:05,955 | /home/jhon/public_html/frappe-bench/apps/frappe/frappe/core/doctype/scheduled_job_type/scheduled_job_type.py:
Site: fianzacredito.com
Scheduled Job Complete: frappe.desk.form.document_follow.send_daily_updates for fianzacredito.com
[INFO] 2020-03-11 11:01:05,995 | /home/jhon/public_html/frappe-bench/apps/frappe/frappe/core/doctype/scheduled_job_type/scheduled_job_type.py:
Site: fianzacredito.com
Scheduled Job Start: frappe.website.doctype.personal_data_deletion_request.personal_data_deletion_request.remove_unverified_record for fianzacredito.com
[INFO] 2020-03-11 11:01:06,053 | /home/jhon/public_html/frappe-bench/apps/frappe/frappe/core/doctype/scheduled_job_type/scheduled_job_type.py:
Site: fianzacredito.com
Scheduled Job Complete: frappe.website.doctype.personal_data_deletion_request.personal_data_deletion_request.remove_unverified_record for fianzacredito.com
[INFO] 2020-03-11 11:01:06,090 | /home/jhon/public_html/frappe-bench/apps/frappe/frappe/core/doctype/scheduled_job_type/scheduled_job_type.py:
Site: fianzacredito.com
Scheduled Job Start: frappe.core.doctype.activity_log.activity_log.clear_authentication_logs for fianzacredito.com
[INFO] 2020-03-11 11:01:06,149 | /home/jhon/public_html/frappe-bench/apps/frappe/frappe/core/doctype/scheduled_job_type/scheduled_job_type.py:
Site: fianzacredito.com
Scheduled Job Complete: frappe.core.doctype.activity_log.activity_log.clear_authentication_logs for fianzacredito.com
[INFO] 2020-03-11 11:01:06,186 | /home/jhon/public_html/frappe-bench/apps/frappe/frappe/core/doctype/scheduled_job_type/scheduled_job_type.py:
Site: fianzacredito.com
Scheduled Job Start: frappe.email.doctype.auto_email_report.auto_email_report.send_daily for fianzacredito.com
[INFO] 2020-03-11 11:01:06,501 | /home/jhon/public_html/frappe-bench/apps/frappe/frappe/core/doctype/scheduled_job_type/scheduled_job_type.py:
Site: fianzacredito.com
Scheduled Job Complete: frappe.email.doctype.auto_email_report.auto_email_report.send_daily for fianzacredito.com
