[INFO] 2020-03-11 14:39:50,091 | /home/jhon/public_html/frappe-bench/apps/frappe/frappe/core/doctype/scheduled_job_type/scheduled_job_type.py:
Site: fianzacredito.com
Scheduled Job Start: frappe.integrations.doctype.google_calendar.google_calendar.sync for fianzacredito.com
[INFO] 2020-03-11 14:39:50,244 | /home/jhon/public_html/frappe-bench/apps/frappe/frappe/core/doctype/scheduled_job_type/scheduled_job_type.py:
Site: fianzacredito.com
Scheduled Job Complete: frappe.integrations.doctype.google_calendar.google_calendar.sync for fianzacredito.com
[INFO] 2020-03-11 14:39:50,291 | /home/jhon/public_html/frappe-bench/apps/frappe/frappe/core/doctype/scheduled_job_type/scheduled_job_type.py:
Site: fianzacredito.com
Scheduled Job Start: frappe.desk.form.document_follow.send_hourly_updates for fianzacredito.com
[INFO] 2020-03-11 14:39:50,354 | /home/jhon/public_html/frappe-bench/apps/frappe/frappe/core/doctype/scheduled_job_type/scheduled_job_type.py:
Site: fianzacredito.com
Scheduled Job Complete: frappe.desk.form.document_follow.send_hourly_updates for fianzacredito.com
[INFO] 2020-03-11 14:39:50,392 | /home/jhon/public_html/frappe-bench/apps/frappe/frappe/core/doctype/scheduled_job_type/scheduled_job_type.py:
Site: fianzacredito.com
Scheduled Job Start: frappe.deferred_insert.save_to_db for fianzacredito.com
[INFO] 2020-03-11 14:39:50,450 | /home/jhon/public_html/frappe-bench/apps/frappe/frappe/core/doctype/scheduled_job_type/scheduled_job_type.py:
Site: fianzacredito.com
Scheduled Job Complete: frappe.deferred_insert.save_to_db for fianzacredito.com
[INFO] 2020-03-11 14:39:50,488 | /home/jhon/public_html/frappe-bench/apps/frappe/frappe/core/doctype/scheduled_job_type/scheduled_job_type.py:
Site: fianzacredito.com
Scheduled Job Start: frappe.desk.page.backups.backups.delete_downloadable_backups for fianzacredito.com
[INFO] 2020-03-11 14:39:50,550 | /home/jhon/public_html/frappe-bench/apps/frappe/frappe/core/doctype/scheduled_job_type/scheduled_job_type.py:
Site: fianzacredito.com
Scheduled Job Complete: frappe.desk.page.backups.backups.delete_downloadable_backups for fianzacredito.com
[INFO] 2020-03-11 14:39:50,591 | /home/jhon/public_html/frappe-bench/apps/frappe/frappe/core/doctype/scheduled_job_type/scheduled_job_type.py:
Site: fianzacredito.com
Scheduled Job Start: frappe.utils.error.collect_error_snapshots for fianzacredito.com
[INFO] 2020-03-11 14:39:50,660 | /home/jhon/public_html/frappe-bench/apps/frappe/frappe/core/doctype/scheduled_job_type/scheduled_job_type.py:
Site: fianzacredito.com
Scheduled Job Complete: frappe.utils.error.collect_error_snapshots for fianzacredito.com
[INFO] 2020-03-11 14:39:50,703 | /home/jhon/public_html/frappe-bench/apps/frappe/frappe/core/doctype/scheduled_job_type/scheduled_job_type.py:
Site: fianzacredito.com
Scheduled Job Start: frappe.model.utils.user_settings.sync_user_settings for fianzacredito.com
[INFO] 2020-03-11 14:39:50,765 | /home/jhon/public_html/frappe-bench/apps/frappe/frappe/core/doctype/scheduled_job_type/scheduled_job_type.py:
Site: fianzacredito.com
Scheduled Job Complete: frappe.model.utils.user_settings.sync_user_settings for fianzacredito.com
[INFO] 2020-03-11 14:39:50,811 | /home/jhon/public_html/frappe-bench/apps/frappe/frappe/core/doctype/scheduled_job_type/scheduled_job_type.py:
Site: fianzacredito.com
Scheduled Job Start: frappe.model.utils.link_count.update_link_count for fianzacredito.com
[INFO] 2020-03-11 14:39:50,908 | /home/jhon/public_html/frappe-bench/apps/frappe/frappe/core/doctype/scheduled_job_type/scheduled_job_type.py:
Site: fianzacredito.com
Scheduled Job Complete: frappe.model.utils.link_count.update_link_count for fianzacredito.com
[INFO] 2020-03-11 14:39:50,956 | /home/jhon/public_html/frappe-bench/apps/frappe/frappe/core/doctype/scheduled_job_type/scheduled_job_type.py:
Site: fianzacredito.com
Scheduled Job Start: frappe.monitor.flush for fianzacredito.com
[INFO] 2020-03-11 14:39:50,972 | /home/jhon/public_html/frappe-bench/apps/frappe/frappe/core/doctype/scheduled_job_type/scheduled_job_type.py:
Site: fianzacredito.com
Scheduled Job Complete: frappe.monitor.flush for fianzacredito.com
[INFO] 2020-03-11 14:39:51,004 | /home/jhon/public_html/frappe-bench/apps/frappe/frappe/core/doctype/scheduled_job_type/scheduled_job_type.py:
Site: fianzacredito.com
Scheduled Job Start: frappe.utils.global_search.sync_global_search for fianzacredito.com
[INFO] 2020-03-11 14:39:51,020 | /home/jhon/public_html/frappe-bench/apps/frappe/frappe/core/doctype/scheduled_job_type/scheduled_job_type.py:
Site: fianzacredito.com
Scheduled Job Complete: frappe.utils.global_search.sync_global_search for fianzacredito.com
[INFO] 2020-03-11 14:39:51,051 | /home/jhon/public_html/frappe-bench/apps/frappe/frappe/core/doctype/scheduled_job_type/scheduled_job_type.py:
Site: fianzacredito.com
Scheduled Job Start: frappe.integrations.doctype.razorpay_settings.razorpay_settings.capture_payment for fianzacredito.com
[INFO] 2020-03-11 14:39:51,078 | /home/jhon/public_html/frappe-bench/apps/frappe/frappe/core/doctype/scheduled_job_type/scheduled_job_type.py:
Site: fianzacredito.com
Scheduled Job Complete: frappe.integrations.doctype.razorpay_settings.razorpay_settings.capture_payment for fianzacredito.com
[INFO] 2020-03-11 14:39:51,126 | /home/jhon/public_html/frappe-bench/apps/frappe/frappe/core/doctype/scheduled_job_type/scheduled_job_type.py:
Site: fianzacredito.com
Scheduled Job Start: frappe.email.doctype.email_account.email_account.notify_unreplied for fianzacredito.com
[INFO] 2020-03-11 14:39:51,179 | /home/jhon/public_html/frappe-bench/apps/frappe/frappe/core/doctype/scheduled_job_type/scheduled_job_type.py:
Site: fianzacredito.com
Scheduled Job Complete: frappe.email.doctype.email_account.email_account.notify_unreplied for fianzacredito.com
[INFO] 2020-03-11 14:39:51,210 | /home/jhon/public_html/frappe-bench/apps/frappe/frappe/core/doctype/scheduled_job_type/scheduled_job_type.py:
Site: fianzacredito.com
Scheduled Job Start: frappe.email.doctype.email_account.email_account.pull for fianzacredito.com
[INFO] 2020-03-11 14:39:51,263 | /home/jhon/public_html/frappe-bench/apps/frappe/frappe/core/doctype/scheduled_job_type/scheduled_job_type.py:
Site: fianzacredito.com
Scheduled Job Complete: frappe.email.doctype.email_account.email_account.pull for fianzacredito.com
[INFO] 2020-03-11 14:39:51,293 | /home/jhon/public_html/frappe-bench/apps/frappe/frappe/core/doctype/scheduled_job_type/scheduled_job_type.py:
Site: fianzacredito.com
Scheduled Job Start: frappe.email.queue.flush for fianzacredito.com
[INFO] 2020-03-11 14:39:51,323 | /home/jhon/public_html/frappe-bench/apps/frappe/frappe/core/doctype/scheduled_job_type/scheduled_job_type.py:
Site: fianzacredito.com
Scheduled Job Complete: frappe.email.queue.flush for fianzacredito.com
[INFO] 2020-03-11 14:39:51,354 | /home/jhon/public_html/frappe-bench/apps/frappe/frappe/core/doctype/scheduled_job_type/scheduled_job_type.py:
Site: fianzacredito.com
Scheduled Job Start: frappe.twofactor.delete_all_barcodes_for_users for fianzacredito.com
[INFO] 2020-03-11 14:39:51,415 | /home/jhon/public_html/frappe-bench/apps/frappe/frappe/core/doctype/scheduled_job_type/scheduled_job_type.py:
Site: fianzacredito.com
Scheduled Job Complete: frappe.twofactor.delete_all_barcodes_for_users for fianzacredito.com
[INFO] 2020-03-11 14:39:51,451 | /home/jhon/public_html/frappe-bench/apps/frappe/frappe/core/doctype/scheduled_job_type/scheduled_job_type.py:
Site: fianzacredito.com
Scheduled Job Start: frappe.website.doctype.web_page.web_page.check_publish_status for fianzacredito.com
[INFO] 2020-03-11 14:39:51,510 | /home/jhon/public_html/frappe-bench/apps/frappe/frappe/core/doctype/scheduled_job_type/scheduled_job_type.py:
Site: fianzacredito.com
Scheduled Job Complete: frappe.website.doctype.web_page.web_page.check_publish_status for fianzacredito.com
[INFO] 2020-03-11 14:39:51,547 | /home/jhon/public_html/frappe-bench/apps/frappe/frappe/core/doctype/scheduled_job_type/scheduled_job_type.py:
Site: fianzacredito.com
Scheduled Job Start: frappe.oauth.delete_oauth2_data for fianzacredito.com
[INFO] 2020-03-11 14:39:51,629 | /home/jhon/public_html/frappe-bench/apps/frappe/frappe/core/doctype/scheduled_job_type/scheduled_job_type.py:
Site: fianzacredito.com
Scheduled Job Complete: frappe.oauth.delete_oauth2_data for fianzacredito.com
