[INFO] 2020-03-11 11:01:06,218 | /home/jhon/public_html/frappe-bench/apps/frappe/frappe/core/doctype/scheduled_job_type/scheduled_job_type.py:
Site: fianzacredito.com
Scheduled Job Failed: frappe.utils.change_log.check_for_update for fianzacredito.com
[INFO] 2020-03-11 11:01:06,266 | /home/jhon/public_html/frappe-bench/apps/frappe/frappe/core/doctype/scheduled_job_type/scheduled_job_type.py:
Site: fianzacredito.com
Scheduled Job Start: frappe.integrations.doctype.dropbox_settings.dropbox_settings.take_backups_daily for fianzacredito.com
[INFO] 2020-03-11 11:01:06,485 | /home/jhon/public_html/frappe-bench/apps/frappe/frappe/core/doctype/scheduled_job_type/scheduled_job_type.py:
Site: fianzacredito.com
Scheduled Job Complete: frappe.integrations.doctype.dropbox_settings.dropbox_settings.take_backups_daily for fianzacredito.com
[INFO] 2020-03-11 11:01:06,541 | /home/jhon/public_html/frappe-bench/apps/frappe/frappe/core/doctype/scheduled_job_type/scheduled_job_type.py:
Site: fianzacredito.com
Scheduled Job Start: frappe.utils.scheduler.restrict_scheduler_events_if_dormant for fianzacredito.com
[INFO] 2020-03-11 11:01:06,608 | /home/jhon/public_html/frappe-bench/apps/frappe/frappe/core/doctype/scheduled_job_type/scheduled_job_type.py:
Site: fianzacredito.com
Scheduled Job Failed: frappe.utils.scheduler.restrict_scheduler_events_if_dormant for fianzacredito.com
[INFO] 2020-03-11 11:01:06,659 | /home/jhon/public_html/frappe-bench/apps/frappe/frappe/core/doctype/scheduled_job_type/scheduled_job_type.py:
Site: fianzacredito.com
Scheduled Job Start: frappe.realtime.remove_old_task_logs for fianzacredito.com
[INFO] 2020-03-11 11:01:06,722 | /home/jhon/public_html/frappe-bench/apps/frappe/frappe/core/doctype/scheduled_job_type/scheduled_job_type.py:
Site: fianzacredito.com
Scheduled Job Complete: frappe.realtime.remove_old_task_logs for fianzacredito.com
[INFO] 2020-03-11 11:01:06,764 | /home/jhon/public_html/frappe-bench/apps/frappe/frappe/core/doctype/scheduled_job_type/scheduled_job_type.py:
Site: fianzacredito.com
Scheduled Job Start: frappe.email.doctype.notification.notification.trigger_daily_alerts for fianzacredito.com
[INFO] 2020-03-11 11:01:06,838 | /home/jhon/public_html/frappe-bench/apps/frappe/frappe/core/doctype/scheduled_job_type/scheduled_job_type.py:
Site: fianzacredito.com
Scheduled Job Complete: frappe.email.doctype.notification.notification.trigger_daily_alerts for fianzacredito.com
[INFO] 2020-03-11 11:01:06,884 | /home/jhon/public_html/frappe-bench/apps/frappe/frappe/core/doctype/scheduled_job_type/scheduled_job_type.py:
Site: fianzacredito.com
Scheduled Job Start: frappe.sessions.clear_expired_sessions for fianzacredito.com
[INFO] 2020-03-11 11:01:06,963 | /home/jhon/public_html/frappe-bench/apps/frappe/frappe/core/doctype/scheduled_job_type/scheduled_job_type.py:
Site: fianzacredito.com
Scheduled Job Complete: frappe.sessions.clear_expired_sessions for fianzacredito.com
[INFO] 2020-03-11 11:01:07,012 | /home/jhon/public_html/frappe-bench/apps/frappe/frappe/core/doctype/scheduled_job_type/scheduled_job_type.py:
Site: fianzacredito.com
Scheduled Job Start: frappe.desk.doctype.event.event.send_event_digest for fianzacredito.com
[INFO] 2020-03-11 11:01:07,083 | /home/jhon/public_html/frappe-bench/apps/frappe/frappe/core/doctype/scheduled_job_type/scheduled_job_type.py:
Site: fianzacredito.com
Scheduled Job Complete: frappe.desk.doctype.event.event.send_event_digest for fianzacredito.com
[INFO] 2020-03-11 11:01:07,128 | /home/jhon/public_html/frappe-bench/apps/frappe/frappe/core/doctype/scheduled_job_type/scheduled_job_type.py:
Site: fianzacredito.com
Scheduled Job Start: frappe.core.doctype.error_log.error_log.set_old_logs_as_seen for fianzacredito.com
[INFO] 2020-03-11 11:01:07,187 | /home/jhon/public_html/frappe-bench/apps/frappe/frappe/core/doctype/scheduled_job_type/scheduled_job_type.py:
Site: fianzacredito.com
Scheduled Job Complete: frappe.core.doctype.error_log.error_log.set_old_logs_as_seen for fianzacredito.com
[INFO] 2020-03-11 11:01:07,225 | /home/jhon/public_html/frappe-bench/apps/frappe/frappe/core/doctype/scheduled_job_type/scheduled_job_type.py:
Site: fianzacredito.com
Scheduled Job Start: frappe.desk.notifications.clear_notifications for fianzacredito.com
[INFO] 2020-03-11 11:01:07,285 | /home/jhon/public_html/frappe-bench/apps/frappe/frappe/core/doctype/scheduled_job_type/scheduled_job_type.py:
Site: fianzacredito.com
Scheduled Job Complete: frappe.desk.notifications.clear_notifications for fianzacredito.com
[INFO] 2020-03-11 11:01:07,324 | /home/jhon/public_html/frappe-bench/apps/frappe/frappe/core/doctype/scheduled_job_type/scheduled_job_type.py:
Site: fianzacredito.com
Scheduled Job Start: frappe.email.queue.clear_outbox for fianzacredito.com
[INFO] 2020-03-11 11:01:07,396 | /home/jhon/public_html/frappe-bench/apps/frappe/frappe/core/doctype/scheduled_job_type/scheduled_job_type.py:
Site: fianzacredito.com
Scheduled Job Complete: frappe.email.queue.clear_outbox for fianzacredito.com
[INFO] 2020-03-11 11:01:07,434 | /home/jhon/public_html/frappe-bench/apps/frappe/frappe/core/doctype/scheduled_job_type/scheduled_job_type.py:
Site: fianzacredito.com
Scheduled Job Start: frappe.integrations.doctype.google_calendar.google_calendar.sync for fianzacredito.com
[INFO] 2020-03-11 11:01:07,528 | /home/jhon/public_html/frappe-bench/apps/frappe/frappe/core/doctype/scheduled_job_type/scheduled_job_type.py:
Site: fianzacredito.com
Scheduled Job Complete: frappe.integrations.doctype.google_calendar.google_calendar.sync for fianzacredito.com
[INFO] 2020-03-11 11:01:07,567 | /home/jhon/public_html/frappe-bench/apps/frappe/frappe/core/doctype/scheduled_job_type/scheduled_job_type.py:
Site: fianzacredito.com
Scheduled Job Start: frappe.desk.form.document_follow.send_hourly_updates for fianzacredito.com
[INFO] 2020-03-11 11:01:07,633 | /home/jhon/public_html/frappe-bench/apps/frappe/frappe/core/doctype/scheduled_job_type/scheduled_job_type.py:
Site: fianzacredito.com
Scheduled Job Complete: frappe.desk.form.document_follow.send_hourly_updates for fianzacredito.com
[INFO] 2020-03-11 11:01:07,675 | /home/jhon/public_html/frappe-bench/apps/frappe/frappe/core/doctype/scheduled_job_type/scheduled_job_type.py:
Site: fianzacredito.com
Scheduled Job Start: frappe.deferred_insert.save_to_db for fianzacredito.com
[INFO] 2020-03-11 11:01:07,732 | /home/jhon/public_html/frappe-bench/apps/frappe/frappe/core/doctype/scheduled_job_type/scheduled_job_type.py:
Site: fianzacredito.com
Scheduled Job Complete: frappe.deferred_insert.save_to_db for fianzacredito.com
[INFO] 2020-03-11 11:01:07,771 | /home/jhon/public_html/frappe-bench/apps/frappe/frappe/core/doctype/scheduled_job_type/scheduled_job_type.py:
Site: fianzacredito.com
Scheduled Job Start: frappe.desk.page.backups.backups.delete_downloadable_backups for fianzacredito.com
[INFO] 2020-03-11 11:01:07,849 | /home/jhon/public_html/frappe-bench/apps/frappe/frappe/core/doctype/scheduled_job_type/scheduled_job_type.py:
Site: fianzacredito.com
Scheduled Job Complete: frappe.desk.page.backups.backups.delete_downloadable_backups for fianzacredito.com
[INFO] 2020-03-11 11:01:07,888 | /home/jhon/public_html/frappe-bench/apps/frappe/frappe/core/doctype/scheduled_job_type/scheduled_job_type.py:
Site: fianzacredito.com
Scheduled Job Start: frappe.utils.error.collect_error_snapshots for fianzacredito.com
[INFO] 2020-03-11 11:01:07,951 | /home/jhon/public_html/frappe-bench/apps/frappe/frappe/core/doctype/scheduled_job_type/scheduled_job_type.py:
Site: fianzacredito.com
Scheduled Job Complete: frappe.utils.error.collect_error_snapshots for fianzacredito.com
[INFO] 2020-03-11 11:01:07,988 | /home/jhon/public_html/frappe-bench/apps/frappe/frappe/core/doctype/scheduled_job_type/scheduled_job_type.py:
Site: fianzacredito.com
Scheduled Job Start: frappe.model.utils.user_settings.sync_user_settings for fianzacredito.com
[INFO] 2020-03-11 11:01:08,046 | /home/jhon/public_html/frappe-bench/apps/frappe/frappe/core/doctype/scheduled_job_type/scheduled_job_type.py:
Site: fianzacredito.com
Scheduled Job Complete: frappe.model.utils.user_settings.sync_user_settings for fianzacredito.com
[INFO] 2020-03-11 11:01:08,084 | /home/jhon/public_html/frappe-bench/apps/frappe/frappe/core/doctype/scheduled_job_type/scheduled_job_type.py:
Site: fianzacredito.com
Scheduled Job Start: frappe.model.utils.link_count.update_link_count for fianzacredito.com
[INFO] 2020-03-11 11:01:08,146 | /home/jhon/public_html/frappe-bench/apps/frappe/frappe/core/doctype/scheduled_job_type/scheduled_job_type.py:
Site: fianzacredito.com
Scheduled Job Complete: frappe.model.utils.link_count.update_link_count for fianzacredito.com
[INFO] 2020-03-11 11:01:08,184 | /home/jhon/public_html/frappe-bench/apps/frappe/frappe/core/doctype/scheduled_job_type/scheduled_job_type.py:
Site: fianzacredito.com
Scheduled Job Start: frappe.monitor.flush for fianzacredito.com
[INFO] 2020-03-11 11:01:08,200 | /home/jhon/public_html/frappe-bench/apps/frappe/frappe/core/doctype/scheduled_job_type/scheduled_job_type.py:
Site: fianzacredito.com
Scheduled Job Complete: frappe.monitor.flush for fianzacredito.com
[INFO] 2020-03-11 11:01:08,232 | /home/jhon/public_html/frappe-bench/apps/frappe/frappe/core/doctype/scheduled_job_type/scheduled_job_type.py:
Site: fianzacredito.com
Scheduled Job Start: frappe.utils.global_search.sync_global_search for fianzacredito.com
[INFO] 2020-03-11 11:01:08,253 | /home/jhon/public_html/frappe-bench/apps/frappe/frappe/core/doctype/scheduled_job_type/scheduled_job_type.py:
Site: fianzacredito.com
Scheduled Job Complete: frappe.utils.global_search.sync_global_search for fianzacredito.com
[INFO] 2020-03-11 11:01:08,290 | /home/jhon/public_html/frappe-bench/apps/frappe/frappe/core/doctype/scheduled_job_type/scheduled_job_type.py:
Site: fianzacredito.com
Scheduled Job Start: frappe.integrations.doctype.razorpay_settings.razorpay_settings.capture_payment for fianzacredito.com
[INFO] 2020-03-11 11:01:08,339 | /home/jhon/public_html/frappe-bench/apps/frappe/frappe/core/doctype/scheduled_job_type/scheduled_job_type.py:
Site: fianzacredito.com
Scheduled Job Complete: frappe.integrations.doctype.razorpay_settings.razorpay_settings.capture_payment for fianzacredito.com
[INFO] 2020-03-11 11:01:08,378 | /home/jhon/public_html/frappe-bench/apps/frappe/frappe/core/doctype/scheduled_job_type/scheduled_job_type.py:
Site: fianzacredito.com
Scheduled Job Start: frappe.email.doctype.email_account.email_account.notify_unreplied for fianzacredito.com
[INFO] 2020-03-11 11:01:08,451 | /home/jhon/public_html/frappe-bench/apps/frappe/frappe/core/doctype/scheduled_job_type/scheduled_job_type.py:
Site: fianzacredito.com
Scheduled Job Complete: frappe.email.doctype.email_account.email_account.notify_unreplied for fianzacredito.com
[INFO] 2020-03-11 11:01:08,484 | /home/jhon/public_html/frappe-bench/apps/frappe/frappe/core/doctype/scheduled_job_type/scheduled_job_type.py:
Site: fianzacredito.com
Scheduled Job Start: frappe.email.doctype.email_account.email_account.pull for fianzacredito.com
[INFO] 2020-03-11 11:01:08,534 | /home/jhon/public_html/frappe-bench/apps/frappe/frappe/core/doctype/scheduled_job_type/scheduled_job_type.py:
Site: fianzacredito.com
Scheduled Job Complete: frappe.email.doctype.email_account.email_account.pull for fianzacredito.com
[INFO] 2020-03-11 11:01:08,573 | /home/jhon/public_html/frappe-bench/apps/frappe/frappe/core/doctype/scheduled_job_type/scheduled_job_type.py:
Site: fianzacredito.com
Scheduled Job Start: frappe.email.queue.flush for fianzacredito.com
[INFO] 2020-03-11 11:01:08,612 | /home/jhon/public_html/frappe-bench/apps/frappe/frappe/core/doctype/scheduled_job_type/scheduled_job_type.py:
Site: fianzacredito.com
Scheduled Job Complete: frappe.email.queue.flush for fianzacredito.com
[INFO] 2020-03-11 11:01:08,649 | /home/jhon/public_html/frappe-bench/apps/frappe/frappe/core/doctype/scheduled_job_type/scheduled_job_type.py:
Site: fianzacredito.com
Scheduled Job Start: frappe.twofactor.delete_all_barcodes_for_users for fianzacredito.com
[INFO] 2020-03-11 11:01:08,734 | /home/jhon/public_html/frappe-bench/apps/frappe/frappe/core/doctype/scheduled_job_type/scheduled_job_type.py:
Site: fianzacredito.com
Scheduled Job Complete: frappe.twofactor.delete_all_barcodes_for_users for fianzacredito.com
[INFO] 2020-03-11 11:01:08,778 | /home/jhon/public_html/frappe-bench/apps/frappe/frappe/core/doctype/scheduled_job_type/scheduled_job_type.py:
Site: fianzacredito.com
Scheduled Job Start: frappe.website.doctype.web_page.web_page.check_publish_status for fianzacredito.com
[INFO] 2020-03-11 11:01:08,855 | /home/jhon/public_html/frappe-bench/apps/frappe/frappe/core/doctype/scheduled_job_type/scheduled_job_type.py:
Site: fianzacredito.com
Scheduled Job Complete: frappe.website.doctype.web_page.web_page.check_publish_status for fianzacredito.com
[INFO] 2020-03-11 11:01:08,893 | /home/jhon/public_html/frappe-bench/apps/frappe/frappe/core/doctype/scheduled_job_type/scheduled_job_type.py:
Site: fianzacredito.com
Scheduled Job Start: frappe.oauth.delete_oauth2_data for fianzacredito.com
[INFO] 2020-03-11 11:01:08,982 | /home/jhon/public_html/frappe-bench/apps/frappe/frappe/core/doctype/scheduled_job_type/scheduled_job_type.py:
Site: fianzacredito.com
Scheduled Job Complete: frappe.oauth.delete_oauth2_data for fianzacredito.com
