[INFO] 2020-03-10 17:41:03,514 | /home/jhon/public_html/frappe-bench/apps/frappe/frappe/core/doctype/scheduled_job_type/scheduled_job_type.py:
Site: fianzacredito.com
Scheduled Job Start: frappe.integrations.doctype.s3_backup_settings.s3_backup_settings.take_backups_monthly for fianzacredito.com
[INFO] 2020-03-10 17:41:03,517 | /home/jhon/public_html/frappe-bench/apps/frappe/frappe/core/doctype/scheduled_job_type/scheduled_job_type.py:
Site: fianzacredito.com
Scheduled Job Start: frappe.social.doctype.energy_point_log.energy_point_log.send_monthly_summary for fianzacredito.com
[INFO] 2020-03-10 17:41:03,649 | /home/jhon/public_html/frappe-bench/apps/frappe/frappe/core/doctype/scheduled_job_type/scheduled_job_type.py:
Site: fianzacredito.com
Scheduled Job Complete: frappe.social.doctype.energy_point_log.energy_point_log.send_monthly_summary for fianzacredito.com
[INFO] 2020-03-10 17:41:03,740 | /home/jhon/public_html/frappe-bench/apps/frappe/frappe/core/doctype/scheduled_job_type/scheduled_job_type.py:
Site: fianzacredito.com
Scheduled Job Complete: frappe.integrations.doctype.s3_backup_settings.s3_backup_settings.take_backups_monthly for fianzacredito.com
[INFO] 2020-03-10 17:41:03,749 | /home/jhon/public_html/frappe-bench/apps/frappe/frappe/core/doctype/scheduled_job_type/scheduled_job_type.py:
Site: fianzacredito.com
Scheduled Job Start: frappe.email.doctype.auto_email_report.auto_email_report.send_monthly for fianzacredito.com
[INFO] 2020-03-10 17:41:03,834 | /home/jhon/public_html/frappe-bench/apps/frappe/frappe/core/doctype/scheduled_job_type/scheduled_job_type.py:
Site: fianzacredito.com
Scheduled Job Start: frappe.integrations.doctype.google_drive.google_drive.weekly_backup for fianzacredito.com
[INFO] 2020-03-10 17:41:04,041 | /home/jhon/public_html/frappe-bench/apps/frappe/frappe/core/doctype/scheduled_job_type/scheduled_job_type.py:
Site: fianzacredito.com
Scheduled Job Complete: frappe.integrations.doctype.google_drive.google_drive.weekly_backup for fianzacredito.com
[DEBUG] 2020-03-10 17:41:04,117 | /home/jhon/public_html/frappe-bench/apps/frappe/frappe/utils/scheduler.py:
Site: fianzacredito.com
Queued events for site fianzacredito.com
[INFO] 2020-03-10 17:41:04,139 | /home/jhon/public_html/frappe-bench/apps/frappe/frappe/core/doctype/scheduled_job_type/scheduled_job_type.py:
Site: fianzacredito.com
Scheduled Job Start: frappe.social.doctype.energy_point_log.energy_point_log.send_weekly_summary for fianzacredito.com
[INFO] 2020-03-10 17:41:04,228 | /home/jhon/public_html/frappe-bench/apps/frappe/frappe/core/doctype/scheduled_job_type/scheduled_job_type.py:
Site: fianzacredito.com
Scheduled Job Complete: frappe.social.doctype.energy_point_log.energy_point_log.send_weekly_summary for fianzacredito.com
[INFO] 2020-03-10 17:41:04,240 | /home/jhon/public_html/frappe-bench/apps/frappe/frappe/core/doctype/scheduled_job_type/scheduled_job_type.py:
Site: fianzacredito.com
Scheduled Job Complete: frappe.email.doctype.auto_email_report.auto_email_report.send_monthly for fianzacredito.com
[INFO] 2020-03-10 17:41:04,280 | /home/jhon/public_html/frappe-bench/apps/frappe/frappe/core/doctype/scheduled_job_type/scheduled_job_type.py:
Site: fianzacredito.com
Scheduled Job Start: frappe.desk.form.document_follow.send_weekly_updates for fianzacredito.com
[INFO] 2020-03-10 17:41:04,291 | /home/jhon/public_html/frappe-bench/apps/frappe/frappe/core/doctype/scheduled_job_type/scheduled_job_type.py:
Site: fianzacredito.com
Scheduled Job Start: frappe.email.doctype.unhandled_email.unhandled_email.remove_old_unhandled_emails for fianzacredito.com
[INFO] 2020-03-10 17:41:04,353 | /home/jhon/public_html/frappe-bench/apps/frappe/frappe/core/doctype/scheduled_job_type/scheduled_job_type.py:
Site: fianzacredito.com
Scheduled Job Complete: frappe.desk.form.document_follow.send_weekly_updates for fianzacredito.com
[INFO] 2020-03-10 17:41:04,369 | /home/jhon/public_html/frappe-bench/apps/frappe/frappe/core/doctype/scheduled_job_type/scheduled_job_type.py:
Site: fianzacredito.com
Scheduled Job Complete: frappe.email.doctype.unhandled_email.unhandled_email.remove_old_unhandled_emails for fianzacredito.com
[INFO] 2020-03-10 17:41:04,422 | /home/jhon/public_html/frappe-bench/apps/frappe/frappe/core/doctype/scheduled_job_type/scheduled_job_type.py:
Site: fianzacredito.com
Scheduled Job Start: frappe.desk.doctype.route_history.route_history.flush_old_route_records for fianzacredito.com
[INFO] 2020-03-10 17:41:04,431 | /home/jhon/public_html/frappe-bench/apps/frappe/frappe/core/doctype/scheduled_job_type/scheduled_job_type.py:
Site: fianzacredito.com
Scheduled Job Start: frappe.automation.doctype.auto_repeat.auto_repeat.set_auto_repeat_as_completed for fianzacredito.com
[INFO] 2020-03-10 17:41:04,491 | /home/jhon/public_html/frappe-bench/apps/frappe/frappe/core/doctype/scheduled_job_type/scheduled_job_type.py:
Site: fianzacredito.com
Scheduled Job Complete: frappe.desk.doctype.route_history.route_history.flush_old_route_records for fianzacredito.com
[INFO] 2020-03-10 17:41:04,546 | /home/jhon/public_html/frappe-bench/apps/frappe/frappe/core/doctype/scheduled_job_type/scheduled_job_type.py:
Site: fianzacredito.com
Scheduled Job Start: frappe.integrations.doctype.s3_backup_settings.s3_backup_settings.take_backups_weekly for fianzacredito.com
[INFO] 2020-03-10 17:41:04,548 | /home/jhon/public_html/frappe-bench/apps/frappe/frappe/core/doctype/scheduled_job_type/scheduled_job_type.py:
Site: fianzacredito.com
Scheduled Job Complete: frappe.automation.doctype.auto_repeat.auto_repeat.set_auto_repeat_as_completed for fianzacredito.com
[INFO] 2020-03-10 17:41:04,601 | /home/jhon/public_html/frappe-bench/apps/frappe/frappe/core/doctype/scheduled_job_type/scheduled_job_type.py:
Site: fianzacredito.com
Scheduled Job Start: frappe.automation.doctype.auto_repeat.auto_repeat.make_auto_repeat_entry for fianzacredito.com
[INFO] 2020-03-10 17:41:04,663 | /home/jhon/public_html/frappe-bench/apps/frappe/frappe/core/doctype/scheduled_job_type/scheduled_job_type.py:
Site: fianzacredito.com
Scheduled Job Complete: frappe.integrations.doctype.s3_backup_settings.s3_backup_settings.take_backups_weekly for fianzacredito.com
[INFO] 2020-03-10 17:41:04,709 | /home/jhon/public_html/frappe-bench/apps/frappe/frappe/core/doctype/scheduled_job_type/scheduled_job_type.py:
Site: fianzacredito.com
Scheduled Job Complete: frappe.automation.doctype.auto_repeat.auto_repeat.make_auto_repeat_entry for fianzacredito.com
[INFO] 2020-03-10 17:41:04,723 | /home/jhon/public_html/frappe-bench/apps/frappe/frappe/core/doctype/scheduled_job_type/scheduled_job_type.py:
Site: fianzacredito.com
Scheduled Job Start: frappe.integrations.doctype.dropbox_settings.dropbox_settings.take_backups_weekly for fianzacredito.com
[INFO] 2020-03-10 17:41:04,757 | /home/jhon/public_html/frappe-bench/apps/frappe/frappe/core/doctype/scheduled_job_type/scheduled_job_type.py:
Site: fianzacredito.com
Scheduled Job Start: frappe.integrations.doctype.google_contacts.google_contacts.sync for fianzacredito.com
[INFO] 2020-03-10 17:41:04,879 | /home/jhon/public_html/frappe-bench/apps/frappe/frappe/core/doctype/scheduled_job_type/scheduled_job_type.py:
Site: fianzacredito.com
Scheduled Job Complete: frappe.integrations.doctype.google_contacts.google_contacts.sync for fianzacredito.com
[INFO] 2020-03-10 17:41:04,925 | /home/jhon/public_html/frappe-bench/apps/frappe/frappe/core/doctype/scheduled_job_type/scheduled_job_type.py:
Site: fianzacredito.com
Scheduled Job Complete: frappe.integrations.doctype.dropbox_settings.dropbox_settings.take_backups_weekly for fianzacredito.com
[INFO] 2020-03-10 17:41:04,969 | /home/jhon/public_html/frappe-bench/apps/frappe/frappe/core/doctype/scheduled_job_type/scheduled_job_type.py:
Site: fianzacredito.com
Scheduled Job Start: frappe.social.doctype.energy_point_settings.energy_point_settings.allocate_review_points for fianzacredito.com
[INFO] 2020-03-10 17:41:05,021 | /home/jhon/public_html/frappe-bench/apps/frappe/frappe/core/doctype/scheduled_job_type/scheduled_job_type.py:
Site: fianzacredito.com
Scheduled Job Start: frappe.integrations.doctype.google_drive.google_drive.daily_backup for fianzacredito.com
[INFO] 2020-03-10 17:41:05,101 | /home/jhon/public_html/frappe-bench/apps/frappe/frappe/core/doctype/scheduled_job_type/scheduled_job_type.py:
Site: fianzacredito.com
Scheduled Job Complete: frappe.social.doctype.energy_point_settings.energy_point_settings.allocate_review_points for fianzacredito.com
[INFO] 2020-03-10 17:41:05,132 | /home/jhon/public_html/frappe-bench/apps/frappe/frappe/core/doctype/scheduled_job_type/scheduled_job_type.py:
Site: fianzacredito.com
Scheduled Job Complete: frappe.integrations.doctype.google_drive.google_drive.daily_backup for fianzacredito.com
[INFO] 2020-03-10 17:41:05,196 | /home/jhon/public_html/frappe-bench/apps/frappe/frappe/core/doctype/scheduled_job_type/scheduled_job_type.py:
Site: fianzacredito.com
Scheduled Job Start: frappe.desk.form.document_follow.send_daily_updates for fianzacredito.com
[INFO] 2020-03-10 17:41:05,220 | /home/jhon/public_html/frappe-bench/apps/frappe/frappe/core/doctype/scheduled_job_type/scheduled_job_type.py:
Site: fianzacredito.com
Scheduled Job Start: frappe.integrations.doctype.s3_backup_settings.s3_backup_settings.take_backups_daily for fianzacredito.com
[INFO] 2020-03-10 17:41:05,280 | /home/jhon/public_html/frappe-bench/apps/frappe/frappe/core/doctype/scheduled_job_type/scheduled_job_type.py:
Site: fianzacredito.com
Scheduled Job Complete: frappe.desk.form.document_follow.send_daily_updates for fianzacredito.com
[INFO] 2020-03-10 17:41:05,348 | /home/jhon/public_html/frappe-bench/apps/frappe/frappe/core/doctype/scheduled_job_type/scheduled_job_type.py:
Site: fianzacredito.com
Scheduled Job Complete: frappe.integrations.doctype.s3_backup_settings.s3_backup_settings.take_backups_daily for fianzacredito.com
[INFO] 2020-03-10 17:41:05,363 | /home/jhon/public_html/frappe-bench/apps/frappe/frappe/core/doctype/scheduled_job_type/scheduled_job_type.py:
Site: fianzacredito.com
Scheduled Job Start: frappe.website.doctype.personal_data_deletion_request.personal_data_deletion_request.remove_unverified_record for fianzacredito.com
[INFO] 2020-03-10 17:41:05,401 | /home/jhon/public_html/frappe-bench/apps/frappe/frappe/core/doctype/scheduled_job_type/scheduled_job_type.py:
Site: fianzacredito.com
Scheduled Job Start: frappe.utils.change_log.check_for_update for fianzacredito.com
[INFO] 2020-03-10 17:41:05,431 | /home/jhon/public_html/frappe-bench/apps/frappe/frappe/core/doctype/scheduled_job_type/scheduled_job_type.py:
Site: fianzacredito.com
Scheduled Job Complete: frappe.website.doctype.personal_data_deletion_request.personal_data_deletion_request.remove_unverified_record for fianzacredito.com
[INFO] 2020-03-10 17:41:05,494 | /home/jhon/public_html/frappe-bench/apps/frappe/frappe/core/doctype/scheduled_job_type/scheduled_job_type.py:
Site: fianzacredito.com
Scheduled Job Start: frappe.core.doctype.activity_log.activity_log.clear_authentication_logs for fianzacredito.com
[INFO] 2020-03-10 17:41:05,578 | /home/jhon/public_html/frappe-bench/apps/frappe/frappe/core/doctype/scheduled_job_type/scheduled_job_type.py:
Site: fianzacredito.com
Scheduled Job Complete: frappe.core.doctype.activity_log.activity_log.clear_authentication_logs for fianzacredito.com
[INFO] 2020-03-10 17:41:05,634 | /home/jhon/public_html/frappe-bench/apps/frappe/frappe/core/doctype/scheduled_job_type/scheduled_job_type.py:
Site: fianzacredito.com
Scheduled Job Start: frappe.email.doctype.auto_email_report.auto_email_report.send_daily for fianzacredito.com
[INFO] 2020-03-10 17:41:05,823 | /home/jhon/public_html/frappe-bench/apps/frappe/frappe/core/doctype/scheduled_job_type/scheduled_job_type.py:
Site: fianzacredito.com
Scheduled Job Complete: frappe.email.doctype.auto_email_report.auto_email_report.send_daily for fianzacredito.com
[INFO] 2020-03-10 17:41:05,888 | /home/jhon/public_html/frappe-bench/apps/frappe/frappe/core/doctype/scheduled_job_type/scheduled_job_type.py:
Site: fianzacredito.com
Scheduled Job Start: frappe.utils.scheduler.restrict_scheduler_events_if_dormant for fianzacredito.com
[INFO] 2020-03-10 17:41:05,962 | /home/jhon/public_html/frappe-bench/apps/frappe/frappe/core/doctype/scheduled_job_type/scheduled_job_type.py:
Site: fianzacredito.com
Scheduled Job Failed: frappe.utils.scheduler.restrict_scheduler_events_if_dormant for fianzacredito.com
[INFO] 2020-03-10 17:41:06,026 | /home/jhon/public_html/frappe-bench/apps/frappe/frappe/core/doctype/scheduled_job_type/scheduled_job_type.py:
Site: fianzacredito.com
Scheduled Job Start: frappe.realtime.remove_old_task_logs for fianzacredito.com
[INFO] 2020-03-10 17:41:06,053 | /home/jhon/public_html/frappe-bench/apps/frappe/frappe/core/doctype/scheduled_job_type/scheduled_job_type.py:
Site: fianzacredito.com
Scheduled Job Failed: frappe.utils.change_log.check_for_update for fianzacredito.com
[INFO] 2020-03-10 17:41:06,093 | /home/jhon/public_html/frappe-bench/apps/frappe/frappe/core/doctype/scheduled_job_type/scheduled_job_type.py:
Site: fianzacredito.com
Scheduled Job Complete: frappe.realtime.remove_old_task_logs for fianzacredito.com
[INFO] 2020-03-10 17:41:06,111 | /home/jhon/public_html/frappe-bench/apps/frappe/frappe/core/doctype/scheduled_job_type/scheduled_job_type.py:
Site: fianzacredito.com
Scheduled Job Start: frappe.integrations.doctype.dropbox_settings.dropbox_settings.take_backups_daily for fianzacredito.com
[INFO] 2020-03-10 17:41:06,145 | /home/jhon/public_html/frappe-bench/apps/frappe/frappe/core/doctype/scheduled_job_type/scheduled_job_type.py:
Site: fianzacredito.com
Scheduled Job Start: frappe.email.doctype.notification.notification.trigger_daily_alerts for fianzacredito.com
[INFO] 2020-03-10 17:41:06,217 | /home/jhon/public_html/frappe-bench/apps/frappe/frappe/core/doctype/scheduled_job_type/scheduled_job_type.py:
Site: fianzacredito.com
Scheduled Job Complete: frappe.email.doctype.notification.notification.trigger_daily_alerts for fianzacredito.com
[INFO] 2020-03-10 17:41:06,267 | /home/jhon/public_html/frappe-bench/apps/frappe/frappe/core/doctype/scheduled_job_type/scheduled_job_type.py:
Site: fianzacredito.com
Scheduled Job Complete: frappe.integrations.doctype.dropbox_settings.dropbox_settings.take_backups_daily for fianzacredito.com
[INFO] 2020-03-10 17:41:06,267 | /home/jhon/public_html/frappe-bench/apps/frappe/frappe/core/doctype/scheduled_job_type/scheduled_job_type.py:
Site: fianzacredito.com
Scheduled Job Start: frappe.sessions.clear_expired_sessions for fianzacredito.com
[INFO] 2020-03-10 17:41:06,324 | /home/jhon/public_html/frappe-bench/apps/frappe/frappe/core/doctype/scheduled_job_type/scheduled_job_type.py:
Site: fianzacredito.com
Scheduled Job Complete: frappe.sessions.clear_expired_sessions for fianzacredito.com
[INFO] 2020-03-10 17:41:06,382 | /home/jhon/public_html/frappe-bench/apps/frappe/frappe/core/doctype/scheduled_job_type/scheduled_job_type.py:
Site: fianzacredito.com
Scheduled Job Start: frappe.desk.doctype.event.event.send_event_digest for fianzacredito.com
[INFO] 2020-03-10 17:41:06,446 | /home/jhon/public_html/frappe-bench/apps/frappe/frappe/core/doctype/scheduled_job_type/scheduled_job_type.py:
Site: fianzacredito.com
Scheduled Job Complete: frappe.desk.doctype.event.event.send_event_digest for fianzacredito.com
[INFO] 2020-03-10 17:41:06,491 | /home/jhon/public_html/frappe-bench/apps/frappe/frappe/core/doctype/scheduled_job_type/scheduled_job_type.py:
Site: fianzacredito.com
Scheduled Job Start: frappe.core.doctype.error_log.error_log.set_old_logs_as_seen for fianzacredito.com
[INFO] 2020-03-10 17:41:06,563 | /home/jhon/public_html/frappe-bench/apps/frappe/frappe/core/doctype/scheduled_job_type/scheduled_job_type.py:
Site: fianzacredito.com
Scheduled Job Complete: frappe.core.doctype.error_log.error_log.set_old_logs_as_seen for fianzacredito.com
[INFO] 2020-03-10 17:41:06,617 | /home/jhon/public_html/frappe-bench/apps/frappe/frappe/core/doctype/scheduled_job_type/scheduled_job_type.py:
Site: fianzacredito.com
Scheduled Job Start: frappe.desk.notifications.clear_notifications for fianzacredito.com
[INFO] 2020-03-10 17:41:06,677 | /home/jhon/public_html/frappe-bench/apps/frappe/frappe/core/doctype/scheduled_job_type/scheduled_job_type.py:
Site: fianzacredito.com
Scheduled Job Complete: frappe.desk.notifications.clear_notifications for fianzacredito.com
[INFO] 2020-03-10 17:41:06,727 | /home/jhon/public_html/frappe-bench/apps/frappe/frappe/core/doctype/scheduled_job_type/scheduled_job_type.py:
Site: fianzacredito.com
Scheduled Job Start: frappe.email.queue.clear_outbox for fianzacredito.com
[INFO] 2020-03-10 17:41:06,802 | /home/jhon/public_html/frappe-bench/apps/frappe/frappe/core/doctype/scheduled_job_type/scheduled_job_type.py:
Site: fianzacredito.com
Scheduled Job Complete: frappe.email.queue.clear_outbox for fianzacredito.com
[INFO] 2020-03-10 17:41:06,848 | /home/jhon/public_html/frappe-bench/apps/frappe/frappe/core/doctype/scheduled_job_type/scheduled_job_type.py:
Site: fianzacredito.com
Scheduled Job Start: frappe.integrations.doctype.google_calendar.google_calendar.sync for fianzacredito.com
[INFO] 2020-03-10 17:41:06,953 | /home/jhon/public_html/frappe-bench/apps/frappe/frappe/core/doctype/scheduled_job_type/scheduled_job_type.py:
Site: fianzacredito.com
Scheduled Job Complete: frappe.integrations.doctype.google_calendar.google_calendar.sync for fianzacredito.com
[INFO] 2020-03-10 17:41:07,003 | /home/jhon/public_html/frappe-bench/apps/frappe/frappe/core/doctype/scheduled_job_type/scheduled_job_type.py:
Site: fianzacredito.com
Scheduled Job Start: frappe.desk.form.document_follow.send_hourly_updates for fianzacredito.com
[INFO] 2020-03-10 17:41:07,081 | /home/jhon/public_html/frappe-bench/apps/frappe/frappe/core/doctype/scheduled_job_type/scheduled_job_type.py:
Site: fianzacredito.com
Scheduled Job Complete: frappe.desk.form.document_follow.send_hourly_updates for fianzacredito.com
[INFO] 2020-03-10 17:41:07,153 | /home/jhon/public_html/frappe-bench/apps/frappe/frappe/core/doctype/scheduled_job_type/scheduled_job_type.py:
Site: fianzacredito.com
Scheduled Job Start: frappe.deferred_insert.save_to_db for fianzacredito.com
[INFO] 2020-03-10 17:41:07,319 | /home/jhon/public_html/frappe-bench/apps/frappe/frappe/core/doctype/scheduled_job_type/scheduled_job_type.py:
Site: fianzacredito.com
Scheduled Job Complete: frappe.deferred_insert.save_to_db for fianzacredito.com
[INFO] 2020-03-10 17:41:07,388 | /home/jhon/public_html/frappe-bench/apps/frappe/frappe/core/doctype/scheduled_job_type/scheduled_job_type.py:
Site: fianzacredito.com
Scheduled Job Start: frappe.desk.page.backups.backups.delete_downloadable_backups for fianzacredito.com
[INFO] 2020-03-10 17:41:07,451 | /home/jhon/public_html/frappe-bench/apps/frappe/frappe/core/doctype/scheduled_job_type/scheduled_job_type.py:
Site: fianzacredito.com
Scheduled Job Complete: frappe.desk.page.backups.backups.delete_downloadable_backups for fianzacredito.com
[INFO] 2020-03-10 17:41:07,512 | /home/jhon/public_html/frappe-bench/apps/frappe/frappe/core/doctype/scheduled_job_type/scheduled_job_type.py:
Site: fianzacredito.com
Scheduled Job Start: frappe.utils.error.collect_error_snapshots for fianzacredito.com
[INFO] 2020-03-10 17:41:07,580 | /home/jhon/public_html/frappe-bench/apps/frappe/frappe/core/doctype/scheduled_job_type/scheduled_job_type.py:
Site: fianzacredito.com
Scheduled Job Complete: frappe.utils.error.collect_error_snapshots for fianzacredito.com
[INFO] 2020-03-10 17:41:07,648 | /home/jhon/public_html/frappe-bench/apps/frappe/frappe/core/doctype/scheduled_job_type/scheduled_job_type.py:
Site: fianzacredito.com
Scheduled Job Start: frappe.model.utils.user_settings.sync_user_settings for fianzacredito.com
[INFO] 2020-03-10 17:41:07,726 | /home/jhon/public_html/frappe-bench/apps/frappe/frappe/core/doctype/scheduled_job_type/scheduled_job_type.py:
Site: fianzacredito.com
Scheduled Job Complete: frappe.model.utils.user_settings.sync_user_settings for fianzacredito.com
[INFO] 2020-03-10 17:41:07,802 | /home/jhon/public_html/frappe-bench/apps/frappe/frappe/core/doctype/scheduled_job_type/scheduled_job_type.py:
Site: fianzacredito.com
Scheduled Job Start: frappe.model.utils.link_count.update_link_count for fianzacredito.com
[INFO] 2020-03-10 17:41:07,864 | /home/jhon/public_html/frappe-bench/apps/frappe/frappe/core/doctype/scheduled_job_type/scheduled_job_type.py:
Site: fianzacredito.com
Scheduled Job Complete: frappe.model.utils.link_count.update_link_count for fianzacredito.com
[INFO] 2020-03-10 17:41:07,913 | /home/jhon/public_html/frappe-bench/apps/frappe/frappe/core/doctype/scheduled_job_type/scheduled_job_type.py:
Site: fianzacredito.com
Scheduled Job Start: frappe.monitor.flush for fianzacredito.com
[INFO] 2020-03-10 17:41:07,929 | /home/jhon/public_html/frappe-bench/apps/frappe/frappe/core/doctype/scheduled_job_type/scheduled_job_type.py:
Site: fianzacredito.com
Scheduled Job Complete: frappe.monitor.flush for fianzacredito.com
[INFO] 2020-03-10 17:41:07,998 | /home/jhon/public_html/frappe-bench/apps/frappe/frappe/core/doctype/scheduled_job_type/scheduled_job_type.py:
Site: fianzacredito.com
Scheduled Job Start: frappe.utils.global_search.sync_global_search for fianzacredito.com
[INFO] 2020-03-10 17:41:08,020 | /home/jhon/public_html/frappe-bench/apps/frappe/frappe/core/doctype/scheduled_job_type/scheduled_job_type.py:
Site: fianzacredito.com
Scheduled Job Complete: frappe.utils.global_search.sync_global_search for fianzacredito.com
[INFO] 2020-03-10 17:41:08,102 | /home/jhon/public_html/frappe-bench/apps/frappe/frappe/core/doctype/scheduled_job_type/scheduled_job_type.py:
Site: fianzacredito.com
Scheduled Job Start: frappe.integrations.doctype.razorpay_settings.razorpay_settings.capture_payment for fianzacredito.com
[INFO] 2020-03-10 17:41:08,159 | /home/jhon/public_html/frappe-bench/apps/frappe/frappe/core/doctype/scheduled_job_type/scheduled_job_type.py:
Site: fianzacredito.com
Scheduled Job Complete: frappe.integrations.doctype.razorpay_settings.razorpay_settings.capture_payment for fianzacredito.com
[INFO] 2020-03-10 17:41:08,215 | /home/jhon/public_html/frappe-bench/apps/frappe/frappe/core/doctype/scheduled_job_type/scheduled_job_type.py:
Site: fianzacredito.com
Scheduled Job Start: frappe.email.doctype.email_account.email_account.notify_unreplied for fianzacredito.com
[INFO] 2020-03-10 17:41:08,257 | /home/jhon/public_html/frappe-bench/apps/frappe/frappe/core/doctype/scheduled_job_type/scheduled_job_type.py:
Site: fianzacredito.com
Scheduled Job Complete: frappe.email.doctype.email_account.email_account.notify_unreplied for fianzacredito.com
[INFO] 2020-03-10 17:41:08,309 | /home/jhon/public_html/frappe-bench/apps/frappe/frappe/core/doctype/scheduled_job_type/scheduled_job_type.py:
Site: fianzacredito.com
Scheduled Job Start: frappe.email.doctype.email_account.email_account.pull for fianzacredito.com
[INFO] 2020-03-10 17:41:08,352 | /home/jhon/public_html/frappe-bench/apps/frappe/frappe/core/doctype/scheduled_job_type/scheduled_job_type.py:
Site: fianzacredito.com
Scheduled Job Complete: frappe.email.doctype.email_account.email_account.pull for fianzacredito.com
[INFO] 2020-03-10 17:41:08,475 | /home/jhon/public_html/frappe-bench/apps/frappe/frappe/core/doctype/scheduled_job_type/scheduled_job_type.py:
Site: fianzacredito.com
Scheduled Job Start: frappe.email.queue.flush for fianzacredito.com
[INFO] 2020-03-10 17:41:08,507 | /home/jhon/public_html/frappe-bench/apps/frappe/frappe/core/doctype/scheduled_job_type/scheduled_job_type.py:
Site: fianzacredito.com
Scheduled Job Complete: frappe.email.queue.flush for fianzacredito.com
[INFO] 2020-03-10 17:41:08,546 | /home/jhon/public_html/frappe-bench/apps/frappe/frappe/core/doctype/scheduled_job_type/scheduled_job_type.py:
Site: fianzacredito.com
Scheduled Job Start: frappe.twofactor.delete_all_barcodes_for_users for fianzacredito.com
[INFO] 2020-03-10 17:41:08,616 | /home/jhon/public_html/frappe-bench/apps/frappe/frappe/core/doctype/scheduled_job_type/scheduled_job_type.py:
Site: fianzacredito.com
Scheduled Job Complete: frappe.twofactor.delete_all_barcodes_for_users for fianzacredito.com
[INFO] 2020-03-10 17:41:08,684 | /home/jhon/public_html/frappe-bench/apps/frappe/frappe/core/doctype/scheduled_job_type/scheduled_job_type.py:
Site: fianzacredito.com
Scheduled Job Start: frappe.website.doctype.web_page.web_page.check_publish_status for fianzacredito.com
[INFO] 2020-03-10 17:41:08,757 | /home/jhon/public_html/frappe-bench/apps/frappe/frappe/core/doctype/scheduled_job_type/scheduled_job_type.py:
Site: fianzacredito.com
Scheduled Job Complete: frappe.website.doctype.web_page.web_page.check_publish_status for fianzacredito.com
[INFO] 2020-03-10 17:41:08,808 | /home/jhon/public_html/frappe-bench/apps/frappe/frappe/core/doctype/scheduled_job_type/scheduled_job_type.py:
Site: fianzacredito.com
Scheduled Job Start: frappe.oauth.delete_oauth2_data for fianzacredito.com
[INFO] 2020-03-10 17:41:08,904 | /home/jhon/public_html/frappe-bench/apps/frappe/frappe/core/doctype/scheduled_job_type/scheduled_job_type.py:
Site: fianzacredito.com
Scheduled Job Complete: frappe.oauth.delete_oauth2_data for fianzacredito.com
[DEBUG] 2020-03-10 17:42:04,277 | /home/jhon/public_html/frappe-bench/apps/frappe/frappe/utils/scheduler.py:
Site: fianzacredito.com
Queued events for site fianzacredito.com
[ERROR] 2020-03-10 17:42:30,654 | /home/jhon/public_html/frappe-bench/apps/frappe/frappe/app.py:
Site: fianzacredito.com
Form Dict: {
 "cmd": "frappe.client.get_js",
 "items": "[\"/assets/js/modules.min.js\"]"
}
Request Error
Traceback (most recent call last):
  File "/home/jhon/public_html/frappe-bench/apps/frappe/frappe/app.py", line 62, in application
    response = frappe.api.handle()
  File "/home/jhon/public_html/frappe-bench/apps/frappe/frappe/api.py", line 55, in handle
    return frappe.handler.handle()
  File "/home/jhon/public_html/frappe-bench/apps/frappe/frappe/handler.py", line 24, in handle
    data = execute_cmd(cmd)
  File "/home/jhon/public_html/frappe-bench/apps/frappe/frappe/handler.py", line 63, in execute_cmd
    return frappe.call(method, **frappe.form_dict)
  File "/home/jhon/public_html/frappe-bench/apps/frappe/frappe/__init__.py", line 1068, in call
    return fn(*args, **newargs)
  File "/home/jhon/public_html/frappe-bench/apps/frappe/frappe/client.py", line 306, in get_js
    with open(contentpath, "r") as srcfile:
FileNotFoundError: [Errno 2] No such file or directory: './assets/js/modules.min.js'
[ERROR] 2020-03-10 17:42:30,739 | /home/jhon/public_html/frappe-bench/apps/frappe/frappe/utils/error.py:
Could not take error snapshot: characters_written
Traceback (most recent call last):
  File "/home/jhon/public_html/frappe-bench/apps/frappe/frappe/app.py", line 62, in application
    response = frappe.api.handle()
  File "/home/jhon/public_html/frappe-bench/apps/frappe/frappe/api.py", line 55, in handle
    return frappe.handler.handle()
  File "/home/jhon/public_html/frappe-bench/apps/frappe/frappe/handler.py", line 24, in handle
    data = execute_cmd(cmd)
  File "/home/jhon/public_html/frappe-bench/apps/frappe/frappe/handler.py", line 63, in execute_cmd
    return frappe.call(method, **frappe.form_dict)
  File "/home/jhon/public_html/frappe-bench/apps/frappe/frappe/__init__.py", line 1068, in call
    return fn(*args, **newargs)
  File "/home/jhon/public_html/frappe-bench/apps/frappe/frappe/client.py", line 306, in get_js
    with open(contentpath, "r") as srcfile:
FileNotFoundError: [Errno 2] No such file or directory: './assets/js/modules.min.js'

During handling of the above exception, another exception occurred:

Traceback (most recent call last):
  File "/home/jhon/public_html/frappe-bench/apps/frappe/frappe/utils/error.py", line 36, in make_error_snapshot
    snapshot = get_snapshot(exception)
  File "/home/jhon/public_html/frappe-bench/apps/frappe/frappe/utils/error.py", line 128, in get_snapshot
    value = pydoc.text.repr(getattr(evalue, name))
AttributeError: characters_written
[DEBUG] 2020-03-10 17:43:04,585 | /home/jhon/public_html/frappe-bench/apps/frappe/frappe/utils/scheduler.py:
Site: fianzacredito.com
Queued events for site fianzacredito.com
[DEBUG] 2020-03-10 17:49:15,436 | /home/jhon/public_html/frappe-bench/apps/frappe/frappe/utils/scheduler.py:
Site: fianzacredito.com
Queued events for site fianzacredito.com
[INFO] 2020-03-10 17:49:15,444 | /home/jhon/public_html/frappe-bench/apps/frappe/frappe/core/doctype/scheduled_job_type/scheduled_job_type.py:
Site: fianzacredito.com
Scheduled Job Start: frappe.monitor.flush for fianzacredito.com
[INFO] 2020-03-10 17:49:15,483 | /home/jhon/public_html/frappe-bench/apps/frappe/frappe/core/doctype/scheduled_job_type/scheduled_job_type.py:
Site: fianzacredito.com
Scheduled Job Complete: frappe.monitor.flush for fianzacredito.com
[INFO] 2020-03-10 17:49:15,522 | /home/jhon/public_html/frappe-bench/apps/frappe/frappe/core/doctype/scheduled_job_type/scheduled_job_type.py:
Site: fianzacredito.com
Scheduled Job Start: frappe.utils.global_search.sync_global_search for fianzacredito.com
[INFO] 2020-03-10 17:49:15,538 | /home/jhon/public_html/frappe-bench/apps/frappe/frappe/core/doctype/scheduled_job_type/scheduled_job_type.py:
Site: fianzacredito.com
Scheduled Job Complete: frappe.utils.global_search.sync_global_search for fianzacredito.com
[INFO] 2020-03-10 17:49:15,581 | /home/jhon/public_html/frappe-bench/apps/frappe/frappe/core/doctype/scheduled_job_type/scheduled_job_type.py:
Site: fianzacredito.com
Scheduled Job Start: frappe.integrations.doctype.razorpay_settings.razorpay_settings.capture_payment for fianzacredito.com
[INFO] 2020-03-10 17:49:15,627 | /home/jhon/public_html/frappe-bench/apps/frappe/frappe/core/doctype/scheduled_job_type/scheduled_job_type.py:
Site: fianzacredito.com
Scheduled Job Complete: frappe.integrations.doctype.razorpay_settings.razorpay_settings.capture_payment for fianzacredito.com
[INFO] 2020-03-10 17:49:15,664 | /home/jhon/public_html/frappe-bench/apps/frappe/frappe/core/doctype/scheduled_job_type/scheduled_job_type.py:
Site: fianzacredito.com
Scheduled Job Start: frappe.email.doctype.email_account.email_account.notify_unreplied for fianzacredito.com
[INFO] 2020-03-10 17:49:15,730 | /home/jhon/public_html/frappe-bench/apps/frappe/frappe/core/doctype/scheduled_job_type/scheduled_job_type.py:
Site: fianzacredito.com
Scheduled Job Complete: frappe.email.doctype.email_account.email_account.notify_unreplied for fianzacredito.com
[INFO] 2020-03-10 17:49:15,773 | /home/jhon/public_html/frappe-bench/apps/frappe/frappe/core/doctype/scheduled_job_type/scheduled_job_type.py:
Site: fianzacredito.com
Scheduled Job Start: frappe.email.doctype.email_account.email_account.pull for fianzacredito.com
[INFO] 2020-03-10 17:49:15,818 | /home/jhon/public_html/frappe-bench/apps/frappe/frappe/core/doctype/scheduled_job_type/scheduled_job_type.py:
Site: fianzacredito.com
Scheduled Job Complete: frappe.email.doctype.email_account.email_account.pull for fianzacredito.com
[INFO] 2020-03-10 17:49:15,857 | /home/jhon/public_html/frappe-bench/apps/frappe/frappe/core/doctype/scheduled_job_type/scheduled_job_type.py:
Site: fianzacredito.com
Scheduled Job Start: frappe.email.queue.flush for fianzacredito.com
[INFO] 2020-03-10 17:49:15,886 | /home/jhon/public_html/frappe-bench/apps/frappe/frappe/core/doctype/scheduled_job_type/scheduled_job_type.py:
Site: fianzacredito.com
Scheduled Job Complete: frappe.email.queue.flush for fianzacredito.com
[INFO] 2020-03-10 17:49:15,927 | /home/jhon/public_html/frappe-bench/apps/frappe/frappe/core/doctype/scheduled_job_type/scheduled_job_type.py:
Site: fianzacredito.com
Scheduled Job Start: frappe.twofactor.delete_all_barcodes_for_users for fianzacredito.com
[INFO] 2020-03-10 17:49:16,052 | /home/jhon/public_html/frappe-bench/apps/frappe/frappe/core/doctype/scheduled_job_type/scheduled_job_type.py:
Site: fianzacredito.com
Scheduled Job Complete: frappe.twofactor.delete_all_barcodes_for_users for fianzacredito.com
[INFO] 2020-03-10 17:49:16,099 | /home/jhon/public_html/frappe-bench/apps/frappe/frappe/core/doctype/scheduled_job_type/scheduled_job_type.py:
Site: fianzacredito.com
Scheduled Job Start: frappe.website.doctype.web_page.web_page.check_publish_status for fianzacredito.com
[INFO] 2020-03-10 17:49:16,180 | /home/jhon/public_html/frappe-bench/apps/frappe/frappe/core/doctype/scheduled_job_type/scheduled_job_type.py:
Site: fianzacredito.com
Scheduled Job Complete: frappe.website.doctype.web_page.web_page.check_publish_status for fianzacredito.com
[INFO] 2020-03-10 17:49:16,231 | /home/jhon/public_html/frappe-bench/apps/frappe/frappe/core/doctype/scheduled_job_type/scheduled_job_type.py:
Site: fianzacredito.com
Scheduled Job Start: frappe.oauth.delete_oauth2_data for fianzacredito.com
[INFO] 2020-03-10 17:49:16,348 | /home/jhon/public_html/frappe-bench/apps/frappe/frappe/core/doctype/scheduled_job_type/scheduled_job_type.py:
Site: fianzacredito.com
Scheduled Job Complete: frappe.oauth.delete_oauth2_data for fianzacredito.com
[DEBUG] 2020-03-10 17:50:15,635 | /home/jhon/public_html/frappe-bench/apps/frappe/frappe/utils/scheduler.py:
Site: fianzacredito.com
Queued events for site fianzacredito.com
[DEBUG] 2020-03-10 17:51:15,856 | /home/jhon/public_html/frappe-bench/apps/frappe/frappe/utils/scheduler.py:
Site: fianzacredito.com
Queued events for site fianzacredito.com
[DEBUG] 2020-03-10 17:52:16,048 | /home/jhon/public_html/frappe-bench/apps/frappe/frappe/utils/scheduler.py:
Site: fianzacredito.com
Queued events for site fianzacredito.com
[INFO] 2020-03-10 17:52:16,188 | /home/jhon/public_html/frappe-bench/apps/frappe/frappe/core/doctype/scheduled_job_type/scheduled_job_type.py:
Site: fianzacredito.com
Scheduled Job Start: frappe.monitor.flush for fianzacredito.com
[INFO] 2020-03-10 17:52:16,207 | /home/jhon/public_html/frappe-bench/apps/frappe/frappe/core/doctype/scheduled_job_type/scheduled_job_type.py:
Site: fianzacredito.com
Scheduled Job Complete: frappe.monitor.flush for fianzacredito.com
[INFO] 2020-03-10 17:52:16,245 | /home/jhon/public_html/frappe-bench/apps/frappe/frappe/core/doctype/scheduled_job_type/scheduled_job_type.py:
Site: fianzacredito.com
Scheduled Job Start: frappe.utils.global_search.sync_global_search for fianzacredito.com
[INFO] 2020-03-10 17:52:16,261 | /home/jhon/public_html/frappe-bench/apps/frappe/frappe/core/doctype/scheduled_job_type/scheduled_job_type.py:
Site: fianzacredito.com
Scheduled Job Complete: frappe.utils.global_search.sync_global_search for fianzacredito.com
[INFO] 2020-03-10 17:52:16,297 | /home/jhon/public_html/frappe-bench/apps/frappe/frappe/core/doctype/scheduled_job_type/scheduled_job_type.py:
Site: fianzacredito.com
Scheduled Job Start: frappe.integrations.doctype.razorpay_settings.razorpay_settings.capture_payment for fianzacredito.com
[INFO] 2020-03-10 17:52:16,342 | /home/jhon/public_html/frappe-bench/apps/frappe/frappe/core/doctype/scheduled_job_type/scheduled_job_type.py:
Site: fianzacredito.com
Scheduled Job Complete: frappe.integrations.doctype.razorpay_settings.razorpay_settings.capture_payment for fianzacredito.com
[INFO] 2020-03-10 17:52:16,382 | /home/jhon/public_html/frappe-bench/apps/frappe/frappe/core/doctype/scheduled_job_type/scheduled_job_type.py:
Site: fianzacredito.com
Scheduled Job Start: frappe.email.doctype.email_account.email_account.notify_unreplied for fianzacredito.com
[INFO] 2020-03-10 17:52:16,445 | /home/jhon/public_html/frappe-bench/apps/frappe/frappe/core/doctype/scheduled_job_type/scheduled_job_type.py:
Site: fianzacredito.com
Scheduled Job Complete: frappe.email.doctype.email_account.email_account.notify_unreplied for fianzacredito.com
[INFO] 2020-03-10 17:52:16,516 | /home/jhon/public_html/frappe-bench/apps/frappe/frappe/core/doctype/scheduled_job_type/scheduled_job_type.py:
Site: fianzacredito.com
Scheduled Job Start: frappe.email.doctype.email_account.email_account.pull for fianzacredito.com
[INFO] 2020-03-10 17:52:16,583 | /home/jhon/public_html/frappe-bench/apps/frappe/frappe/core/doctype/scheduled_job_type/scheduled_job_type.py:
Site: fianzacredito.com
Scheduled Job Complete: frappe.email.doctype.email_account.email_account.pull for fianzacredito.com
[INFO] 2020-03-10 17:52:16,622 | /home/jhon/public_html/frappe-bench/apps/frappe/frappe/core/doctype/scheduled_job_type/scheduled_job_type.py:
Site: fianzacredito.com
Scheduled Job Start: frappe.email.queue.flush for fianzacredito.com
[INFO] 2020-03-10 17:52:16,650 | /home/jhon/public_html/frappe-bench/apps/frappe/frappe/core/doctype/scheduled_job_type/scheduled_job_type.py:
Site: fianzacredito.com
Scheduled Job Complete: frappe.email.queue.flush for fianzacredito.com
[DEBUG] 2020-03-10 17:53:16,206 | /home/jhon/public_html/frappe-bench/apps/frappe/frappe/utils/scheduler.py:
Site: fianzacredito.com
Queued events for site fianzacredito.com
[DEBUG] 2020-03-10 17:54:16,392 | /home/jhon/public_html/frappe-bench/apps/frappe/frappe/utils/scheduler.py:
Site: fianzacredito.com
Queued events for site fianzacredito.com
[DEBUG] 2020-03-10 17:55:16,566 | /home/jhon/public_html/frappe-bench/apps/frappe/frappe/utils/scheduler.py:
Site: fianzacredito.com
Queued events for site fianzacredito.com
[DEBUG] 2020-03-10 17:56:16,760 | /home/jhon/public_html/frappe-bench/apps/frappe/frappe/utils/scheduler.py:
Site: fianzacredito.com
Queued events for site fianzacredito.com
[INFO] 2020-03-10 17:56:16,779 | /home/jhon/public_html/frappe-bench/apps/frappe/frappe/core/doctype/scheduled_job_type/scheduled_job_type.py:
Site: fianzacredito.com
Scheduled Job Start: frappe.monitor.flush for fianzacredito.com
[INFO] 2020-03-10 17:56:16,794 | /home/jhon/public_html/frappe-bench/apps/frappe/frappe/core/doctype/scheduled_job_type/scheduled_job_type.py:
Site: fianzacredito.com
Scheduled Job Complete: frappe.monitor.flush for fianzacredito.com
[INFO] 2020-03-10 17:56:16,833 | /home/jhon/public_html/frappe-bench/apps/frappe/frappe/core/doctype/scheduled_job_type/scheduled_job_type.py:
Site: fianzacredito.com
Scheduled Job Start: frappe.utils.global_search.sync_global_search for fianzacredito.com
[INFO] 2020-03-10 17:56:16,850 | /home/jhon/public_html/frappe-bench/apps/frappe/frappe/core/doctype/scheduled_job_type/scheduled_job_type.py:
Site: fianzacredito.com
Scheduled Job Complete: frappe.utils.global_search.sync_global_search for fianzacredito.com
[INFO] 2020-03-10 17:56:16,938 | /home/jhon/public_html/frappe-bench/apps/frappe/frappe/core/doctype/scheduled_job_type/scheduled_job_type.py:
Site: fianzacredito.com
Scheduled Job Start: frappe.integrations.doctype.razorpay_settings.razorpay_settings.capture_payment for fianzacredito.com
[INFO] 2020-03-10 17:56:16,958 | /home/jhon/public_html/frappe-bench/apps/frappe/frappe/core/doctype/scheduled_job_type/scheduled_job_type.py:
Site: fianzacredito.com
Scheduled Job Complete: frappe.integrations.doctype.razorpay_settings.razorpay_settings.capture_payment for fianzacredito.com
[INFO] 2020-03-10 17:56:16,998 | /home/jhon/public_html/frappe-bench/apps/frappe/frappe/core/doctype/scheduled_job_type/scheduled_job_type.py:
Site: fianzacredito.com
Scheduled Job Start: frappe.email.doctype.email_account.email_account.notify_unreplied for fianzacredito.com
[INFO] 2020-03-10 17:56:17,038 | /home/jhon/public_html/frappe-bench/apps/frappe/frappe/core/doctype/scheduled_job_type/scheduled_job_type.py:
Site: fianzacredito.com
Scheduled Job Complete: frappe.email.doctype.email_account.email_account.notify_unreplied for fianzacredito.com
[INFO] 2020-03-10 17:56:17,085 | /home/jhon/public_html/frappe-bench/apps/frappe/frappe/core/doctype/scheduled_job_type/scheduled_job_type.py:
Site: fianzacredito.com
Scheduled Job Start: frappe.email.doctype.email_account.email_account.pull for fianzacredito.com
[INFO] 2020-03-10 17:56:17,128 | /home/jhon/public_html/frappe-bench/apps/frappe/frappe/core/doctype/scheduled_job_type/scheduled_job_type.py:
Site: fianzacredito.com
Scheduled Job Complete: frappe.email.doctype.email_account.email_account.pull for fianzacredito.com
[INFO] 2020-03-10 17:56:17,165 | /home/jhon/public_html/frappe-bench/apps/frappe/frappe/core/doctype/scheduled_job_type/scheduled_job_type.py:
Site: fianzacredito.com
Scheduled Job Start: frappe.email.queue.flush for fianzacredito.com
[INFO] 2020-03-10 17:56:17,193 | /home/jhon/public_html/frappe-bench/apps/frappe/frappe/core/doctype/scheduled_job_type/scheduled_job_type.py:
Site: fianzacredito.com
Scheduled Job Complete: frappe.email.queue.flush for fianzacredito.com
[DEBUG] 2020-03-10 17:57:16,935 | /home/jhon/public_html/frappe-bench/apps/frappe/frappe/utils/scheduler.py:
Site: fianzacredito.com
Queued events for site fianzacredito.com
[DEBUG] 2020-03-10 17:58:17,120 | /home/jhon/public_html/frappe-bench/apps/frappe/frappe/utils/scheduler.py:
Site: fianzacredito.com
Queued events for site fianzacredito.com
[DEBUG] 2020-03-10 17:59:17,277 | /home/jhon/public_html/frappe-bench/apps/frappe/frappe/utils/scheduler.py:
Site: fianzacredito.com
Queued events for site fianzacredito.com
[INFO] 2020-03-10 18:00:17,470 | /home/jhon/public_html/frappe-bench/apps/frappe/frappe/core/doctype/scheduled_job_type/scheduled_job_type.py:
Site: fianzacredito.com
Scheduled Job Start: frappe.integrations.doctype.google_calendar.google_calendar.sync for fianzacredito.com
[DEBUG] 2020-03-10 18:00:17,502 | /home/jhon/public_html/frappe-bench/apps/frappe/frappe/utils/scheduler.py:
Site: fianzacredito.com
Queued events for site fianzacredito.com
[INFO] 2020-03-10 18:00:17,598 | /home/jhon/public_html/frappe-bench/apps/frappe/frappe/core/doctype/scheduled_job_type/scheduled_job_type.py:
Site: fianzacredito.com
Scheduled Job Complete: frappe.integrations.doctype.google_calendar.google_calendar.sync for fianzacredito.com
[INFO] 2020-03-10 18:00:17,854 | /home/jhon/public_html/frappe-bench/apps/frappe/frappe/core/doctype/scheduled_job_type/scheduled_job_type.py:
Site: fianzacredito.com
Scheduled Job Start: frappe.desk.form.document_follow.send_hourly_updates for fianzacredito.com
[INFO] 2020-03-10 18:00:17,914 | /home/jhon/public_html/frappe-bench/apps/frappe/frappe/core/doctype/scheduled_job_type/scheduled_job_type.py:
Site: fianzacredito.com
Scheduled Job Complete: frappe.desk.form.document_follow.send_hourly_updates for fianzacredito.com
[INFO] 2020-03-10 18:00:17,962 | /home/jhon/public_html/frappe-bench/apps/frappe/frappe/core/doctype/scheduled_job_type/scheduled_job_type.py:
Site: fianzacredito.com
Scheduled Job Start: frappe.deferred_insert.save_to_db for fianzacredito.com
[INFO] 2020-03-10 18:00:18,072 | /home/jhon/public_html/frappe-bench/apps/frappe/frappe/core/doctype/scheduled_job_type/scheduled_job_type.py:
Site: fianzacredito.com
Scheduled Job Complete: frappe.deferred_insert.save_to_db for fianzacredito.com
[INFO] 2020-03-10 18:00:18,149 | /home/jhon/public_html/frappe-bench/apps/frappe/frappe/core/doctype/scheduled_job_type/scheduled_job_type.py:
Site: fianzacredito.com
Scheduled Job Start: frappe.desk.page.backups.backups.delete_downloadable_backups for fianzacredito.com
[INFO] 2020-03-10 18:00:18,219 | /home/jhon/public_html/frappe-bench/apps/frappe/frappe/core/doctype/scheduled_job_type/scheduled_job_type.py:
Site: fianzacredito.com
Scheduled Job Complete: frappe.desk.page.backups.backups.delete_downloadable_backups for fianzacredito.com
[INFO] 2020-03-10 18:00:18,263 | /home/jhon/public_html/frappe-bench/apps/frappe/frappe/core/doctype/scheduled_job_type/scheduled_job_type.py:
Site: fianzacredito.com
Scheduled Job Start: frappe.utils.error.collect_error_snapshots for fianzacredito.com
[INFO] 2020-03-10 18:00:18,324 | /home/jhon/public_html/frappe-bench/apps/frappe/frappe/core/doctype/scheduled_job_type/scheduled_job_type.py:
Site: fianzacredito.com
Scheduled Job Complete: frappe.utils.error.collect_error_snapshots for fianzacredito.com
[INFO] 2020-03-10 18:00:18,369 | /home/jhon/public_html/frappe-bench/apps/frappe/frappe/core/doctype/scheduled_job_type/scheduled_job_type.py:
Site: fianzacredito.com
Scheduled Job Start: frappe.model.utils.user_settings.sync_user_settings for fianzacredito.com
[INFO] 2020-03-10 18:00:18,440 | /home/jhon/public_html/frappe-bench/apps/frappe/frappe/core/doctype/scheduled_job_type/scheduled_job_type.py:
Site: fianzacredito.com
Scheduled Job Complete: frappe.model.utils.user_settings.sync_user_settings for fianzacredito.com
[INFO] 2020-03-10 18:00:18,484 | /home/jhon/public_html/frappe-bench/apps/frappe/frappe/core/doctype/scheduled_job_type/scheduled_job_type.py:
Site: fianzacredito.com
Scheduled Job Start: frappe.model.utils.link_count.update_link_count for fianzacredito.com
[INFO] 2020-03-10 18:00:18,545 | /home/jhon/public_html/frappe-bench/apps/frappe/frappe/core/doctype/scheduled_job_type/scheduled_job_type.py:
Site: fianzacredito.com
Scheduled Job Complete: frappe.model.utils.link_count.update_link_count for fianzacredito.com
[INFO] 2020-03-10 18:00:18,590 | /home/jhon/public_html/frappe-bench/apps/frappe/frappe/core/doctype/scheduled_job_type/scheduled_job_type.py:
Site: fianzacredito.com
Scheduled Job Start: frappe.monitor.flush for fianzacredito.com
[INFO] 2020-03-10 18:00:18,605 | /home/jhon/public_html/frappe-bench/apps/frappe/frappe/core/doctype/scheduled_job_type/scheduled_job_type.py:
Site: fianzacredito.com
Scheduled Job Complete: frappe.monitor.flush for fianzacredito.com
[INFO] 2020-03-10 18:00:18,650 | /home/jhon/public_html/frappe-bench/apps/frappe/frappe/core/doctype/scheduled_job_type/scheduled_job_type.py:
Site: fianzacredito.com
Scheduled Job Start: frappe.utils.global_search.sync_global_search for fianzacredito.com
[INFO] 2020-03-10 18:00:18,666 | /home/jhon/public_html/frappe-bench/apps/frappe/frappe/core/doctype/scheduled_job_type/scheduled_job_type.py:
Site: fianzacredito.com
Scheduled Job Complete: frappe.utils.global_search.sync_global_search for fianzacredito.com
[INFO] 2020-03-10 18:00:19,574 | /home/jhon/public_html/frappe-bench/apps/frappe/frappe/core/doctype/scheduled_job_type/scheduled_job_type.py:
Site: fianzacredito.com
Scheduled Job Start: frappe.integrations.doctype.razorpay_settings.razorpay_settings.capture_payment for fianzacredito.com
[INFO] 2020-03-10 18:00:19,594 | /home/jhon/public_html/frappe-bench/apps/frappe/frappe/core/doctype/scheduled_job_type/scheduled_job_type.py:
Site: fianzacredito.com
Scheduled Job Complete: frappe.integrations.doctype.razorpay_settings.razorpay_settings.capture_payment for fianzacredito.com
[INFO] 2020-03-10 18:00:19,630 | /home/jhon/public_html/frappe-bench/apps/frappe/frappe/core/doctype/scheduled_job_type/scheduled_job_type.py:
Site: fianzacredito.com
Scheduled Job Start: frappe.email.doctype.email_account.email_account.notify_unreplied for fianzacredito.com
[INFO] 2020-03-10 18:00:19,670 | /home/jhon/public_html/frappe-bench/apps/frappe/frappe/core/doctype/scheduled_job_type/scheduled_job_type.py:
Site: fianzacredito.com
Scheduled Job Complete: frappe.email.doctype.email_account.email_account.notify_unreplied for fianzacredito.com
[INFO] 2020-03-10 18:00:19,706 | /home/jhon/public_html/frappe-bench/apps/frappe/frappe/core/doctype/scheduled_job_type/scheduled_job_type.py:
Site: fianzacredito.com
Scheduled Job Start: frappe.email.doctype.email_account.email_account.pull for fianzacredito.com
[INFO] 2020-03-10 18:00:19,749 | /home/jhon/public_html/frappe-bench/apps/frappe/frappe/core/doctype/scheduled_job_type/scheduled_job_type.py:
Site: fianzacredito.com
Scheduled Job Complete: frappe.email.doctype.email_account.email_account.pull for fianzacredito.com
[INFO] 2020-03-10 18:00:19,786 | /home/jhon/public_html/frappe-bench/apps/frappe/frappe/core/doctype/scheduled_job_type/scheduled_job_type.py:
Site: fianzacredito.com
Scheduled Job Start: frappe.email.queue.flush for fianzacredito.com
[INFO] 2020-03-10 18:00:19,814 | /home/jhon/public_html/frappe-bench/apps/frappe/frappe/core/doctype/scheduled_job_type/scheduled_job_type.py:
Site: fianzacredito.com
Scheduled Job Complete: frappe.email.queue.flush for fianzacredito.com
[INFO] 2020-03-10 18:00:19,853 | /home/jhon/public_html/frappe-bench/apps/frappe/frappe/core/doctype/scheduled_job_type/scheduled_job_type.py:
Site: fianzacredito.com
Scheduled Job Start: frappe.twofactor.delete_all_barcodes_for_users for fianzacredito.com
[INFO] 2020-03-10 18:00:19,912 | /home/jhon/public_html/frappe-bench/apps/frappe/frappe/core/doctype/scheduled_job_type/scheduled_job_type.py:
Site: fianzacredito.com
Scheduled Job Complete: frappe.twofactor.delete_all_barcodes_for_users for fianzacredito.com
[INFO] 2020-03-10 18:00:19,992 | /home/jhon/public_html/frappe-bench/apps/frappe/frappe/core/doctype/scheduled_job_type/scheduled_job_type.py:
Site: fianzacredito.com
Scheduled Job Start: frappe.website.doctype.web_page.web_page.check_publish_status for fianzacredito.com
[INFO] 2020-03-10 18:00:20,068 | /home/jhon/public_html/frappe-bench/apps/frappe/frappe/core/doctype/scheduled_job_type/scheduled_job_type.py:
Site: fianzacredito.com
Scheduled Job Complete: frappe.website.doctype.web_page.web_page.check_publish_status for fianzacredito.com
[INFO] 2020-03-10 18:00:20,123 | /home/jhon/public_html/frappe-bench/apps/frappe/frappe/core/doctype/scheduled_job_type/scheduled_job_type.py:
Site: fianzacredito.com
Scheduled Job Start: frappe.oauth.delete_oauth2_data for fianzacredito.com
[INFO] 2020-03-10 18:00:20,226 | /home/jhon/public_html/frappe-bench/apps/frappe/frappe/core/doctype/scheduled_job_type/scheduled_job_type.py:
Site: fianzacredito.com
Scheduled Job Complete: frappe.oauth.delete_oauth2_data for fianzacredito.com
[DEBUG] 2020-03-10 18:01:17,743 | /home/jhon/public_html/frappe-bench/apps/frappe/frappe/utils/scheduler.py:
Site: fianzacredito.com
Queued events for site fianzacredito.com
[DEBUG] 2020-03-10 18:02:17,982 | /home/jhon/public_html/frappe-bench/apps/frappe/frappe/utils/scheduler.py:
Site: fianzacredito.com
Queued events for site fianzacredito.com
[DEBUG] 2020-03-10 18:03:18,222 | /home/jhon/public_html/frappe-bench/apps/frappe/frappe/utils/scheduler.py:
Site: fianzacredito.com
Queued events for site fianzacredito.com
[DEBUG] 2020-03-10 18:04:18,402 | /home/jhon/public_html/frappe-bench/apps/frappe/frappe/utils/scheduler.py:
Site: fianzacredito.com
Queued events for site fianzacredito.com
[INFO] 2020-03-10 18:04:18,424 | /home/jhon/public_html/frappe-bench/apps/frappe/frappe/core/doctype/scheduled_job_type/scheduled_job_type.py:
Site: fianzacredito.com
Scheduled Job Start: frappe.monitor.flush for fianzacredito.com
[INFO] 2020-03-10 18:04:18,439 | /home/jhon/public_html/frappe-bench/apps/frappe/frappe/core/doctype/scheduled_job_type/scheduled_job_type.py:
Site: fianzacredito.com
Scheduled Job Complete: frappe.monitor.flush for fianzacredito.com
[INFO] 2020-03-10 18:04:18,477 | /home/jhon/public_html/frappe-bench/apps/frappe/frappe/core/doctype/scheduled_job_type/scheduled_job_type.py:
Site: fianzacredito.com
Scheduled Job Start: frappe.utils.global_search.sync_global_search for fianzacredito.com
[INFO] 2020-03-10 18:04:18,493 | /home/jhon/public_html/frappe-bench/apps/frappe/frappe/core/doctype/scheduled_job_type/scheduled_job_type.py:
Site: fianzacredito.com
Scheduled Job Complete: frappe.utils.global_search.sync_global_search for fianzacredito.com
[INFO] 2020-03-10 18:04:18,537 | /home/jhon/public_html/frappe-bench/apps/frappe/frappe/core/doctype/scheduled_job_type/scheduled_job_type.py:
Site: fianzacredito.com
Scheduled Job Start: frappe.integrations.doctype.razorpay_settings.razorpay_settings.capture_payment for fianzacredito.com
[INFO] 2020-03-10 18:04:18,556 | /home/jhon/public_html/frappe-bench/apps/frappe/frappe/core/doctype/scheduled_job_type/scheduled_job_type.py:
Site: fianzacredito.com
Scheduled Job Complete: frappe.integrations.doctype.razorpay_settings.razorpay_settings.capture_payment for fianzacredito.com
[INFO] 2020-03-10 18:04:18,596 | /home/jhon/public_html/frappe-bench/apps/frappe/frappe/core/doctype/scheduled_job_type/scheduled_job_type.py:
Site: fianzacredito.com
Scheduled Job Start: frappe.email.doctype.email_account.email_account.notify_unreplied for fianzacredito.com
[INFO] 2020-03-10 18:04:18,636 | /home/jhon/public_html/frappe-bench/apps/frappe/frappe/core/doctype/scheduled_job_type/scheduled_job_type.py:
Site: fianzacredito.com
Scheduled Job Complete: frappe.email.doctype.email_account.email_account.notify_unreplied for fianzacredito.com
[INFO] 2020-03-10 18:04:18,676 | /home/jhon/public_html/frappe-bench/apps/frappe/frappe/core/doctype/scheduled_job_type/scheduled_job_type.py:
Site: fianzacredito.com
Scheduled Job Start: frappe.email.doctype.email_account.email_account.pull for fianzacredito.com
[INFO] 2020-03-10 18:04:18,718 | /home/jhon/public_html/frappe-bench/apps/frappe/frappe/core/doctype/scheduled_job_type/scheduled_job_type.py:
Site: fianzacredito.com
Scheduled Job Complete: frappe.email.doctype.email_account.email_account.pull for fianzacredito.com
[INFO] 2020-03-10 18:04:18,768 | /home/jhon/public_html/frappe-bench/apps/frappe/frappe/core/doctype/scheduled_job_type/scheduled_job_type.py:
Site: fianzacredito.com
Scheduled Job Start: frappe.email.queue.flush for fianzacredito.com
[INFO] 2020-03-10 18:04:18,799 | /home/jhon/public_html/frappe-bench/apps/frappe/frappe/core/doctype/scheduled_job_type/scheduled_job_type.py:
Site: fianzacredito.com
Scheduled Job Complete: frappe.email.queue.flush for fianzacredito.com
[DEBUG] 2020-03-10 18:05:18,569 | /home/jhon/public_html/frappe-bench/apps/frappe/frappe/utils/scheduler.py:
Site: fianzacredito.com
Queued events for site fianzacredito.com
[ERROR] 2020-03-10 18:05:21,539 | /home/jhon/public_html/frappe-bench/apps/frappe/frappe/app.py:
Site: fianzacredito.com
Form Dict: {
 "cmd": "frappe.client.get_js",
 "items": "[\"/assets/js/modules.min.js\"]"
}
Request Error
Traceback (most recent call last):
  File "/home/jhon/public_html/frappe-bench/apps/frappe/frappe/app.py", line 62, in application
    response = frappe.api.handle()
  File "/home/jhon/public_html/frappe-bench/apps/frappe/frappe/api.py", line 55, in handle
    return frappe.handler.handle()
  File "/home/jhon/public_html/frappe-bench/apps/frappe/frappe/handler.py", line 24, in handle
    data = execute_cmd(cmd)
  File "/home/jhon/public_html/frappe-bench/apps/frappe/frappe/handler.py", line 63, in execute_cmd
    return frappe.call(method, **frappe.form_dict)
  File "/home/jhon/public_html/frappe-bench/apps/frappe/frappe/__init__.py", line 1068, in call
    return fn(*args, **newargs)
  File "/home/jhon/public_html/frappe-bench/apps/frappe/frappe/client.py", line 306, in get_js
    with open(contentpath, "r") as srcfile:
FileNotFoundError: [Errno 2] No such file or directory: './assets/js/modules.min.js'
[ERROR] 2020-03-10 18:05:21,613 | /home/jhon/public_html/frappe-bench/apps/frappe/frappe/utils/error.py:
Could not take error snapshot: characters_written
Traceback (most recent call last):
  File "/home/jhon/public_html/frappe-bench/apps/frappe/frappe/app.py", line 62, in application
    response = frappe.api.handle()
  File "/home/jhon/public_html/frappe-bench/apps/frappe/frappe/api.py", line 55, in handle
    return frappe.handler.handle()
  File "/home/jhon/public_html/frappe-bench/apps/frappe/frappe/handler.py", line 24, in handle
    data = execute_cmd(cmd)
  File "/home/jhon/public_html/frappe-bench/apps/frappe/frappe/handler.py", line 63, in execute_cmd
    return frappe.call(method, **frappe.form_dict)
  File "/home/jhon/public_html/frappe-bench/apps/frappe/frappe/__init__.py", line 1068, in call
    return fn(*args, **newargs)
  File "/home/jhon/public_html/frappe-bench/apps/frappe/frappe/client.py", line 306, in get_js
    with open(contentpath, "r") as srcfile:
FileNotFoundError: [Errno 2] No such file or directory: './assets/js/modules.min.js'

During handling of the above exception, another exception occurred:

Traceback (most recent call last):
  File "/home/jhon/public_html/frappe-bench/apps/frappe/frappe/utils/error.py", line 36, in make_error_snapshot
    snapshot = get_snapshot(exception)
  File "/home/jhon/public_html/frappe-bench/apps/frappe/frappe/utils/error.py", line 128, in get_snapshot
    value = pydoc.text.repr(getattr(evalue, name))
AttributeError: characters_written
[DEBUG] 2020-03-10 18:06:18,744 | /home/jhon/public_html/frappe-bench/apps/frappe/frappe/utils/scheduler.py:
Site: fianzacredito.com
Queued events for site fianzacredito.com
[DEBUG] 2020-03-10 18:07:18,903 | /home/jhon/public_html/frappe-bench/apps/frappe/frappe/utils/scheduler.py:
Site: fianzacredito.com
Queued events for site fianzacredito.com
[DEBUG] 2020-03-10 18:08:19,091 | /home/jhon/public_html/frappe-bench/apps/frappe/frappe/utils/scheduler.py:
Site: fianzacredito.com
Queued events for site fianzacredito.com
[INFO] 2020-03-10 18:08:19,108 | /home/jhon/public_html/frappe-bench/apps/frappe/frappe/core/doctype/scheduled_job_type/scheduled_job_type.py:
Site: fianzacredito.com
Scheduled Job Start: frappe.monitor.flush for fianzacredito.com
[INFO] 2020-03-10 18:08:19,122 | /home/jhon/public_html/frappe-bench/apps/frappe/frappe/core/doctype/scheduled_job_type/scheduled_job_type.py:
Site: fianzacredito.com
Scheduled Job Complete: frappe.monitor.flush for fianzacredito.com
[INFO] 2020-03-10 18:08:19,164 | /home/jhon/public_html/frappe-bench/apps/frappe/frappe/core/doctype/scheduled_job_type/scheduled_job_type.py:
Site: fianzacredito.com
Scheduled Job Start: frappe.utils.global_search.sync_global_search for fianzacredito.com
[INFO] 2020-03-10 18:08:19,180 | /home/jhon/public_html/frappe-bench/apps/frappe/frappe/core/doctype/scheduled_job_type/scheduled_job_type.py:
Site: fianzacredito.com
Scheduled Job Complete: frappe.utils.global_search.sync_global_search for fianzacredito.com
[INFO] 2020-03-10 18:08:19,217 | /home/jhon/public_html/frappe-bench/apps/frappe/frappe/core/doctype/scheduled_job_type/scheduled_job_type.py:
Site: fianzacredito.com
Scheduled Job Start: frappe.integrations.doctype.razorpay_settings.razorpay_settings.capture_payment for fianzacredito.com
[INFO] 2020-03-10 18:08:19,236 | /home/jhon/public_html/frappe-bench/apps/frappe/frappe/core/doctype/scheduled_job_type/scheduled_job_type.py:
Site: fianzacredito.com
Scheduled Job Complete: frappe.integrations.doctype.razorpay_settings.razorpay_settings.capture_payment for fianzacredito.com
[INFO] 2020-03-10 18:08:19,275 | /home/jhon/public_html/frappe-bench/apps/frappe/frappe/core/doctype/scheduled_job_type/scheduled_job_type.py:
Site: fianzacredito.com
Scheduled Job Start: frappe.email.doctype.email_account.email_account.notify_unreplied for fianzacredito.com
[INFO] 2020-03-10 18:08:19,314 | /home/jhon/public_html/frappe-bench/apps/frappe/frappe/core/doctype/scheduled_job_type/scheduled_job_type.py:
Site: fianzacredito.com
Scheduled Job Complete: frappe.email.doctype.email_account.email_account.notify_unreplied for fianzacredito.com
[INFO] 2020-03-10 18:08:19,351 | /home/jhon/public_html/frappe-bench/apps/frappe/frappe/core/doctype/scheduled_job_type/scheduled_job_type.py:
Site: fianzacredito.com
Scheduled Job Start: frappe.email.doctype.email_account.email_account.pull for fianzacredito.com
[INFO] 2020-03-10 18:08:19,393 | /home/jhon/public_html/frappe-bench/apps/frappe/frappe/core/doctype/scheduled_job_type/scheduled_job_type.py:
Site: fianzacredito.com
Scheduled Job Complete: frappe.email.doctype.email_account.email_account.pull for fianzacredito.com
[INFO] 2020-03-10 18:08:19,429 | /home/jhon/public_html/frappe-bench/apps/frappe/frappe/core/doctype/scheduled_job_type/scheduled_job_type.py:
Site: fianzacredito.com
Scheduled Job Start: frappe.email.queue.flush for fianzacredito.com
[INFO] 2020-03-10 18:08:19,456 | /home/jhon/public_html/frappe-bench/apps/frappe/frappe/core/doctype/scheduled_job_type/scheduled_job_type.py:
Site: fianzacredito.com
Scheduled Job Complete: frappe.email.queue.flush for fianzacredito.com
[DEBUG] 2020-03-10 18:09:19,278 | /home/jhon/public_html/frappe-bench/apps/frappe/frappe/utils/scheduler.py:
Site: fianzacredito.com
Queued events for site fianzacredito.com
[DEBUG] 2020-03-10 18:10:19,458 | /home/jhon/public_html/frappe-bench/apps/frappe/frappe/utils/scheduler.py:
Site: fianzacredito.com
Queued events for site fianzacredito.com
[DEBUG] 2020-03-10 18:11:19,623 | /home/jhon/public_html/frappe-bench/apps/frappe/frappe/utils/scheduler.py:
Site: fianzacredito.com
Queued events for site fianzacredito.com
[DEBUG] 2020-03-10 18:12:19,810 | /home/jhon/public_html/frappe-bench/apps/frappe/frappe/utils/scheduler.py:
Site: fianzacredito.com
Queued events for site fianzacredito.com
[INFO] 2020-03-10 18:12:19,825 | /home/jhon/public_html/frappe-bench/apps/frappe/frappe/core/doctype/scheduled_job_type/scheduled_job_type.py:
Site: fianzacredito.com
Scheduled Job Start: frappe.monitor.flush for fianzacredito.com
[INFO] 2020-03-10 18:12:19,840 | /home/jhon/public_html/frappe-bench/apps/frappe/frappe/core/doctype/scheduled_job_type/scheduled_job_type.py:
Site: fianzacredito.com
Scheduled Job Complete: frappe.monitor.flush for fianzacredito.com
[INFO] 2020-03-10 18:12:19,880 | /home/jhon/public_html/frappe-bench/apps/frappe/frappe/core/doctype/scheduled_job_type/scheduled_job_type.py:
Site: fianzacredito.com
Scheduled Job Start: frappe.utils.global_search.sync_global_search for fianzacredito.com
[INFO] 2020-03-10 18:12:19,895 | /home/jhon/public_html/frappe-bench/apps/frappe/frappe/core/doctype/scheduled_job_type/scheduled_job_type.py:
Site: fianzacredito.com
Scheduled Job Complete: frappe.utils.global_search.sync_global_search for fianzacredito.com
[INFO] 2020-03-10 18:12:19,934 | /home/jhon/public_html/frappe-bench/apps/frappe/frappe/core/doctype/scheduled_job_type/scheduled_job_type.py:
Site: fianzacredito.com
Scheduled Job Start: frappe.integrations.doctype.razorpay_settings.razorpay_settings.capture_payment for fianzacredito.com
[INFO] 2020-03-10 18:12:19,956 | /home/jhon/public_html/frappe-bench/apps/frappe/frappe/core/doctype/scheduled_job_type/scheduled_job_type.py:
Site: fianzacredito.com
Scheduled Job Complete: frappe.integrations.doctype.razorpay_settings.razorpay_settings.capture_payment for fianzacredito.com
[INFO] 2020-03-10 18:12:20,029 | /home/jhon/public_html/frappe-bench/apps/frappe/frappe/core/doctype/scheduled_job_type/scheduled_job_type.py:
Site: fianzacredito.com
Scheduled Job Start: frappe.email.doctype.email_account.email_account.notify_unreplied for fianzacredito.com
[INFO] 2020-03-10 18:12:20,075 | /home/jhon/public_html/frappe-bench/apps/frappe/frappe/core/doctype/scheduled_job_type/scheduled_job_type.py:
Site: fianzacredito.com
Scheduled Job Complete: frappe.email.doctype.email_account.email_account.notify_unreplied for fianzacredito.com
[INFO] 2020-03-10 18:12:20,128 | /home/jhon/public_html/frappe-bench/apps/frappe/frappe/core/doctype/scheduled_job_type/scheduled_job_type.py:
Site: fianzacredito.com
Scheduled Job Start: frappe.email.doctype.email_account.email_account.pull for fianzacredito.com
[INFO] 2020-03-10 18:12:20,174 | /home/jhon/public_html/frappe-bench/apps/frappe/frappe/core/doctype/scheduled_job_type/scheduled_job_type.py:
Site: fianzacredito.com
Scheduled Job Complete: frappe.email.doctype.email_account.email_account.pull for fianzacredito.com
[INFO] 2020-03-10 18:12:20,213 | /home/jhon/public_html/frappe-bench/apps/frappe/frappe/core/doctype/scheduled_job_type/scheduled_job_type.py:
Site: fianzacredito.com
Scheduled Job Start: frappe.email.queue.flush for fianzacredito.com
[INFO] 2020-03-10 18:12:20,243 | /home/jhon/public_html/frappe-bench/apps/frappe/frappe/core/doctype/scheduled_job_type/scheduled_job_type.py:
Site: fianzacredito.com
Scheduled Job Complete: frappe.email.queue.flush for fianzacredito.com
[DEBUG] 2020-03-10 18:13:20,124 | /home/jhon/public_html/frappe-bench/apps/frappe/frappe/utils/scheduler.py:
Site: fianzacredito.com
Queued events for site fianzacredito.com
[DEBUG] 2020-03-10 18:14:20,322 | /home/jhon/public_html/frappe-bench/apps/frappe/frappe/utils/scheduler.py:
Site: fianzacredito.com
Queued events for site fianzacredito.com
[DEBUG] 2020-03-10 18:15:20,511 | /home/jhon/public_html/frappe-bench/apps/frappe/frappe/utils/scheduler.py:
Site: fianzacredito.com
Queued events for site fianzacredito.com
[INFO] 2020-03-10 18:15:20,548 | /home/jhon/public_html/frappe-bench/apps/frappe/frappe/core/doctype/scheduled_job_type/scheduled_job_type.py:
Site: fianzacredito.com
Scheduled Job Start: frappe.twofactor.delete_all_barcodes_for_users for fianzacredito.com
[INFO] 2020-03-10 18:15:20,609 | /home/jhon/public_html/frappe-bench/apps/frappe/frappe/core/doctype/scheduled_job_type/scheduled_job_type.py:
Site: fianzacredito.com
Scheduled Job Complete: frappe.twofactor.delete_all_barcodes_for_users for fianzacredito.com
[INFO] 2020-03-10 18:15:20,680 | /home/jhon/public_html/frappe-bench/apps/frappe/frappe/core/doctype/scheduled_job_type/scheduled_job_type.py:
Site: fianzacredito.com
Scheduled Job Start: frappe.website.doctype.web_page.web_page.check_publish_status for fianzacredito.com
[INFO] 2020-03-10 18:15:20,746 | /home/jhon/public_html/frappe-bench/apps/frappe/frappe/core/doctype/scheduled_job_type/scheduled_job_type.py:
Site: fianzacredito.com
Scheduled Job Complete: frappe.website.doctype.web_page.web_page.check_publish_status for fianzacredito.com
[INFO] 2020-03-10 18:15:20,789 | /home/jhon/public_html/frappe-bench/apps/frappe/frappe/core/doctype/scheduled_job_type/scheduled_job_type.py:
Site: fianzacredito.com
Scheduled Job Start: frappe.oauth.delete_oauth2_data for fianzacredito.com
[INFO] 2020-03-10 18:15:20,862 | /home/jhon/public_html/frappe-bench/apps/frappe/frappe/core/doctype/scheduled_job_type/scheduled_job_type.py:
Site: fianzacredito.com
Scheduled Job Complete: frappe.oauth.delete_oauth2_data for fianzacredito.com
[DEBUG] 2020-03-10 18:16:20,718 | /home/jhon/public_html/frappe-bench/apps/frappe/frappe/utils/scheduler.py:
Site: fianzacredito.com
Queued events for site fianzacredito.com
[INFO] 2020-03-10 18:16:20,767 | /home/jhon/public_html/frappe-bench/apps/frappe/frappe/core/doctype/scheduled_job_type/scheduled_job_type.py:
Site: fianzacredito.com
Scheduled Job Start: frappe.monitor.flush for fianzacredito.com
[INFO] 2020-03-10 18:16:20,783 | /home/jhon/public_html/frappe-bench/apps/frappe/frappe/core/doctype/scheduled_job_type/scheduled_job_type.py:
Site: fianzacredito.com
Scheduled Job Complete: frappe.monitor.flush for fianzacredito.com
[INFO] 2020-03-10 18:16:20,827 | /home/jhon/public_html/frappe-bench/apps/frappe/frappe/core/doctype/scheduled_job_type/scheduled_job_type.py:
Site: fianzacredito.com
Scheduled Job Start: frappe.utils.global_search.sync_global_search for fianzacredito.com
[INFO] 2020-03-10 18:16:20,843 | /home/jhon/public_html/frappe-bench/apps/frappe/frappe/core/doctype/scheduled_job_type/scheduled_job_type.py:
Site: fianzacredito.com
Scheduled Job Complete: frappe.utils.global_search.sync_global_search for fianzacredito.com
[INFO] 2020-03-10 18:16:20,881 | /home/jhon/public_html/frappe-bench/apps/frappe/frappe/core/doctype/scheduled_job_type/scheduled_job_type.py:
Site: fianzacredito.com
Scheduled Job Start: frappe.integrations.doctype.razorpay_settings.razorpay_settings.capture_payment for fianzacredito.com
[INFO] 2020-03-10 18:16:20,900 | /home/jhon/public_html/frappe-bench/apps/frappe/frappe/core/doctype/scheduled_job_type/scheduled_job_type.py:
Site: fianzacredito.com
Scheduled Job Complete: frappe.integrations.doctype.razorpay_settings.razorpay_settings.capture_payment for fianzacredito.com
[INFO] 2020-03-10 18:16:20,940 | /home/jhon/public_html/frappe-bench/apps/frappe/frappe/core/doctype/scheduled_job_type/scheduled_job_type.py:
Site: fianzacredito.com
Scheduled Job Start: frappe.email.doctype.email_account.email_account.notify_unreplied for fianzacredito.com
[INFO] 2020-03-10 18:16:20,979 | /home/jhon/public_html/frappe-bench/apps/frappe/frappe/core/doctype/scheduled_job_type/scheduled_job_type.py:
Site: fianzacredito.com
Scheduled Job Complete: frappe.email.doctype.email_account.email_account.notify_unreplied for fianzacredito.com
[INFO] 2020-03-10 18:16:21,950 | /home/jhon/public_html/frappe-bench/apps/frappe/frappe/core/doctype/scheduled_job_type/scheduled_job_type.py:
Site: fianzacredito.com
Scheduled Job Start: frappe.email.doctype.email_account.email_account.pull for fianzacredito.com
[INFO] 2020-03-10 18:16:21,993 | /home/jhon/public_html/frappe-bench/apps/frappe/frappe/core/doctype/scheduled_job_type/scheduled_job_type.py:
Site: fianzacredito.com
Scheduled Job Complete: frappe.email.doctype.email_account.email_account.pull for fianzacredito.com
[INFO] 2020-03-10 18:16:22,040 | /home/jhon/public_html/frappe-bench/apps/frappe/frappe/core/doctype/scheduled_job_type/scheduled_job_type.py:
Site: fianzacredito.com
Scheduled Job Start: frappe.email.queue.flush for fianzacredito.com
[INFO] 2020-03-10 18:16:22,070 | /home/jhon/public_html/frappe-bench/apps/frappe/frappe/core/doctype/scheduled_job_type/scheduled_job_type.py:
Site: fianzacredito.com
Scheduled Job Complete: frappe.email.queue.flush for fianzacredito.com
[DEBUG] 2020-03-10 18:17:20,925 | /home/jhon/public_html/frappe-bench/apps/frappe/frappe/utils/scheduler.py:
Site: fianzacredito.com
Queued events for site fianzacredito.com
[DEBUG] 2020-03-10 18:18:21,146 | /home/jhon/public_html/frappe-bench/apps/frappe/frappe/utils/scheduler.py:
Site: fianzacredito.com
Queued events for site fianzacredito.com
[DEBUG] 2020-03-10 18:19:21,321 | /home/jhon/public_html/frappe-bench/apps/frappe/frappe/utils/scheduler.py:
Site: fianzacredito.com
Queued events for site fianzacredito.com
[DEBUG] 2020-03-10 18:20:21,484 | /home/jhon/public_html/frappe-bench/apps/frappe/frappe/utils/scheduler.py:
Site: fianzacredito.com
Queued events for site fianzacredito.com
[INFO] 2020-03-10 18:20:21,513 | /home/jhon/public_html/frappe-bench/apps/frappe/frappe/core/doctype/scheduled_job_type/scheduled_job_type.py:
Site: fianzacredito.com
Scheduled Job Start: frappe.monitor.flush for fianzacredito.com
[INFO] 2020-03-10 18:20:21,530 | /home/jhon/public_html/frappe-bench/apps/frappe/frappe/core/doctype/scheduled_job_type/scheduled_job_type.py:
Site: fianzacredito.com
Scheduled Job Complete: frappe.monitor.flush for fianzacredito.com
[INFO] 2020-03-10 18:20:21,567 | /home/jhon/public_html/frappe-bench/apps/frappe/frappe/core/doctype/scheduled_job_type/scheduled_job_type.py:
Site: fianzacredito.com
Scheduled Job Start: frappe.utils.global_search.sync_global_search for fianzacredito.com
[INFO] 2020-03-10 18:20:21,583 | /home/jhon/public_html/frappe-bench/apps/frappe/frappe/core/doctype/scheduled_job_type/scheduled_job_type.py:
Site: fianzacredito.com
Scheduled Job Complete: frappe.utils.global_search.sync_global_search for fianzacredito.com
[INFO] 2020-03-10 18:20:21,624 | /home/jhon/public_html/frappe-bench/apps/frappe/frappe/core/doctype/scheduled_job_type/scheduled_job_type.py:
Site: fianzacredito.com
Scheduled Job Start: frappe.integrations.doctype.razorpay_settings.razorpay_settings.capture_payment for fianzacredito.com
[INFO] 2020-03-10 18:20:21,643 | /home/jhon/public_html/frappe-bench/apps/frappe/frappe/core/doctype/scheduled_job_type/scheduled_job_type.py:
Site: fianzacredito.com
Scheduled Job Complete: frappe.integrations.doctype.razorpay_settings.razorpay_settings.capture_payment for fianzacredito.com
[INFO] 2020-03-10 18:20:21,681 | /home/jhon/public_html/frappe-bench/apps/frappe/frappe/core/doctype/scheduled_job_type/scheduled_job_type.py:
Site: fianzacredito.com
Scheduled Job Start: frappe.email.doctype.email_account.email_account.notify_unreplied for fianzacredito.com
[INFO] 2020-03-10 18:20:21,721 | /home/jhon/public_html/frappe-bench/apps/frappe/frappe/core/doctype/scheduled_job_type/scheduled_job_type.py:
Site: fianzacredito.com
Scheduled Job Complete: frappe.email.doctype.email_account.email_account.notify_unreplied for fianzacredito.com
[INFO] 2020-03-10 18:20:21,757 | /home/jhon/public_html/frappe-bench/apps/frappe/frappe/core/doctype/scheduled_job_type/scheduled_job_type.py:
Site: fianzacredito.com
Scheduled Job Start: frappe.email.doctype.email_account.email_account.pull for fianzacredito.com
[INFO] 2020-03-10 18:20:21,801 | /home/jhon/public_html/frappe-bench/apps/frappe/frappe/core/doctype/scheduled_job_type/scheduled_job_type.py:
Site: fianzacredito.com
Scheduled Job Complete: frappe.email.doctype.email_account.email_account.pull for fianzacredito.com
[INFO] 2020-03-10 18:20:21,838 | /home/jhon/public_html/frappe-bench/apps/frappe/frappe/core/doctype/scheduled_job_type/scheduled_job_type.py:
Site: fianzacredito.com
Scheduled Job Start: frappe.email.queue.flush for fianzacredito.com
[INFO] 2020-03-10 18:20:21,866 | /home/jhon/public_html/frappe-bench/apps/frappe/frappe/core/doctype/scheduled_job_type/scheduled_job_type.py:
Site: fianzacredito.com
Scheduled Job Complete: frappe.email.queue.flush for fianzacredito.com
[DEBUG] 2020-03-10 18:21:21,660 | /home/jhon/public_html/frappe-bench/apps/frappe/frappe/utils/scheduler.py:
Site: fianzacredito.com
Queued events for site fianzacredito.com
[DEBUG] 2020-03-10 18:22:21,843 | /home/jhon/public_html/frappe-bench/apps/frappe/frappe/utils/scheduler.py:
Site: fianzacredito.com
Queued events for site fianzacredito.com
[DEBUG] 2020-03-10 18:23:22,071 | /home/jhon/public_html/frappe-bench/apps/frappe/frappe/utils/scheduler.py:
Site: fianzacredito.com
Queued events for site fianzacredito.com
[DEBUG] 2020-03-10 18:31:46,171 | /home/jhon/public_html/frappe-bench/apps/frappe/frappe/utils/scheduler.py:
Site: fianzacredito.com
Queued events for site fianzacredito.com
[INFO] 2020-03-10 18:31:46,181 | /home/jhon/public_html/frappe-bench/apps/frappe/frappe/core/doctype/scheduled_job_type/scheduled_job_type.py:
Site: fianzacredito.com
Scheduled Job Start: frappe.monitor.flush for fianzacredito.com
[INFO] 2020-03-10 18:31:46,257 | /home/jhon/public_html/frappe-bench/apps/frappe/frappe/core/doctype/scheduled_job_type/scheduled_job_type.py:
Site: fianzacredito.com
Scheduled Job Complete: frappe.monitor.flush for fianzacredito.com
[INFO] 2020-03-10 18:31:46,298 | /home/jhon/public_html/frappe-bench/apps/frappe/frappe/core/doctype/scheduled_job_type/scheduled_job_type.py:
Site: fianzacredito.com
Scheduled Job Start: frappe.utils.global_search.sync_global_search for fianzacredito.com
[INFO] 2020-03-10 18:31:46,314 | /home/jhon/public_html/frappe-bench/apps/frappe/frappe/core/doctype/scheduled_job_type/scheduled_job_type.py:
Site: fianzacredito.com
Scheduled Job Complete: frappe.utils.global_search.sync_global_search for fianzacredito.com
[INFO] 2020-03-10 18:31:46,399 | /home/jhon/public_html/frappe-bench/apps/frappe/frappe/core/doctype/scheduled_job_type/scheduled_job_type.py:
Site: fianzacredito.com
Scheduled Job Start: frappe.integrations.doctype.razorpay_settings.razorpay_settings.capture_payment for fianzacredito.com
[INFO] 2020-03-10 18:31:46,460 | /home/jhon/public_html/frappe-bench/apps/frappe/frappe/core/doctype/scheduled_job_type/scheduled_job_type.py:
Site: fianzacredito.com
Scheduled Job Complete: frappe.integrations.doctype.razorpay_settings.razorpay_settings.capture_payment for fianzacredito.com
[INFO] 2020-03-10 18:31:46,498 | /home/jhon/public_html/frappe-bench/apps/frappe/frappe/core/doctype/scheduled_job_type/scheduled_job_type.py:
Site: fianzacredito.com
Scheduled Job Start: frappe.email.doctype.email_account.email_account.notify_unreplied for fianzacredito.com
[INFO] 2020-03-10 18:31:46,573 | /home/jhon/public_html/frappe-bench/apps/frappe/frappe/core/doctype/scheduled_job_type/scheduled_job_type.py:
Site: fianzacredito.com
Scheduled Job Complete: frappe.email.doctype.email_account.email_account.notify_unreplied for fianzacredito.com
[INFO] 2020-03-10 18:31:46,611 | /home/jhon/public_html/frappe-bench/apps/frappe/frappe/core/doctype/scheduled_job_type/scheduled_job_type.py:
Site: fianzacredito.com
Scheduled Job Start: frappe.email.doctype.email_account.email_account.pull for fianzacredito.com
[INFO] 2020-03-10 18:31:46,674 | /home/jhon/public_html/frappe-bench/apps/frappe/frappe/core/doctype/scheduled_job_type/scheduled_job_type.py:
Site: fianzacredito.com
Scheduled Job Complete: frappe.email.doctype.email_account.email_account.pull for fianzacredito.com
[INFO] 2020-03-10 18:31:46,716 | /home/jhon/public_html/frappe-bench/apps/frappe/frappe/core/doctype/scheduled_job_type/scheduled_job_type.py:
Site: fianzacredito.com
Scheduled Job Start: frappe.email.queue.flush for fianzacredito.com
[INFO] 2020-03-10 18:31:46,745 | /home/jhon/public_html/frappe-bench/apps/frappe/frappe/core/doctype/scheduled_job_type/scheduled_job_type.py:
Site: fianzacredito.com
Scheduled Job Complete: frappe.email.queue.flush for fianzacredito.com
[INFO] 2020-03-10 18:31:46,817 | /home/jhon/public_html/frappe-bench/apps/frappe/frappe/core/doctype/scheduled_job_type/scheduled_job_type.py:
Site: fianzacredito.com
Scheduled Job Start: frappe.twofactor.delete_all_barcodes_for_users for fianzacredito.com
[INFO] 2020-03-10 18:31:46,994 | /home/jhon/public_html/frappe-bench/apps/frappe/frappe/core/doctype/scheduled_job_type/scheduled_job_type.py:
Site: fianzacredito.com
Scheduled Job Complete: frappe.twofactor.delete_all_barcodes_for_users for fianzacredito.com
[INFO] 2020-03-10 18:31:47,039 | /home/jhon/public_html/frappe-bench/apps/frappe/frappe/core/doctype/scheduled_job_type/scheduled_job_type.py:
Site: fianzacredito.com
Scheduled Job Start: frappe.website.doctype.web_page.web_page.check_publish_status for fianzacredito.com
[INFO] 2020-03-10 18:31:47,116 | /home/jhon/public_html/frappe-bench/apps/frappe/frappe/core/doctype/scheduled_job_type/scheduled_job_type.py:
Site: fianzacredito.com
Scheduled Job Complete: frappe.website.doctype.web_page.web_page.check_publish_status for fianzacredito.com
[INFO] 2020-03-10 18:31:47,207 | /home/jhon/public_html/frappe-bench/apps/frappe/frappe/core/doctype/scheduled_job_type/scheduled_job_type.py:
Site: fianzacredito.com
Scheduled Job Start: frappe.oauth.delete_oauth2_data for fianzacredito.com
[INFO] 2020-03-10 18:31:47,314 | /home/jhon/public_html/frappe-bench/apps/frappe/frappe/core/doctype/scheduled_job_type/scheduled_job_type.py:
Site: fianzacredito.com
Scheduled Job Complete: frappe.oauth.delete_oauth2_data for fianzacredito.com
[ERROR] 2020-03-10 18:32:03,317 | /home/jhon/public_html/frappe-bench/apps/frappe/frappe/app.py:
Site: fianzacredito.com
Form Dict: {
 "cmd": "frappe.client.get_hooks"
}
Request Error
Traceback (most recent call last):
  File "/home/jhon/public_html/frappe-bench/apps/frappe/frappe/app.py", line 62, in application
    response = frappe.api.handle()
  File "/home/jhon/public_html/frappe-bench/apps/frappe/frappe/api.py", line 55, in handle
    return frappe.handler.handle()
  File "/home/jhon/public_html/frappe-bench/apps/frappe/frappe/handler.py", line 24, in handle
    data = execute_cmd(cmd)
  File "/home/jhon/public_html/frappe-bench/apps/frappe/frappe/handler.py", line 63, in execute_cmd
    return frappe.call(method, **frappe.form_dict)
  File "/home/jhon/public_html/frappe-bench/apps/frappe/frappe/__init__.py", line 1068, in call
    return fn(*args, **newargs)
TypeError: get_hooks() missing 1 required positional argument: 'hook'
[ERROR] 2020-03-10 18:32:03,319 | /home/jhon/public_html/frappe-bench/apps/frappe/frappe/app.py:
Site: fianzacredito.com
Form Dict: {
 "cmd": "frappe.realtime.get_user_info"
}
Request Error
Traceback (most recent call last):
  File "/home/jhon/public_html/frappe-bench/apps/frappe/frappe/app.py", line 62, in application
    response = frappe.api.handle()
  File "/home/jhon/public_html/frappe-bench/apps/frappe/frappe/api.py", line 55, in handle
    return frappe.handler.handle()
  File "/home/jhon/public_html/frappe-bench/apps/frappe/frappe/handler.py", line 24, in handle
    data = execute_cmd(cmd)
  File "/home/jhon/public_html/frappe-bench/apps/frappe/frappe/handler.py", line 63, in execute_cmd
    return frappe.call(method, **frappe.form_dict)
  File "/home/jhon/public_html/frappe-bench/apps/frappe/frappe/__init__.py", line 1068, in call
    return fn(*args, **newargs)
TypeError: get_user_info() missing 1 required positional argument: 'sid'
[ERROR] 2020-03-10 18:32:03,319 | /home/jhon/public_html/frappe-bench/apps/frappe/frappe/app.py:
Site: fianzacredito.com
Form Dict: {
 "cmd": "frappe.realtime.get_user_info"
}
Site: fianzacredito.com
Form Dict: {
 "cmd": "frappe.realtime.get_user_info"
}
Request Error
Traceback (most recent call last):
  File "/home/jhon/public_html/frappe-bench/apps/frappe/frappe/app.py", line 62, in application
    response = frappe.api.handle()
  File "/home/jhon/public_html/frappe-bench/apps/frappe/frappe/api.py", line 55, in handle
    return frappe.handler.handle()
  File "/home/jhon/public_html/frappe-bench/apps/frappe/frappe/handler.py", line 24, in handle
    data = execute_cmd(cmd)
  File "/home/jhon/public_html/frappe-bench/apps/frappe/frappe/handler.py", line 63, in execute_cmd
    return frappe.call(method, **frappe.form_dict)
  File "/home/jhon/public_html/frappe-bench/apps/frappe/frappe/__init__.py", line 1068, in call
    return fn(*args, **newargs)
TypeError: get_user_info() missing 1 required positional argument: 'sid'
[ERROR] 2020-03-10 18:32:03,320 | /home/jhon/public_html/frappe-bench/apps/frappe/frappe/app.py:
Site: fianzacredito.com
Form Dict: {
 "cmd": "frappe.desk.desktop.get_desktop_page"
}
Request Error
Traceback (most recent call last):
  File "/home/jhon/public_html/frappe-bench/apps/frappe/frappe/app.py", line 62, in application
    response = frappe.api.handle()
  File "/home/jhon/public_html/frappe-bench/apps/frappe/frappe/api.py", line 55, in handle
    return frappe.handler.handle()
  File "/home/jhon/public_html/frappe-bench/apps/frappe/frappe/handler.py", line 24, in handle
    data = execute_cmd(cmd)
  File "/home/jhon/public_html/frappe-bench/apps/frappe/frappe/handler.py", line 63, in execute_cmd
    return frappe.call(method, **frappe.form_dict)
  File "/home/jhon/public_html/frappe-bench/apps/frappe/frappe/__init__.py", line 1068, in call
    return fn(*args, **newargs)
TypeError: get_desktop_page() missing 1 required positional argument: 'page'
[ERROR] 2020-03-10 18:32:03,320 | /home/jhon/public_html/frappe-bench/apps/frappe/frappe/app.py:
Site: fianzacredito.com
Form Dict: {
 "cmd": "frappe.desk.desktop.get_desktop_page"
}
Site: fianzacredito.com
Form Dict: {
 "cmd": "frappe.desk.desktop.get_desktop_page"
}
Request Error
Traceback (most recent call last):
  File "/home/jhon/public_html/frappe-bench/apps/frappe/frappe/app.py", line 62, in application
    response = frappe.api.handle()
  File "/home/jhon/public_html/frappe-bench/apps/frappe/frappe/api.py", line 55, in handle
    return frappe.handler.handle()
  File "/home/jhon/public_html/frappe-bench/apps/frappe/frappe/handler.py", line 24, in handle
    data = execute_cmd(cmd)
  File "/home/jhon/public_html/frappe-bench/apps/frappe/frappe/handler.py", line 63, in execute_cmd
    return frappe.call(method, **frappe.form_dict)
  File "/home/jhon/public_html/frappe-bench/apps/frappe/frappe/__init__.py", line 1068, in call
    return fn(*args, **newargs)
TypeError: get_desktop_page() missing 1 required positional argument: 'page'
[ERROR] 2020-03-10 18:32:03,774 | /home/jhon/public_html/frappe-bench/apps/frappe/frappe/utils/error.py:
Could not take error snapshot: invalid syntax (<string>, line 1)
Traceback (most recent call last):
  File "/home/jhon/public_html/frappe-bench/apps/frappe/frappe/app.py", line 62, in application
    response = frappe.api.handle()
  File "/home/jhon/public_html/frappe-bench/apps/frappe/frappe/api.py", line 55, in handle
    return frappe.handler.handle()
  File "/home/jhon/public_html/frappe-bench/apps/frappe/frappe/handler.py", line 24, in handle
    data = execute_cmd(cmd)
  File "/home/jhon/public_html/frappe-bench/apps/frappe/frappe/handler.py", line 63, in execute_cmd
    return frappe.call(method, **frappe.form_dict)
  File "/home/jhon/public_html/frappe-bench/apps/frappe/frappe/__init__.py", line 1068, in call
    return fn(*args, **newargs)
TypeError: get_desktop_page() missing 1 required positional argument: 'page'

During handling of the above exception, another exception occurred:

Traceback (most recent call last):
  File "/home/jhon/public_html/frappe-bench/apps/frappe/frappe/utils/error.py", line 36, in make_error_snapshot
    snapshot = get_snapshot(exception)
  File "/home/jhon/public_html/frappe-bench/apps/frappe/frappe/utils/error.py", line 132, in get_snapshot
    value = eval(value)
  File "<string>", line 1
    <built-in method with_traceback of TypeError object>
    ^
SyntaxError: invalid syntax
[ERROR] 2020-03-10 18:32:03,776 | /home/jhon/public_html/frappe-bench/apps/frappe/frappe/utils/error.py:
Could not take error snapshot: invalid syntax (<string>, line 1)
Traceback (most recent call last):
  File "/home/jhon/public_html/frappe-bench/apps/frappe/frappe/app.py", line 62, in application
    response = frappe.api.handle()
  File "/home/jhon/public_html/frappe-bench/apps/frappe/frappe/api.py", line 55, in handle
    return frappe.handler.handle()
  File "/home/jhon/public_html/frappe-bench/apps/frappe/frappe/handler.py", line 24, in handle
    data = execute_cmd(cmd)
  File "/home/jhon/public_html/frappe-bench/apps/frappe/frappe/handler.py", line 63, in execute_cmd
    return frappe.call(method, **frappe.form_dict)
  File "/home/jhon/public_html/frappe-bench/apps/frappe/frappe/__init__.py", line 1068, in call
    return fn(*args, **newargs)
TypeError: get_user_info() missing 1 required positional argument: 'sid'

During handling of the above exception, another exception occurred:

Traceback (most recent call last):
  File "/home/jhon/public_html/frappe-bench/apps/frappe/frappe/utils/error.py", line 36, in make_error_snapshot
    snapshot = get_snapshot(exception)
  File "/home/jhon/public_html/frappe-bench/apps/frappe/frappe/utils/error.py", line 132, in get_snapshot
    value = eval(value)
  File "<string>", line 1
    <built-in method with_traceback of TypeError object>
    ^
SyntaxError: invalid syntax
[ERROR] 2020-03-10 18:32:03,780 | /home/jhon/public_html/frappe-bench/apps/frappe/frappe/utils/error.py:
Could not take error snapshot: invalid syntax (<string>, line 1)
Traceback (most recent call last):
  File "/home/jhon/public_html/frappe-bench/apps/frappe/frappe/app.py", line 62, in application
    response = frappe.api.handle()
  File "/home/jhon/public_html/frappe-bench/apps/frappe/frappe/api.py", line 55, in handle
    return frappe.handler.handle()
  File "/home/jhon/public_html/frappe-bench/apps/frappe/frappe/handler.py", line 24, in handle
    data = execute_cmd(cmd)
  File "/home/jhon/public_html/frappe-bench/apps/frappe/frappe/handler.py", line 63, in execute_cmd
    return frappe.call(method, **frappe.form_dict)
  File "/home/jhon/public_html/frappe-bench/apps/frappe/frappe/__init__.py", line 1068, in call
    return fn(*args, **newargs)
TypeError: get_hooks() missing 1 required positional argument: 'hook'

During handling of the above exception, another exception occurred:

Traceback (most recent call last):
  File "/home/jhon/public_html/frappe-bench/apps/frappe/frappe/utils/error.py", line 36, in make_error_snapshot
    snapshot = get_snapshot(exception)
  File "/home/jhon/public_html/frappe-bench/apps/frappe/frappe/utils/error.py", line 132, in get_snapshot
    value = eval(value)
  File "<string>", line 1
    <built-in method with_traceback of TypeError object>
    ^
SyntaxError: invalid syntax
[DEBUG] 2020-03-10 18:32:46,324 | /home/jhon/public_html/frappe-bench/apps/frappe/frappe/utils/scheduler.py:
Site: fianzacredito.com
Queued events for site fianzacredito.com
[INFO] 2020-03-10 18:32:46,338 | /home/jhon/public_html/frappe-bench/apps/frappe/frappe/core/doctype/scheduled_job_type/scheduled_job_type.py:
Site: fianzacredito.com
Scheduled Job Start: frappe.monitor.flush for fianzacredito.com
[INFO] 2020-03-10 18:32:46,354 | /home/jhon/public_html/frappe-bench/apps/frappe/frappe/core/doctype/scheduled_job_type/scheduled_job_type.py:
Site: fianzacredito.com
Scheduled Job Complete: frappe.monitor.flush for fianzacredito.com
[INFO] 2020-03-10 18:32:46,399 | /home/jhon/public_html/frappe-bench/apps/frappe/frappe/core/doctype/scheduled_job_type/scheduled_job_type.py:
Site: fianzacredito.com
Scheduled Job Start: frappe.utils.global_search.sync_global_search for fianzacredito.com
[INFO] 2020-03-10 18:32:46,414 | /home/jhon/public_html/frappe-bench/apps/frappe/frappe/core/doctype/scheduled_job_type/scheduled_job_type.py:
Site: fianzacredito.com
Scheduled Job Complete: frappe.utils.global_search.sync_global_search for fianzacredito.com
[INFO] 2020-03-10 18:32:46,465 | /home/jhon/public_html/frappe-bench/apps/frappe/frappe/core/doctype/scheduled_job_type/scheduled_job_type.py:
Site: fianzacredito.com
Scheduled Job Start: frappe.integrations.doctype.razorpay_settings.razorpay_settings.capture_payment for fianzacredito.com
[INFO] 2020-03-10 18:32:46,490 | /home/jhon/public_html/frappe-bench/apps/frappe/frappe/core/doctype/scheduled_job_type/scheduled_job_type.py:
Site: fianzacredito.com
Scheduled Job Complete: frappe.integrations.doctype.razorpay_settings.razorpay_settings.capture_payment for fianzacredito.com
[INFO] 2020-03-10 18:32:46,532 | /home/jhon/public_html/frappe-bench/apps/frappe/frappe/core/doctype/scheduled_job_type/scheduled_job_type.py:
Site: fianzacredito.com
Scheduled Job Start: frappe.email.doctype.email_account.email_account.notify_unreplied for fianzacredito.com
[INFO] 2020-03-10 18:32:46,578 | /home/jhon/public_html/frappe-bench/apps/frappe/frappe/core/doctype/scheduled_job_type/scheduled_job_type.py:
Site: fianzacredito.com
Scheduled Job Complete: frappe.email.doctype.email_account.email_account.notify_unreplied for fianzacredito.com
[INFO] 2020-03-10 18:32:46,621 | /home/jhon/public_html/frappe-bench/apps/frappe/frappe/core/doctype/scheduled_job_type/scheduled_job_type.py:
Site: fianzacredito.com
Scheduled Job Start: frappe.email.doctype.email_account.email_account.pull for fianzacredito.com
[INFO] 2020-03-10 18:32:46,666 | /home/jhon/public_html/frappe-bench/apps/frappe/frappe/core/doctype/scheduled_job_type/scheduled_job_type.py:
Site: fianzacredito.com
Scheduled Job Complete: frappe.email.doctype.email_account.email_account.pull for fianzacredito.com
[INFO] 2020-03-10 18:32:46,708 | /home/jhon/public_html/frappe-bench/apps/frappe/frappe/core/doctype/scheduled_job_type/scheduled_job_type.py:
Site: fianzacredito.com
Scheduled Job Start: frappe.email.queue.flush for fianzacredito.com
[INFO] 2020-03-10 18:32:46,747 | /home/jhon/public_html/frappe-bench/apps/frappe/frappe/core/doctype/scheduled_job_type/scheduled_job_type.py:
Site: fianzacredito.com
Scheduled Job Complete: frappe.email.queue.flush for fianzacredito.com
[DEBUG] 2020-03-10 18:36:48,541 | /home/jhon/public_html/frappe-bench/apps/frappe/frappe/utils/scheduler.py:
Site: fianzacredito.com
Queued events for site fianzacredito.com
[INFO] 2020-03-10 18:36:49,332 | /home/jhon/public_html/frappe-bench/apps/frappe/frappe/core/doctype/scheduled_job_type/scheduled_job_type.py:
Site: fianzacredito.com
Scheduled Job Start: frappe.monitor.flush for fianzacredito.com
[INFO] 2020-03-10 18:36:49,367 | /home/jhon/public_html/frappe-bench/apps/frappe/frappe/core/doctype/scheduled_job_type/scheduled_job_type.py:
Site: fianzacredito.com
Scheduled Job Complete: frappe.monitor.flush for fianzacredito.com
[INFO] 2020-03-10 18:36:49,405 | /home/jhon/public_html/frappe-bench/apps/frappe/frappe/core/doctype/scheduled_job_type/scheduled_job_type.py:
Site: fianzacredito.com
Scheduled Job Start: frappe.utils.global_search.sync_global_search for fianzacredito.com
[INFO] 2020-03-10 18:36:49,420 | /home/jhon/public_html/frappe-bench/apps/frappe/frappe/core/doctype/scheduled_job_type/scheduled_job_type.py:
Site: fianzacredito.com
Scheduled Job Complete: frappe.utils.global_search.sync_global_search for fianzacredito.com
[INFO] 2020-03-10 18:36:49,455 | /home/jhon/public_html/frappe-bench/apps/frappe/frappe/core/doctype/scheduled_job_type/scheduled_job_type.py:
Site: fianzacredito.com
Scheduled Job Start: frappe.integrations.doctype.razorpay_settings.razorpay_settings.capture_payment for fianzacredito.com
[INFO] 2020-03-10 18:36:49,497 | /home/jhon/public_html/frappe-bench/apps/frappe/frappe/core/doctype/scheduled_job_type/scheduled_job_type.py:
Site: fianzacredito.com
Scheduled Job Complete: frappe.integrations.doctype.razorpay_settings.razorpay_settings.capture_payment for fianzacredito.com
[INFO] 2020-03-10 18:36:49,536 | /home/jhon/public_html/frappe-bench/apps/frappe/frappe/core/doctype/scheduled_job_type/scheduled_job_type.py:
Site: fianzacredito.com
Scheduled Job Start: frappe.email.doctype.email_account.email_account.notify_unreplied for fianzacredito.com
[INFO] 2020-03-10 18:36:49,598 | /home/jhon/public_html/frappe-bench/apps/frappe/frappe/core/doctype/scheduled_job_type/scheduled_job_type.py:
Site: fianzacredito.com
Scheduled Job Complete: frappe.email.doctype.email_account.email_account.notify_unreplied for fianzacredito.com
[INFO] 2020-03-10 18:36:49,654 | /home/jhon/public_html/frappe-bench/apps/frappe/frappe/core/doctype/scheduled_job_type/scheduled_job_type.py:
Site: fianzacredito.com
Scheduled Job Start: frappe.email.doctype.email_account.email_account.pull for fianzacredito.com
[INFO] 2020-03-10 18:36:49,702 | /home/jhon/public_html/frappe-bench/apps/frappe/frappe/core/doctype/scheduled_job_type/scheduled_job_type.py:
Site: fianzacredito.com
Scheduled Job Complete: frappe.email.doctype.email_account.email_account.pull for fianzacredito.com
[INFO] 2020-03-10 18:36:49,738 | /home/jhon/public_html/frappe-bench/apps/frappe/frappe/core/doctype/scheduled_job_type/scheduled_job_type.py:
Site: fianzacredito.com
Scheduled Job Start: frappe.email.queue.flush for fianzacredito.com
[INFO] 2020-03-10 18:36:49,765 | /home/jhon/public_html/frappe-bench/apps/frappe/frappe/core/doctype/scheduled_job_type/scheduled_job_type.py:
Site: fianzacredito.com
Scheduled Job Complete: frappe.email.queue.flush for fianzacredito.com
[DEBUG] 2020-03-10 18:37:48,768 | /home/jhon/public_html/frappe-bench/apps/frappe/frappe/utils/scheduler.py:
Site: fianzacredito.com
Queued events for site fianzacredito.com
[DEBUG] 2020-03-10 18:38:48,995 | /home/jhon/public_html/frappe-bench/apps/frappe/frappe/utils/scheduler.py:
Site: fianzacredito.com
Queued events for site fianzacredito.com
[ERROR] 2020-03-11 11:00:29,252 | /home/jhon/public_html/frappe-bench/apps/frappe/frappe/app.py:
Site: fianzacredito.com
Form Dict: {
 "cmd": "frappe.realtime.get_user_info"
}
Request Error
Traceback (most recent call last):
  File "/home/jhon/public_html/frappe-bench/apps/frappe/frappe/app.py", line 62, in application
    response = frappe.api.handle()
  File "/home/jhon/public_html/frappe-bench/apps/frappe/frappe/api.py", line 55, in handle
    return frappe.handler.handle()
  File "/home/jhon/public_html/frappe-bench/apps/frappe/frappe/handler.py", line 24, in handle
    data = execute_cmd(cmd)
  File "/home/jhon/public_html/frappe-bench/apps/frappe/frappe/handler.py", line 63, in execute_cmd
    return frappe.call(method, **frappe.form_dict)
  File "/home/jhon/public_html/frappe-bench/apps/frappe/frappe/__init__.py", line 1068, in call
    return fn(*args, **newargs)
TypeError: get_user_info() missing 1 required positional argument: 'sid'
[ERROR] 2020-03-11 11:00:29,582 | /home/jhon/public_html/frappe-bench/apps/frappe/frappe/utils/error.py:
Could not take error snapshot: invalid syntax (<string>, line 1)
Traceback (most recent call last):
  File "/home/jhon/public_html/frappe-bench/apps/frappe/frappe/app.py", line 62, in application
    response = frappe.api.handle()
  File "/home/jhon/public_html/frappe-bench/apps/frappe/frappe/api.py", line 55, in handle
    return frappe.handler.handle()
  File "/home/jhon/public_html/frappe-bench/apps/frappe/frappe/handler.py", line 24, in handle
    data = execute_cmd(cmd)
  File "/home/jhon/public_html/frappe-bench/apps/frappe/frappe/handler.py", line 63, in execute_cmd
    return frappe.call(method, **frappe.form_dict)
  File "/home/jhon/public_html/frappe-bench/apps/frappe/frappe/__init__.py", line 1068, in call
    return fn(*args, **newargs)
TypeError: get_user_info() missing 1 required positional argument: 'sid'

During handling of the above exception, another exception occurred:

Traceback (most recent call last):
  File "/home/jhon/public_html/frappe-bench/apps/frappe/frappe/utils/error.py", line 36, in make_error_snapshot
    snapshot = get_snapshot(exception)
  File "/home/jhon/public_html/frappe-bench/apps/frappe/frappe/utils/error.py", line 132, in get_snapshot
    value = eval(value)
  File "<string>", line 1
    <built-in method with_traceback of TypeError object>
    ^
SyntaxError: invalid syntax
[INFO] 2020-03-11 11:01:05,087 | /home/jhon/public_html/frappe-bench/apps/frappe/frappe/core/doctype/scheduled_job_type/scheduled_job_type.py:
Site: fianzacredito.com
Scheduled Job Start: frappe.integrations.doctype.google_drive.google_drive.daily_backup for fianzacredito.com
[INFO] 2020-03-11 11:01:05,106 | /home/jhon/public_html/frappe-bench/apps/frappe/frappe/core/doctype/scheduled_job_type/scheduled_job_type.py:
Site: fianzacredito.com
Scheduled Job Start: frappe.email.doctype.unhandled_email.unhandled_email.remove_old_unhandled_emails for fianzacredito.com
[INFO] 2020-03-11 11:01:05,224 | /home/jhon/public_html/frappe-bench/apps/frappe/frappe/core/doctype/scheduled_job_type/scheduled_job_type.py:
Site: fianzacredito.com
Scheduled Job Complete: frappe.email.doctype.unhandled_email.unhandled_email.remove_old_unhandled_emails for fianzacredito.com
[INFO] 2020-03-11 11:01:05,275 | /home/jhon/public_html/frappe-bench/apps/frappe/frappe/core/doctype/scheduled_job_type/scheduled_job_type.py:
Site: fianzacredito.com
Scheduled Job Start: frappe.automation.doctype.auto_repeat.auto_repeat.set_auto_repeat_as_completed for fianzacredito.com
[INFO] 2020-03-11 11:01:05,295 | /home/jhon/public_html/frappe-bench/apps/frappe/frappe/core/doctype/scheduled_job_type/scheduled_job_type.py:
Site: fianzacredito.com
Scheduled Job Complete: frappe.integrations.doctype.google_drive.google_drive.daily_backup for fianzacredito.com
[INFO] 2020-03-11 11:01:05,350 | /home/jhon/public_html/frappe-bench/apps/frappe/frappe/core/doctype/scheduled_job_type/scheduled_job_type.py:
Site: fianzacredito.com
Scheduled Job Start: frappe.integrations.doctype.s3_backup_settings.s3_backup_settings.take_backups_daily for fianzacredito.com
[DEBUG] 2020-03-11 11:01:05,367 | /home/jhon/public_html/frappe-bench/apps/frappe/frappe/utils/scheduler.py:
Site: fianzacredito.com
Queued events for site fianzacredito.com
[INFO] 2020-03-11 11:01:05,407 | /home/jhon/public_html/frappe-bench/apps/frappe/frappe/core/doctype/scheduled_job_type/scheduled_job_type.py:
Site: fianzacredito.com
Scheduled Job Complete: frappe.automation.doctype.auto_repeat.auto_repeat.set_auto_repeat_as_completed for fianzacredito.com
[INFO] 2020-03-11 11:01:05,450 | /home/jhon/public_html/frappe-bench/apps/frappe/frappe/core/doctype/scheduled_job_type/scheduled_job_type.py:
Site: fianzacredito.com
Scheduled Job Start: frappe.automation.doctype.auto_repeat.auto_repeat.make_auto_repeat_entry for fianzacredito.com
[INFO] 2020-03-11 11:01:05,494 | /home/jhon/public_html/frappe-bench/apps/frappe/frappe/core/doctype/scheduled_job_type/scheduled_job_type.py:
Site: fianzacredito.com
Scheduled Job Complete: frappe.integrations.doctype.s3_backup_settings.s3_backup_settings.take_backups_daily for fianzacredito.com
[INFO] 2020-03-11 11:01:05,537 | /home/jhon/public_html/frappe-bench/apps/frappe/frappe/core/doctype/scheduled_job_type/scheduled_job_type.py:
Site: fianzacredito.com
Scheduled Job Start: frappe.utils.change_log.check_for_update for fianzacredito.com
