[DEBUG] 2020-03-11 11:02:05,593 | /home/jhon/public_html/frappe-bench/apps/frappe/frappe/utils/scheduler.py:
Site: fianzacredito.com
Queued events for site fianzacredito.com
[DEBUG] 2020-03-11 11:03:05,802 | /home/jhon/public_html/frappe-bench/apps/frappe/frappe/utils/scheduler.py:
Site: fianzacredito.com
Queued events for site fianzacredito.com
[DEBUG] 2020-03-11 11:04:05,966 | /home/jhon/public_html/frappe-bench/apps/frappe/frappe/utils/scheduler.py:
Site: fianzacredito.com
Queued events for site fianzacredito.com
[INFO] 2020-03-11 11:04:05,975 | /home/jhon/public_html/frappe-bench/apps/frappe/frappe/core/doctype/scheduled_job_type/scheduled_job_type.py:
Site: fianzacredito.com
Scheduled Job Start: frappe.monitor.flush for fianzacredito.com
[INFO] 2020-03-11 11:04:05,991 | /home/jhon/public_html/frappe-bench/apps/frappe/frappe/core/doctype/scheduled_job_type/scheduled_job_type.py:
Site: fianzacredito.com
Scheduled Job Complete: frappe.monitor.flush for fianzacredito.com
[INFO] 2020-03-11 11:04:06,022 | /home/jhon/public_html/frappe-bench/apps/frappe/frappe/core/doctype/scheduled_job_type/scheduled_job_type.py:
Site: fianzacredito.com
Scheduled Job Start: frappe.utils.global_search.sync_global_search for fianzacredito.com
[INFO] 2020-03-11 11:04:06,038 | /home/jhon/public_html/frappe-bench/apps/frappe/frappe/core/doctype/scheduled_job_type/scheduled_job_type.py:
Site: fianzacredito.com
Scheduled Job Complete: frappe.utils.global_search.sync_global_search for fianzacredito.com
[INFO] 2020-03-11 11:04:06,069 | /home/jhon/public_html/frappe-bench/apps/frappe/frappe/core/doctype/scheduled_job_type/scheduled_job_type.py:
Site: fianzacredito.com
Scheduled Job Start: frappe.integrations.doctype.razorpay_settings.razorpay_settings.capture_payment for fianzacredito.com
[INFO] 2020-03-11 11:04:06,091 | /home/jhon/public_html/frappe-bench/apps/frappe/frappe/core/doctype/scheduled_job_type/scheduled_job_type.py:
Site: fianzacredito.com
Scheduled Job Complete: frappe.integrations.doctype.razorpay_settings.razorpay_settings.capture_payment for fianzacredito.com
[INFO] 2020-03-11 11:04:06,122 | /home/jhon/public_html/frappe-bench/apps/frappe/frappe/core/doctype/scheduled_job_type/scheduled_job_type.py:
Site: fianzacredito.com
Scheduled Job Start: frappe.email.doctype.email_account.email_account.notify_unreplied for fianzacredito.com
[INFO] 2020-03-11 11:04:06,165 | /home/jhon/public_html/frappe-bench/apps/frappe/frappe/core/doctype/scheduled_job_type/scheduled_job_type.py:
Site: fianzacredito.com
Scheduled Job Complete: frappe.email.doctype.email_account.email_account.notify_unreplied for fianzacredito.com
[INFO] 2020-03-11 11:04:06,199 | /home/jhon/public_html/frappe-bench/apps/frappe/frappe/core/doctype/scheduled_job_type/scheduled_job_type.py:
Site: fianzacredito.com
Scheduled Job Start: frappe.email.doctype.email_account.email_account.pull for fianzacredito.com
[INFO] 2020-03-11 11:04:06,242 | /home/jhon/public_html/frappe-bench/apps/frappe/frappe/core/doctype/scheduled_job_type/scheduled_job_type.py:
Site: fianzacredito.com
Scheduled Job Complete: frappe.email.doctype.email_account.email_account.pull for fianzacredito.com
[INFO] 2020-03-11 11:04:06,272 | /home/jhon/public_html/frappe-bench/apps/frappe/frappe/core/doctype/scheduled_job_type/scheduled_job_type.py:
Site: fianzacredito.com
Scheduled Job Start: frappe.email.queue.flush for fianzacredito.com
[INFO] 2020-03-11 11:04:06,302 | /home/jhon/public_html/frappe-bench/apps/frappe/frappe/core/doctype/scheduled_job_type/scheduled_job_type.py:
Site: fianzacredito.com
Scheduled Job Complete: frappe.email.queue.flush for fianzacredito.com
[DEBUG] 2020-03-11 11:05:06,157 | /home/jhon/public_html/frappe-bench/apps/frappe/frappe/utils/scheduler.py:
Site: fianzacredito.com
Queued events for site fianzacredito.com
[DEBUG] 2020-03-11 11:06:06,304 | /home/jhon/public_html/frappe-bench/apps/frappe/frappe/utils/scheduler.py:
Site: fianzacredito.com
Queued events for site fianzacredito.com
[DEBUG] 2020-03-11 11:07:06,613 | /home/jhon/public_html/frappe-bench/apps/frappe/frappe/utils/scheduler.py:
Site: fianzacredito.com
Queued events for site fianzacredito.com
[DEBUG] 2020-03-11 11:08:06,808 | /home/jhon/public_html/frappe-bench/apps/frappe/frappe/utils/scheduler.py:
Site: fianzacredito.com
Queued events for site fianzacredito.com
[INFO] 2020-03-11 11:08:06,815 | /home/jhon/public_html/frappe-bench/apps/frappe/frappe/core/doctype/scheduled_job_type/scheduled_job_type.py:
Site: fianzacredito.com
Scheduled Job Start: frappe.monitor.flush for fianzacredito.com
[INFO] 2020-03-11 11:08:06,866 | /home/jhon/public_html/frappe-bench/apps/frappe/frappe/core/doctype/scheduled_job_type/scheduled_job_type.py:
Site: fianzacredito.com
Scheduled Job Complete: frappe.monitor.flush for fianzacredito.com
[INFO] 2020-03-11 11:08:06,898 | /home/jhon/public_html/frappe-bench/apps/frappe/frappe/core/doctype/scheduled_job_type/scheduled_job_type.py:
Site: fianzacredito.com
Scheduled Job Start: frappe.utils.global_search.sync_global_search for fianzacredito.com
[INFO] 2020-03-11 11:08:06,915 | /home/jhon/public_html/frappe-bench/apps/frappe/frappe/core/doctype/scheduled_job_type/scheduled_job_type.py:
Site: fianzacredito.com
Scheduled Job Complete: frappe.utils.global_search.sync_global_search for fianzacredito.com
[INFO] 2020-03-11 11:08:06,947 | /home/jhon/public_html/frappe-bench/apps/frappe/frappe/core/doctype/scheduled_job_type/scheduled_job_type.py:
Site: fianzacredito.com
Scheduled Job Start: frappe.integrations.doctype.razorpay_settings.razorpay_settings.capture_payment for fianzacredito.com
[INFO] 2020-03-11 11:08:06,993 | /home/jhon/public_html/frappe-bench/apps/frappe/frappe/core/doctype/scheduled_job_type/scheduled_job_type.py:
Site: fianzacredito.com
Scheduled Job Complete: frappe.integrations.doctype.razorpay_settings.razorpay_settings.capture_payment for fianzacredito.com
[INFO] 2020-03-11 11:08:07,025 | /home/jhon/public_html/frappe-bench/apps/frappe/frappe/core/doctype/scheduled_job_type/scheduled_job_type.py:
Site: fianzacredito.com
Scheduled Job Start: frappe.email.doctype.email_account.email_account.notify_unreplied for fianzacredito.com
[INFO] 2020-03-11 11:08:07,092 | /home/jhon/public_html/frappe-bench/apps/frappe/frappe/core/doctype/scheduled_job_type/scheduled_job_type.py:
Site: fianzacredito.com
Scheduled Job Complete: frappe.email.doctype.email_account.email_account.notify_unreplied for fianzacredito.com
[INFO] 2020-03-11 11:08:07,124 | /home/jhon/public_html/frappe-bench/apps/frappe/frappe/core/doctype/scheduled_job_type/scheduled_job_type.py:
Site: fianzacredito.com
Scheduled Job Start: frappe.email.doctype.email_account.email_account.pull for fianzacredito.com
[INFO] 2020-03-11 11:08:07,189 | /home/jhon/public_html/frappe-bench/apps/frappe/frappe/core/doctype/scheduled_job_type/scheduled_job_type.py:
Site: fianzacredito.com
Scheduled Job Complete: frappe.email.doctype.email_account.email_account.pull for fianzacredito.com
[INFO] 2020-03-11 11:08:07,221 | /home/jhon/public_html/frappe-bench/apps/frappe/frappe/core/doctype/scheduled_job_type/scheduled_job_type.py:
Site: fianzacredito.com
Scheduled Job Start: frappe.email.queue.flush for fianzacredito.com
[INFO] 2020-03-11 11:08:07,257 | /home/jhon/public_html/frappe-bench/apps/frappe/frappe/core/doctype/scheduled_job_type/scheduled_job_type.py:
Site: fianzacredito.com
Scheduled Job Complete: frappe.email.queue.flush for fianzacredito.com
[DEBUG] 2020-03-11 11:09:06,970 | /home/jhon/public_html/frappe-bench/apps/frappe/frappe/utils/scheduler.py:
Site: fianzacredito.com
Queued events for site fianzacredito.com
[DEBUG] 2020-03-11 11:10:07,182 | /home/jhon/public_html/frappe-bench/apps/frappe/frappe/utils/scheduler.py:
Site: fianzacredito.com
Queued events for site fianzacredito.com
[DEBUG] 2020-03-11 11:11:07,406 | /home/jhon/public_html/frappe-bench/apps/frappe/frappe/utils/scheduler.py:
Site: fianzacredito.com
Queued events for site fianzacredito.com
[DEBUG] 2020-03-11 11:12:07,593 | /home/jhon/public_html/frappe-bench/apps/frappe/frappe/utils/scheduler.py:
Site: fianzacredito.com
Queued events for site fianzacredito.com
[INFO] 2020-03-11 11:12:07,603 | /home/jhon/public_html/frappe-bench/apps/frappe/frappe/core/doctype/scheduled_job_type/scheduled_job_type.py:
Site: fianzacredito.com
Scheduled Job Start: frappe.monitor.flush for fianzacredito.com
[INFO] 2020-03-11 11:12:07,621 | /home/jhon/public_html/frappe-bench/apps/frappe/frappe/core/doctype/scheduled_job_type/scheduled_job_type.py:
Site: fianzacredito.com
Scheduled Job Complete: frappe.monitor.flush for fianzacredito.com
[INFO] 2020-03-11 11:12:07,653 | /home/jhon/public_html/frappe-bench/apps/frappe/frappe/core/doctype/scheduled_job_type/scheduled_job_type.py:
Site: fianzacredito.com
Scheduled Job Start: frappe.utils.global_search.sync_global_search for fianzacredito.com
[INFO] 2020-03-11 11:12:07,670 | /home/jhon/public_html/frappe-bench/apps/frappe/frappe/core/doctype/scheduled_job_type/scheduled_job_type.py:
Site: fianzacredito.com
Scheduled Job Complete: frappe.utils.global_search.sync_global_search for fianzacredito.com
[INFO] 2020-03-11 11:12:07,702 | /home/jhon/public_html/frappe-bench/apps/frappe/frappe/core/doctype/scheduled_job_type/scheduled_job_type.py:
Site: fianzacredito.com
Scheduled Job Start: frappe.integrations.doctype.razorpay_settings.razorpay_settings.capture_payment for fianzacredito.com
[INFO] 2020-03-11 11:12:07,723 | /home/jhon/public_html/frappe-bench/apps/frappe/frappe/core/doctype/scheduled_job_type/scheduled_job_type.py:
Site: fianzacredito.com
Scheduled Job Complete: frappe.integrations.doctype.razorpay_settings.razorpay_settings.capture_payment for fianzacredito.com
[INFO] 2020-03-11 11:12:07,752 | /home/jhon/public_html/frappe-bench/apps/frappe/frappe/core/doctype/scheduled_job_type/scheduled_job_type.py:
Site: fianzacredito.com
Scheduled Job Start: frappe.email.doctype.email_account.email_account.notify_unreplied for fianzacredito.com
[INFO] 2020-03-11 11:12:07,812 | /home/jhon/public_html/frappe-bench/apps/frappe/frappe/core/doctype/scheduled_job_type/scheduled_job_type.py:
Site: fianzacredito.com
Scheduled Job Complete: frappe.email.doctype.email_account.email_account.notify_unreplied for fianzacredito.com
[INFO] 2020-03-11 11:12:07,844 | /home/jhon/public_html/frappe-bench/apps/frappe/frappe/core/doctype/scheduled_job_type/scheduled_job_type.py:
Site: fianzacredito.com
Scheduled Job Start: frappe.email.doctype.email_account.email_account.pull for fianzacredito.com
[INFO] 2020-03-11 11:12:07,891 | /home/jhon/public_html/frappe-bench/apps/frappe/frappe/core/doctype/scheduled_job_type/scheduled_job_type.py:
Site: fianzacredito.com
Scheduled Job Complete: frappe.email.doctype.email_account.email_account.pull for fianzacredito.com
[INFO] 2020-03-11 11:12:07,923 | /home/jhon/public_html/frappe-bench/apps/frappe/frappe/core/doctype/scheduled_job_type/scheduled_job_type.py:
Site: fianzacredito.com
Scheduled Job Start: frappe.email.queue.flush for fianzacredito.com
[INFO] 2020-03-11 11:12:07,953 | /home/jhon/public_html/frappe-bench/apps/frappe/frappe/core/doctype/scheduled_job_type/scheduled_job_type.py:
Site: fianzacredito.com
Scheduled Job Complete: frappe.email.queue.flush for fianzacredito.com
[DEBUG] 2020-03-11 11:13:07,761 | /home/jhon/public_html/frappe-bench/apps/frappe/frappe/utils/scheduler.py:
Site: fianzacredito.com
Queued events for site fianzacredito.com
[DEBUG] 2020-03-11 11:14:07,923 | /home/jhon/public_html/frappe-bench/apps/frappe/frappe/utils/scheduler.py:
Site: fianzacredito.com
Queued events for site fianzacredito.com
[DEBUG] 2020-03-11 11:15:08,102 | /home/jhon/public_html/frappe-bench/apps/frappe/frappe/utils/scheduler.py:
Site: fianzacredito.com
Queued events for site fianzacredito.com
[INFO] 2020-03-11 11:15:08,127 | /home/jhon/public_html/frappe-bench/apps/frappe/frappe/core/doctype/scheduled_job_type/scheduled_job_type.py:
Site: fianzacredito.com
Scheduled Job Start: frappe.twofactor.delete_all_barcodes_for_users for fianzacredito.com
[INFO] 2020-03-11 11:15:08,229 | /home/jhon/public_html/frappe-bench/apps/frappe/frappe/core/doctype/scheduled_job_type/scheduled_job_type.py:
Site: fianzacredito.com
Scheduled Job Complete: frappe.twofactor.delete_all_barcodes_for_users for fianzacredito.com
[INFO] 2020-03-11 11:15:08,268 | /home/jhon/public_html/frappe-bench/apps/frappe/frappe/core/doctype/scheduled_job_type/scheduled_job_type.py:
Site: fianzacredito.com
Scheduled Job Start: frappe.website.doctype.web_page.web_page.check_publish_status for fianzacredito.com
[INFO] 2020-03-11 11:15:08,330 | /home/jhon/public_html/frappe-bench/apps/frappe/frappe/core/doctype/scheduled_job_type/scheduled_job_type.py:
Site: fianzacredito.com
Scheduled Job Complete: frappe.website.doctype.web_page.web_page.check_publish_status for fianzacredito.com
[INFO] 2020-03-11 11:15:08,369 | /home/jhon/public_html/frappe-bench/apps/frappe/frappe/core/doctype/scheduled_job_type/scheduled_job_type.py:
Site: fianzacredito.com
Scheduled Job Start: frappe.oauth.delete_oauth2_data for fianzacredito.com
[INFO] 2020-03-11 11:15:08,463 | /home/jhon/public_html/frappe-bench/apps/frappe/frappe/core/doctype/scheduled_job_type/scheduled_job_type.py:
Site: fianzacredito.com
Scheduled Job Complete: frappe.oauth.delete_oauth2_data for fianzacredito.com
[DEBUG] 2020-03-11 11:16:08,274 | /home/jhon/public_html/frappe-bench/apps/frappe/frappe/utils/scheduler.py:
Site: fianzacredito.com
Queued events for site fianzacredito.com
[INFO] 2020-03-11 11:16:08,284 | /home/jhon/public_html/frappe-bench/apps/frappe/frappe/core/doctype/scheduled_job_type/scheduled_job_type.py:
Site: fianzacredito.com
Scheduled Job Start: frappe.monitor.flush for fianzacredito.com
[INFO] 2020-03-11 11:16:08,301 | /home/jhon/public_html/frappe-bench/apps/frappe/frappe/core/doctype/scheduled_job_type/scheduled_job_type.py:
Site: fianzacredito.com
Scheduled Job Complete: frappe.monitor.flush for fianzacredito.com
[INFO] 2020-03-11 11:16:08,333 | /home/jhon/public_html/frappe-bench/apps/frappe/frappe/core/doctype/scheduled_job_type/scheduled_job_type.py:
Site: fianzacredito.com
Scheduled Job Start: frappe.utils.global_search.sync_global_search for fianzacredito.com
[INFO] 2020-03-11 11:16:08,350 | /home/jhon/public_html/frappe-bench/apps/frappe/frappe/core/doctype/scheduled_job_type/scheduled_job_type.py:
Site: fianzacredito.com
Scheduled Job Complete: frappe.utils.global_search.sync_global_search for fianzacredito.com
[INFO] 2020-03-11 11:16:08,382 | /home/jhon/public_html/frappe-bench/apps/frappe/frappe/core/doctype/scheduled_job_type/scheduled_job_type.py:
Site: fianzacredito.com
Scheduled Job Start: frappe.integrations.doctype.razorpay_settings.razorpay_settings.capture_payment for fianzacredito.com
[INFO] 2020-03-11 11:16:08,403 | /home/jhon/public_html/frappe-bench/apps/frappe/frappe/core/doctype/scheduled_job_type/scheduled_job_type.py:
Site: fianzacredito.com
Scheduled Job Complete: frappe.integrations.doctype.razorpay_settings.razorpay_settings.capture_payment for fianzacredito.com
[INFO] 2020-03-11 11:16:08,434 | /home/jhon/public_html/frappe-bench/apps/frappe/frappe/core/doctype/scheduled_job_type/scheduled_job_type.py:
Site: fianzacredito.com
Scheduled Job Start: frappe.email.doctype.email_account.email_account.notify_unreplied for fianzacredito.com
[INFO] 2020-03-11 11:16:08,475 | /home/jhon/public_html/frappe-bench/apps/frappe/frappe/core/doctype/scheduled_job_type/scheduled_job_type.py:
Site: fianzacredito.com
Scheduled Job Complete: frappe.email.doctype.email_account.email_account.notify_unreplied for fianzacredito.com
[INFO] 2020-03-11 11:16:08,504 | /home/jhon/public_html/frappe-bench/apps/frappe/frappe/core/doctype/scheduled_job_type/scheduled_job_type.py:
Site: fianzacredito.com
Scheduled Job Start: frappe.email.doctype.email_account.email_account.pull for fianzacredito.com
[INFO] 2020-03-11 11:16:08,549 | /home/jhon/public_html/frappe-bench/apps/frappe/frappe/core/doctype/scheduled_job_type/scheduled_job_type.py:
Site: fianzacredito.com
Scheduled Job Complete: frappe.email.doctype.email_account.email_account.pull for fianzacredito.com
[INFO] 2020-03-11 11:16:08,580 | /home/jhon/public_html/frappe-bench/apps/frappe/frappe/core/doctype/scheduled_job_type/scheduled_job_type.py:
Site: fianzacredito.com
Scheduled Job Start: frappe.email.queue.flush for fianzacredito.com
[INFO] 2020-03-11 11:16:08,613 | /home/jhon/public_html/frappe-bench/apps/frappe/frappe/core/doctype/scheduled_job_type/scheduled_job_type.py:
Site: fianzacredito.com
Scheduled Job Complete: frappe.email.queue.flush for fianzacredito.com
[DEBUG] 2020-03-11 11:17:08,440 | /home/jhon/public_html/frappe-bench/apps/frappe/frappe/utils/scheduler.py:
Site: fianzacredito.com
Queued events for site fianzacredito.com
[DEBUG] 2020-03-11 11:18:08,616 | /home/jhon/public_html/frappe-bench/apps/frappe/frappe/utils/scheduler.py:
Site: fianzacredito.com
Queued events for site fianzacredito.com
[DEBUG] 2020-03-11 11:19:08,779 | /home/jhon/public_html/frappe-bench/apps/frappe/frappe/utils/scheduler.py:
Site: fianzacredito.com
Queued events for site fianzacredito.com
[DEBUG] 2020-03-11 11:20:08,962 | /home/jhon/public_html/frappe-bench/apps/frappe/frappe/utils/scheduler.py:
Site: fianzacredito.com
Queued events for site fianzacredito.com
[INFO] 2020-03-11 11:20:08,971 | /home/jhon/public_html/frappe-bench/apps/frappe/frappe/core/doctype/scheduled_job_type/scheduled_job_type.py:
Site: fianzacredito.com
Scheduled Job Start: frappe.monitor.flush for fianzacredito.com
[INFO] 2020-03-11 11:20:08,986 | /home/jhon/public_html/frappe-bench/apps/frappe/frappe/core/doctype/scheduled_job_type/scheduled_job_type.py:
Site: fianzacredito.com
Scheduled Job Complete: frappe.monitor.flush for fianzacredito.com
[INFO] 2020-03-11 11:20:09,019 | /home/jhon/public_html/frappe-bench/apps/frappe/frappe/core/doctype/scheduled_job_type/scheduled_job_type.py:
Site: fianzacredito.com
Scheduled Job Start: frappe.utils.global_search.sync_global_search for fianzacredito.com
[INFO] 2020-03-11 11:20:09,035 | /home/jhon/public_html/frappe-bench/apps/frappe/frappe/core/doctype/scheduled_job_type/scheduled_job_type.py:
Site: fianzacredito.com
Scheduled Job Complete: frappe.utils.global_search.sync_global_search for fianzacredito.com
[INFO] 2020-03-11 11:20:09,068 | /home/jhon/public_html/frappe-bench/apps/frappe/frappe/core/doctype/scheduled_job_type/scheduled_job_type.py:
Site: fianzacredito.com
Scheduled Job Start: frappe.integrations.doctype.razorpay_settings.razorpay_settings.capture_payment for fianzacredito.com
[INFO] 2020-03-11 11:20:09,089 | /home/jhon/public_html/frappe-bench/apps/frappe/frappe/core/doctype/scheduled_job_type/scheduled_job_type.py:
Site: fianzacredito.com
Scheduled Job Complete: frappe.integrations.doctype.razorpay_settings.razorpay_settings.capture_payment for fianzacredito.com
[INFO] 2020-03-11 11:20:09,120 | /home/jhon/public_html/frappe-bench/apps/frappe/frappe/core/doctype/scheduled_job_type/scheduled_job_type.py:
Site: fianzacredito.com
Scheduled Job Start: frappe.email.doctype.email_account.email_account.notify_unreplied for fianzacredito.com
[INFO] 2020-03-11 11:20:09,162 | /home/jhon/public_html/frappe-bench/apps/frappe/frappe/core/doctype/scheduled_job_type/scheduled_job_type.py:
Site: fianzacredito.com
Scheduled Job Complete: frappe.email.doctype.email_account.email_account.notify_unreplied for fianzacredito.com
[INFO] 2020-03-11 11:20:09,195 | /home/jhon/public_html/frappe-bench/apps/frappe/frappe/core/doctype/scheduled_job_type/scheduled_job_type.py:
Site: fianzacredito.com
Scheduled Job Start: frappe.email.doctype.email_account.email_account.pull for fianzacredito.com
[INFO] 2020-03-11 11:20:09,240 | /home/jhon/public_html/frappe-bench/apps/frappe/frappe/core/doctype/scheduled_job_type/scheduled_job_type.py:
Site: fianzacredito.com
Scheduled Job Complete: frappe.email.doctype.email_account.email_account.pull for fianzacredito.com
[INFO] 2020-03-11 11:20:09,270 | /home/jhon/public_html/frappe-bench/apps/frappe/frappe/core/doctype/scheduled_job_type/scheduled_job_type.py:
Site: fianzacredito.com
Scheduled Job Start: frappe.email.queue.flush for fianzacredito.com
[INFO] 2020-03-11 11:20:09,299 | /home/jhon/public_html/frappe-bench/apps/frappe/frappe/core/doctype/scheduled_job_type/scheduled_job_type.py:
Site: fianzacredito.com
Scheduled Job Complete: frappe.email.queue.flush for fianzacredito.com
[DEBUG] 2020-03-11 11:21:09,136 | /home/jhon/public_html/frappe-bench/apps/frappe/frappe/utils/scheduler.py:
Site: fianzacredito.com
Queued events for site fianzacredito.com
[DEBUG] 2020-03-11 11:22:09,374 | /home/jhon/public_html/frappe-bench/apps/frappe/frappe/utils/scheduler.py:
Site: fianzacredito.com
Queued events for site fianzacredito.com
[DEBUG] 2020-03-11 11:23:09,538 | /home/jhon/public_html/frappe-bench/apps/frappe/frappe/utils/scheduler.py:
Site: fianzacredito.com
Queued events for site fianzacredito.com
[DEBUG] 2020-03-11 11:24:09,720 | /home/jhon/public_html/frappe-bench/apps/frappe/frappe/utils/scheduler.py:
Site: fianzacredito.com
Queued events for site fianzacredito.com
[INFO] 2020-03-11 11:24:09,731 | /home/jhon/public_html/frappe-bench/apps/frappe/frappe/core/doctype/scheduled_job_type/scheduled_job_type.py:
Site: fianzacredito.com
Scheduled Job Start: frappe.monitor.flush for fianzacredito.com
[INFO] 2020-03-11 11:24:09,746 | /home/jhon/public_html/frappe-bench/apps/frappe/frappe/core/doctype/scheduled_job_type/scheduled_job_type.py:
Site: fianzacredito.com
Scheduled Job Complete: frappe.monitor.flush for fianzacredito.com
[INFO] 2020-03-11 11:24:09,776 | /home/jhon/public_html/frappe-bench/apps/frappe/frappe/core/doctype/scheduled_job_type/scheduled_job_type.py:
Site: fianzacredito.com
Scheduled Job Start: frappe.utils.global_search.sync_global_search for fianzacredito.com
[INFO] 2020-03-11 11:24:09,792 | /home/jhon/public_html/frappe-bench/apps/frappe/frappe/core/doctype/scheduled_job_type/scheduled_job_type.py:
Site: fianzacredito.com
Scheduled Job Complete: frappe.utils.global_search.sync_global_search for fianzacredito.com
[INFO] 2020-03-11 11:24:09,821 | /home/jhon/public_html/frappe-bench/apps/frappe/frappe/core/doctype/scheduled_job_type/scheduled_job_type.py:
Site: fianzacredito.com
Scheduled Job Start: frappe.integrations.doctype.razorpay_settings.razorpay_settings.capture_payment for fianzacredito.com
[INFO] 2020-03-11 11:24:09,841 | /home/jhon/public_html/frappe-bench/apps/frappe/frappe/core/doctype/scheduled_job_type/scheduled_job_type.py:
Site: fianzacredito.com
Scheduled Job Complete: frappe.integrations.doctype.razorpay_settings.razorpay_settings.capture_payment for fianzacredito.com
[INFO] 2020-03-11 11:24:09,871 | /home/jhon/public_html/frappe-bench/apps/frappe/frappe/core/doctype/scheduled_job_type/scheduled_job_type.py:
Site: fianzacredito.com
Scheduled Job Start: frappe.email.doctype.email_account.email_account.notify_unreplied for fianzacredito.com
[INFO] 2020-03-11 11:24:09,910 | /home/jhon/public_html/frappe-bench/apps/frappe/frappe/core/doctype/scheduled_job_type/scheduled_job_type.py:
Site: fianzacredito.com
Scheduled Job Complete: frappe.email.doctype.email_account.email_account.notify_unreplied for fianzacredito.com
[INFO] 2020-03-11 11:24:09,940 | /home/jhon/public_html/frappe-bench/apps/frappe/frappe/core/doctype/scheduled_job_type/scheduled_job_type.py:
Site: fianzacredito.com
Scheduled Job Start: frappe.email.doctype.email_account.email_account.pull for fianzacredito.com
[INFO] 2020-03-11 11:24:09,984 | /home/jhon/public_html/frappe-bench/apps/frappe/frappe/core/doctype/scheduled_job_type/scheduled_job_type.py:
Site: fianzacredito.com
Scheduled Job Complete: frappe.email.doctype.email_account.email_account.pull for fianzacredito.com
[INFO] 2020-03-11 11:24:10,013 | /home/jhon/public_html/frappe-bench/apps/frappe/frappe/core/doctype/scheduled_job_type/scheduled_job_type.py:
Site: fianzacredito.com
Scheduled Job Start: frappe.email.queue.flush for fianzacredito.com
[INFO] 2020-03-11 11:24:10,041 | /home/jhon/public_html/frappe-bench/apps/frappe/frappe/core/doctype/scheduled_job_type/scheduled_job_type.py:
Site: fianzacredito.com
Scheduled Job Complete: frappe.email.queue.flush for fianzacredito.com
[DEBUG] 2020-03-11 11:25:09,897 | /home/jhon/public_html/frappe-bench/apps/frappe/frappe/utils/scheduler.py:
Site: fianzacredito.com
Queued events for site fianzacredito.com
[DEBUG] 2020-03-11 11:26:10,037 | /home/jhon/public_html/frappe-bench/apps/frappe/frappe/utils/scheduler.py:
Site: fianzacredito.com
Queued events for site fianzacredito.com
[INFO] 2020-03-11 12:01:58,744 | /home/jhon/public_html/frappe-bench/apps/frappe/frappe/core/doctype/scheduled_job_type/scheduled_job_type.py:
Site: fianzacredito.com
Scheduled Job Start: frappe.integrations.doctype.google_calendar.google_calendar.sync for fianzacredito.com
[DEBUG] 2020-03-11 12:01:58,777 | /home/jhon/public_html/frappe-bench/apps/frappe/frappe/utils/scheduler.py:
Site: fianzacredito.com
Queued events for site fianzacredito.com
[INFO] 2020-03-11 12:01:58,930 | /home/jhon/public_html/frappe-bench/apps/frappe/frappe/core/doctype/scheduled_job_type/scheduled_job_type.py:
Site: fianzacredito.com
Scheduled Job Complete: frappe.integrations.doctype.google_calendar.google_calendar.sync for fianzacredito.com
[INFO] 2020-03-11 12:01:58,970 | /home/jhon/public_html/frappe-bench/apps/frappe/frappe/core/doctype/scheduled_job_type/scheduled_job_type.py:
Site: fianzacredito.com
Scheduled Job Start: frappe.desk.form.document_follow.send_hourly_updates for fianzacredito.com
[INFO] 2020-03-11 12:01:59,032 | /home/jhon/public_html/frappe-bench/apps/frappe/frappe/core/doctype/scheduled_job_type/scheduled_job_type.py:
Site: fianzacredito.com
Scheduled Job Complete: frappe.desk.form.document_follow.send_hourly_updates for fianzacredito.com
[INFO] 2020-03-11 12:01:59,070 | /home/jhon/public_html/frappe-bench/apps/frappe/frappe/core/doctype/scheduled_job_type/scheduled_job_type.py:
Site: fianzacredito.com
Scheduled Job Start: frappe.deferred_insert.save_to_db for fianzacredito.com
[INFO] 2020-03-11 12:01:59,135 | /home/jhon/public_html/frappe-bench/apps/frappe/frappe/core/doctype/scheduled_job_type/scheduled_job_type.py:
Site: fianzacredito.com
Scheduled Job Complete: frappe.deferred_insert.save_to_db for fianzacredito.com
[INFO] 2020-03-11 12:01:59,177 | /home/jhon/public_html/frappe-bench/apps/frappe/frappe/core/doctype/scheduled_job_type/scheduled_job_type.py:
Site: fianzacredito.com
Scheduled Job Start: frappe.desk.page.backups.backups.delete_downloadable_backups for fianzacredito.com
[INFO] 2020-03-11 12:01:59,240 | /home/jhon/public_html/frappe-bench/apps/frappe/frappe/core/doctype/scheduled_job_type/scheduled_job_type.py:
Site: fianzacredito.com
Scheduled Job Complete: frappe.desk.page.backups.backups.delete_downloadable_backups for fianzacredito.com
[INFO] 2020-03-11 12:01:59,278 | /home/jhon/public_html/frappe-bench/apps/frappe/frappe/core/doctype/scheduled_job_type/scheduled_job_type.py:
Site: fianzacredito.com
Scheduled Job Start: frappe.utils.error.collect_error_snapshots for fianzacredito.com
[INFO] 2020-03-11 12:01:59,347 | /home/jhon/public_html/frappe-bench/apps/frappe/frappe/core/doctype/scheduled_job_type/scheduled_job_type.py:
Site: fianzacredito.com
Scheduled Job Complete: frappe.utils.error.collect_error_snapshots for fianzacredito.com
[INFO] 2020-03-11 12:01:59,389 | /home/jhon/public_html/frappe-bench/apps/frappe/frappe/core/doctype/scheduled_job_type/scheduled_job_type.py:
Site: fianzacredito.com
Scheduled Job Start: frappe.model.utils.user_settings.sync_user_settings for fianzacredito.com
[INFO] 2020-03-11 12:01:59,450 | /home/jhon/public_html/frappe-bench/apps/frappe/frappe/core/doctype/scheduled_job_type/scheduled_job_type.py:
Site: fianzacredito.com
Scheduled Job Complete: frappe.model.utils.user_settings.sync_user_settings for fianzacredito.com
[INFO] 2020-03-11 12:01:59,495 | /home/jhon/public_html/frappe-bench/apps/frappe/frappe/core/doctype/scheduled_job_type/scheduled_job_type.py:
Site: fianzacredito.com
Scheduled Job Start: frappe.model.utils.link_count.update_link_count for fianzacredito.com
[INFO] 2020-03-11 12:01:59,562 | /home/jhon/public_html/frappe-bench/apps/frappe/frappe/core/doctype/scheduled_job_type/scheduled_job_type.py:
Site: fianzacredito.com
Scheduled Job Complete: frappe.model.utils.link_count.update_link_count for fianzacredito.com
[INFO] 2020-03-11 12:01:59,608 | /home/jhon/public_html/frappe-bench/apps/frappe/frappe/core/doctype/scheduled_job_type/scheduled_job_type.py:
Site: fianzacredito.com
Scheduled Job Start: frappe.monitor.flush for fianzacredito.com
[INFO] 2020-03-11 12:01:59,627 | /home/jhon/public_html/frappe-bench/apps/frappe/frappe/core/doctype/scheduled_job_type/scheduled_job_type.py:
Site: fianzacredito.com
Scheduled Job Complete: frappe.monitor.flush for fianzacredito.com
[INFO] 2020-03-11 12:01:59,658 | /home/jhon/public_html/frappe-bench/apps/frappe/frappe/core/doctype/scheduled_job_type/scheduled_job_type.py:
Site: fianzacredito.com
Scheduled Job Start: frappe.utils.global_search.sync_global_search for fianzacredito.com
[INFO] 2020-03-11 12:01:59,677 | /home/jhon/public_html/frappe-bench/apps/frappe/frappe/core/doctype/scheduled_job_type/scheduled_job_type.py:
Site: fianzacredito.com
Scheduled Job Complete: frappe.utils.global_search.sync_global_search for fianzacredito.com
[INFO] 2020-03-11 12:01:59,708 | /home/jhon/public_html/frappe-bench/apps/frappe/frappe/core/doctype/scheduled_job_type/scheduled_job_type.py:
Site: fianzacredito.com
Scheduled Job Start: frappe.integrations.doctype.razorpay_settings.razorpay_settings.capture_payment for fianzacredito.com
[INFO] 2020-03-11 12:01:59,757 | /home/jhon/public_html/frappe-bench/apps/frappe/frappe/core/doctype/scheduled_job_type/scheduled_job_type.py:
Site: fianzacredito.com
Scheduled Job Complete: frappe.integrations.doctype.razorpay_settings.razorpay_settings.capture_payment for fianzacredito.com
[INFO] 2020-03-11 12:01:59,790 | /home/jhon/public_html/frappe-bench/apps/frappe/frappe/core/doctype/scheduled_job_type/scheduled_job_type.py:
Site: fianzacredito.com
Scheduled Job Start: frappe.email.doctype.email_account.email_account.notify_unreplied for fianzacredito.com
[INFO] 2020-03-11 12:01:59,863 | /home/jhon/public_html/frappe-bench/apps/frappe/frappe/core/doctype/scheduled_job_type/scheduled_job_type.py:
Site: fianzacredito.com
Scheduled Job Complete: frappe.email.doctype.email_account.email_account.notify_unreplied for fianzacredito.com
[INFO] 2020-03-11 12:01:59,896 | /home/jhon/public_html/frappe-bench/apps/frappe/frappe/core/doctype/scheduled_job_type/scheduled_job_type.py:
Site: fianzacredito.com
Scheduled Job Start: frappe.email.doctype.email_account.email_account.pull for fianzacredito.com
[INFO] 2020-03-11 12:01:59,944 | /home/jhon/public_html/frappe-bench/apps/frappe/frappe/core/doctype/scheduled_job_type/scheduled_job_type.py:
Site: fianzacredito.com
Scheduled Job Complete: frappe.email.doctype.email_account.email_account.pull for fianzacredito.com
[INFO] 2020-03-11 12:01:59,989 | /home/jhon/public_html/frappe-bench/apps/frappe/frappe/core/doctype/scheduled_job_type/scheduled_job_type.py:
Site: fianzacredito.com
Scheduled Job Start: frappe.email.queue.flush for fianzacredito.com
[INFO] 2020-03-11 12:02:00,025 | /home/jhon/public_html/frappe-bench/apps/frappe/frappe/core/doctype/scheduled_job_type/scheduled_job_type.py:
Site: fianzacredito.com
Scheduled Job Complete: frappe.email.queue.flush for fianzacredito.com
[INFO] 2020-03-11 12:02:00,058 | /home/jhon/public_html/frappe-bench/apps/frappe/frappe/core/doctype/scheduled_job_type/scheduled_job_type.py:
Site: fianzacredito.com
Scheduled Job Start: frappe.twofactor.delete_all_barcodes_for_users for fianzacredito.com
[INFO] 2020-03-11 12:02:00,125 | /home/jhon/public_html/frappe-bench/apps/frappe/frappe/core/doctype/scheduled_job_type/scheduled_job_type.py:
Site: fianzacredito.com
Scheduled Job Complete: frappe.twofactor.delete_all_barcodes_for_users for fianzacredito.com
[INFO] 2020-03-11 12:02:00,170 | /home/jhon/public_html/frappe-bench/apps/frappe/frappe/core/doctype/scheduled_job_type/scheduled_job_type.py:
Site: fianzacredito.com
Scheduled Job Start: frappe.website.doctype.web_page.web_page.check_publish_status for fianzacredito.com
[INFO] 2020-03-11 12:02:00,246 | /home/jhon/public_html/frappe-bench/apps/frappe/frappe/core/doctype/scheduled_job_type/scheduled_job_type.py:
Site: fianzacredito.com
Scheduled Job Complete: frappe.website.doctype.web_page.web_page.check_publish_status for fianzacredito.com
[INFO] 2020-03-11 12:02:00,287 | /home/jhon/public_html/frappe-bench/apps/frappe/frappe/core/doctype/scheduled_job_type/scheduled_job_type.py:
Site: fianzacredito.com
Scheduled Job Start: frappe.oauth.delete_oauth2_data for fianzacredito.com
[INFO] 2020-03-11 12:02:00,389 | /home/jhon/public_html/frappe-bench/apps/frappe/frappe/core/doctype/scheduled_job_type/scheduled_job_type.py:
Site: fianzacredito.com
Scheduled Job Complete: frappe.oauth.delete_oauth2_data for fianzacredito.com
[DEBUG] 2020-03-11 12:02:58,915 | /home/jhon/public_html/frappe-bench/apps/frappe/frappe/utils/scheduler.py:
Site: fianzacredito.com
Queued events for site fianzacredito.com
[DEBUG] 2020-03-11 12:03:59,137 | /home/jhon/public_html/frappe-bench/apps/frappe/frappe/utils/scheduler.py:
Site: fianzacredito.com
Queued events for site fianzacredito.com
[DEBUG] 2020-03-11 12:05:59,412 | /home/jhon/public_html/frappe-bench/apps/frappe/frappe/utils/scheduler.py:
Site: fianzacredito.com
Queued events for site fianzacredito.com
[INFO] 2020-03-11 12:05:59,424 | /home/jhon/public_html/frappe-bench/apps/frappe/frappe/core/doctype/scheduled_job_type/scheduled_job_type.py:
Site: fianzacredito.com
Scheduled Job Start: frappe.monitor.flush for fianzacredito.com
[INFO] 2020-03-11 12:05:59,477 | /home/jhon/public_html/frappe-bench/apps/frappe/frappe/core/doctype/scheduled_job_type/scheduled_job_type.py:
Site: fianzacredito.com
Scheduled Job Complete: frappe.monitor.flush for fianzacredito.com
[INFO] 2020-03-11 12:05:59,514 | /home/jhon/public_html/frappe-bench/apps/frappe/frappe/core/doctype/scheduled_job_type/scheduled_job_type.py:
Site: fianzacredito.com
Scheduled Job Start: frappe.utils.global_search.sync_global_search for fianzacredito.com
[INFO] 2020-03-11 12:05:59,533 | /home/jhon/public_html/frappe-bench/apps/frappe/frappe/core/doctype/scheduled_job_type/scheduled_job_type.py:
Site: fianzacredito.com
Scheduled Job Complete: frappe.utils.global_search.sync_global_search for fianzacredito.com
[INFO] 2020-03-11 12:05:59,571 | /home/jhon/public_html/frappe-bench/apps/frappe/frappe/core/doctype/scheduled_job_type/scheduled_job_type.py:
Site: fianzacredito.com
Scheduled Job Start: frappe.integrations.doctype.razorpay_settings.razorpay_settings.capture_payment for fianzacredito.com
[INFO] 2020-03-11 12:05:59,627 | /home/jhon/public_html/frappe-bench/apps/frappe/frappe/core/doctype/scheduled_job_type/scheduled_job_type.py:
Site: fianzacredito.com
Scheduled Job Complete: frappe.integrations.doctype.razorpay_settings.razorpay_settings.capture_payment for fianzacredito.com
[INFO] 2020-03-11 12:05:59,663 | /home/jhon/public_html/frappe-bench/apps/frappe/frappe/core/doctype/scheduled_job_type/scheduled_job_type.py:
Site: fianzacredito.com
Scheduled Job Start: frappe.email.doctype.email_account.email_account.notify_unreplied for fianzacredito.com
[INFO] 2020-03-11 12:05:59,736 | /home/jhon/public_html/frappe-bench/apps/frappe/frappe/core/doctype/scheduled_job_type/scheduled_job_type.py:
Site: fianzacredito.com
Scheduled Job Complete: frappe.email.doctype.email_account.email_account.notify_unreplied for fianzacredito.com
[INFO] 2020-03-11 12:05:59,773 | /home/jhon/public_html/frappe-bench/apps/frappe/frappe/core/doctype/scheduled_job_type/scheduled_job_type.py:
Site: fianzacredito.com
Scheduled Job Start: frappe.email.doctype.email_account.email_account.pull for fianzacredito.com
[INFO] 2020-03-11 12:05:59,850 | /home/jhon/public_html/frappe-bench/apps/frappe/frappe/core/doctype/scheduled_job_type/scheduled_job_type.py:
Site: fianzacredito.com
Scheduled Job Complete: frappe.email.doctype.email_account.email_account.pull for fianzacredito.com
[INFO] 2020-03-11 12:05:59,889 | /home/jhon/public_html/frappe-bench/apps/frappe/frappe/core/doctype/scheduled_job_type/scheduled_job_type.py:
Site: fianzacredito.com
Scheduled Job Start: frappe.email.queue.flush for fianzacredito.com
[INFO] 2020-03-11 12:05:59,921 | /home/jhon/public_html/frappe-bench/apps/frappe/frappe/core/doctype/scheduled_job_type/scheduled_job_type.py:
Site: fianzacredito.com
Scheduled Job Complete: frappe.email.queue.flush for fianzacredito.com
[DEBUG] 2020-03-11 12:06:59,565 | /home/jhon/public_html/frappe-bench/apps/frappe/frappe/utils/scheduler.py:
Site: fianzacredito.com
Queued events for site fianzacredito.com
[DEBUG] 2020-03-11 12:07:59,759 | /home/jhon/public_html/frappe-bench/apps/frappe/frappe/utils/scheduler.py:
Site: fianzacredito.com
Queued events for site fianzacredito.com
[DEBUG] 2020-03-11 12:08:59,931 | /home/jhon/public_html/frappe-bench/apps/frappe/frappe/utils/scheduler.py:
Site: fianzacredito.com
Queued events for site fianzacredito.com
[INFO] 2020-03-11 12:08:59,941 | /home/jhon/public_html/frappe-bench/apps/frappe/frappe/core/doctype/scheduled_job_type/scheduled_job_type.py:
Site: fianzacredito.com
Scheduled Job Start: frappe.monitor.flush for fianzacredito.com
[INFO] 2020-03-11 12:08:59,956 | /home/jhon/public_html/frappe-bench/apps/frappe/frappe/core/doctype/scheduled_job_type/scheduled_job_type.py:
Site: fianzacredito.com
Scheduled Job Complete: frappe.monitor.flush for fianzacredito.com
[INFO] 2020-03-11 12:08:59,986 | /home/jhon/public_html/frappe-bench/apps/frappe/frappe/core/doctype/scheduled_job_type/scheduled_job_type.py:
Site: fianzacredito.com
Scheduled Job Start: frappe.utils.global_search.sync_global_search for fianzacredito.com
[INFO] 2020-03-11 12:09:00,003 | /home/jhon/public_html/frappe-bench/apps/frappe/frappe/core/doctype/scheduled_job_type/scheduled_job_type.py:
Site: fianzacredito.com
Scheduled Job Complete: frappe.utils.global_search.sync_global_search for fianzacredito.com
[INFO] 2020-03-11 12:09:00,033 | /home/jhon/public_html/frappe-bench/apps/frappe/frappe/core/doctype/scheduled_job_type/scheduled_job_type.py:
Site: fianzacredito.com
Scheduled Job Start: frappe.integrations.doctype.razorpay_settings.razorpay_settings.capture_payment for fianzacredito.com
[INFO] 2020-03-11 12:09:00,052 | /home/jhon/public_html/frappe-bench/apps/frappe/frappe/core/doctype/scheduled_job_type/scheduled_job_type.py:
Site: fianzacredito.com
Scheduled Job Complete: frappe.integrations.doctype.razorpay_settings.razorpay_settings.capture_payment for fianzacredito.com
[INFO] 2020-03-11 12:09:00,082 | /home/jhon/public_html/frappe-bench/apps/frappe/frappe/core/doctype/scheduled_job_type/scheduled_job_type.py:
Site: fianzacredito.com
Scheduled Job Start: frappe.email.doctype.email_account.email_account.notify_unreplied for fianzacredito.com
[INFO] 2020-03-11 12:09:00,121 | /home/jhon/public_html/frappe-bench/apps/frappe/frappe/core/doctype/scheduled_job_type/scheduled_job_type.py:
Site: fianzacredito.com
Scheduled Job Complete: frappe.email.doctype.email_account.email_account.notify_unreplied for fianzacredito.com
[INFO] 2020-03-11 12:09:00,151 | /home/jhon/public_html/frappe-bench/apps/frappe/frappe/core/doctype/scheduled_job_type/scheduled_job_type.py:
Site: fianzacredito.com
Scheduled Job Start: frappe.email.doctype.email_account.email_account.pull for fianzacredito.com
[INFO] 2020-03-11 12:09:00,196 | /home/jhon/public_html/frappe-bench/apps/frappe/frappe/core/doctype/scheduled_job_type/scheduled_job_type.py:
Site: fianzacredito.com
Scheduled Job Complete: frappe.email.doctype.email_account.email_account.pull for fianzacredito.com
[INFO] 2020-03-11 12:09:00,226 | /home/jhon/public_html/frappe-bench/apps/frappe/frappe/core/doctype/scheduled_job_type/scheduled_job_type.py:
Site: fianzacredito.com
Scheduled Job Start: frappe.email.queue.flush for fianzacredito.com
[INFO] 2020-03-11 12:09:00,254 | /home/jhon/public_html/frappe-bench/apps/frappe/frappe/core/doctype/scheduled_job_type/scheduled_job_type.py:
Site: fianzacredito.com
Scheduled Job Complete: frappe.email.queue.flush for fianzacredito.com
[DEBUG] 2020-03-11 12:10:00,181 | /home/jhon/public_html/frappe-bench/apps/frappe/frappe/utils/scheduler.py:
Site: fianzacredito.com
Queued events for site fianzacredito.com
[DEBUG] 2020-03-11 12:11:00,352 | /home/jhon/public_html/frappe-bench/apps/frappe/frappe/utils/scheduler.py:
Site: fianzacredito.com
Queued events for site fianzacredito.com
[DEBUG] 2020-03-11 12:12:00,524 | /home/jhon/public_html/frappe-bench/apps/frappe/frappe/utils/scheduler.py:
Site: fianzacredito.com
Queued events for site fianzacredito.com
[INFO] 2020-03-11 12:12:00,534 | /home/jhon/public_html/frappe-bench/apps/frappe/frappe/core/doctype/scheduled_job_type/scheduled_job_type.py:
Site: fianzacredito.com
Scheduled Job Start: frappe.monitor.flush for fianzacredito.com
[INFO] 2020-03-11 12:12:00,550 | /home/jhon/public_html/frappe-bench/apps/frappe/frappe/core/doctype/scheduled_job_type/scheduled_job_type.py:
Site: fianzacredito.com
Scheduled Job Complete: frappe.monitor.flush for fianzacredito.com
[INFO] 2020-03-11 12:12:00,590 | /home/jhon/public_html/frappe-bench/apps/frappe/frappe/core/doctype/scheduled_job_type/scheduled_job_type.py:
Site: fianzacredito.com
Scheduled Job Start: frappe.utils.global_search.sync_global_search for fianzacredito.com
[INFO] 2020-03-11 12:12:00,607 | /home/jhon/public_html/frappe-bench/apps/frappe/frappe/core/doctype/scheduled_job_type/scheduled_job_type.py:
Site: fianzacredito.com
Scheduled Job Complete: frappe.utils.global_search.sync_global_search for fianzacredito.com
[INFO] 2020-03-11 12:12:00,639 | /home/jhon/public_html/frappe-bench/apps/frappe/frappe/core/doctype/scheduled_job_type/scheduled_job_type.py:
Site: fianzacredito.com
Scheduled Job Start: frappe.integrations.doctype.razorpay_settings.razorpay_settings.capture_payment for fianzacredito.com
[INFO] 2020-03-11 12:12:00,660 | /home/jhon/public_html/frappe-bench/apps/frappe/frappe/core/doctype/scheduled_job_type/scheduled_job_type.py:
Site: fianzacredito.com
Scheduled Job Complete: frappe.integrations.doctype.razorpay_settings.razorpay_settings.capture_payment for fianzacredito.com
[INFO] 2020-03-11 12:12:00,692 | /home/jhon/public_html/frappe-bench/apps/frappe/frappe/core/doctype/scheduled_job_type/scheduled_job_type.py:
Site: fianzacredito.com
Scheduled Job Start: frappe.email.doctype.email_account.email_account.notify_unreplied for fianzacredito.com
[INFO] 2020-03-11 12:12:00,732 | /home/jhon/public_html/frappe-bench/apps/frappe/frappe/core/doctype/scheduled_job_type/scheduled_job_type.py:
Site: fianzacredito.com
Scheduled Job Complete: frappe.email.doctype.email_account.email_account.notify_unreplied for fianzacredito.com
[INFO] 2020-03-11 12:12:00,764 | /home/jhon/public_html/frappe-bench/apps/frappe/frappe/core/doctype/scheduled_job_type/scheduled_job_type.py:
Site: fianzacredito.com
Scheduled Job Start: frappe.email.doctype.email_account.email_account.pull for fianzacredito.com
[INFO] 2020-03-11 12:12:00,809 | /home/jhon/public_html/frappe-bench/apps/frappe/frappe/core/doctype/scheduled_job_type/scheduled_job_type.py:
Site: fianzacredito.com
Scheduled Job Complete: frappe.email.doctype.email_account.email_account.pull for fianzacredito.com
[INFO] 2020-03-11 12:12:00,839 | /home/jhon/public_html/frappe-bench/apps/frappe/frappe/core/doctype/scheduled_job_type/scheduled_job_type.py:
Site: fianzacredito.com
Scheduled Job Start: frappe.email.queue.flush for fianzacredito.com
[INFO] 2020-03-11 12:12:00,869 | /home/jhon/public_html/frappe-bench/apps/frappe/frappe/core/doctype/scheduled_job_type/scheduled_job_type.py:
Site: fianzacredito.com
Scheduled Job Complete: frappe.email.queue.flush for fianzacredito.com
[DEBUG] 2020-03-11 12:13:00,707 | /home/jhon/public_html/frappe-bench/apps/frappe/frappe/utils/scheduler.py:
Site: fianzacredito.com
Queued events for site fianzacredito.com
[DEBUG] 2020-03-11 12:14:00,874 | /home/jhon/public_html/frappe-bench/apps/frappe/frappe/utils/scheduler.py:
Site: fianzacredito.com
Queued events for site fianzacredito.com
[DEBUG] 2020-03-11 12:15:01,037 | /home/jhon/public_html/frappe-bench/apps/frappe/frappe/utils/scheduler.py:
Site: fianzacredito.com
Queued events for site fianzacredito.com
[INFO] 2020-03-11 12:15:01,059 | /home/jhon/public_html/frappe-bench/apps/frappe/frappe/core/doctype/scheduled_job_type/scheduled_job_type.py:
Site: fianzacredito.com
Scheduled Job Start: frappe.twofactor.delete_all_barcodes_for_users for fianzacredito.com
[INFO] 2020-03-11 12:15:01,160 | /home/jhon/public_html/frappe-bench/apps/frappe/frappe/core/doctype/scheduled_job_type/scheduled_job_type.py:
Site: fianzacredito.com
Scheduled Job Complete: frappe.twofactor.delete_all_barcodes_for_users for fianzacredito.com
[INFO] 2020-03-11 12:15:01,199 | /home/jhon/public_html/frappe-bench/apps/frappe/frappe/core/doctype/scheduled_job_type/scheduled_job_type.py:
Site: fianzacredito.com
Scheduled Job Start: frappe.website.doctype.web_page.web_page.check_publish_status for fianzacredito.com
[INFO] 2020-03-11 12:15:01,261 | /home/jhon/public_html/frappe-bench/apps/frappe/frappe/core/doctype/scheduled_job_type/scheduled_job_type.py:
Site: fianzacredito.com
Scheduled Job Complete: frappe.website.doctype.web_page.web_page.check_publish_status for fianzacredito.com
[INFO] 2020-03-11 12:15:01,304 | /home/jhon/public_html/frappe-bench/apps/frappe/frappe/core/doctype/scheduled_job_type/scheduled_job_type.py:
Site: fianzacredito.com
Scheduled Job Start: frappe.oauth.delete_oauth2_data for fianzacredito.com
[INFO] 2020-03-11 12:15:01,463 | /home/jhon/public_html/frappe-bench/apps/frappe/frappe/core/doctype/scheduled_job_type/scheduled_job_type.py:
Site: fianzacredito.com
Scheduled Job Complete: frappe.oauth.delete_oauth2_data for fianzacredito.com
[DEBUG] 2020-03-11 12:16:01,211 | /home/jhon/public_html/frappe-bench/apps/frappe/frappe/utils/scheduler.py:
Site: fianzacredito.com
Queued events for site fianzacredito.com
[INFO] 2020-03-11 12:16:01,223 | /home/jhon/public_html/frappe-bench/apps/frappe/frappe/core/doctype/scheduled_job_type/scheduled_job_type.py:
Site: fianzacredito.com
Scheduled Job Start: frappe.monitor.flush for fianzacredito.com
[INFO] 2020-03-11 12:16:01,238 | /home/jhon/public_html/frappe-bench/apps/frappe/frappe/core/doctype/scheduled_job_type/scheduled_job_type.py:
Site: fianzacredito.com
Scheduled Job Complete: frappe.monitor.flush for fianzacredito.com
[INFO] 2020-03-11 12:16:01,268 | /home/jhon/public_html/frappe-bench/apps/frappe/frappe/core/doctype/scheduled_job_type/scheduled_job_type.py:
Site: fianzacredito.com
Scheduled Job Start: frappe.utils.global_search.sync_global_search for fianzacredito.com
[INFO] 2020-03-11 12:16:01,286 | /home/jhon/public_html/frappe-bench/apps/frappe/frappe/core/doctype/scheduled_job_type/scheduled_job_type.py:
Site: fianzacredito.com
Scheduled Job Complete: frappe.utils.global_search.sync_global_search for fianzacredito.com
[INFO] 2020-03-11 12:16:01,325 | /home/jhon/public_html/frappe-bench/apps/frappe/frappe/core/doctype/scheduled_job_type/scheduled_job_type.py:
Site: fianzacredito.com
Scheduled Job Start: frappe.integrations.doctype.razorpay_settings.razorpay_settings.capture_payment for fianzacredito.com
[INFO] 2020-03-11 12:16:01,345 | /home/jhon/public_html/frappe-bench/apps/frappe/frappe/core/doctype/scheduled_job_type/scheduled_job_type.py:
Site: fianzacredito.com
Scheduled Job Complete: frappe.integrations.doctype.razorpay_settings.razorpay_settings.capture_payment for fianzacredito.com
[INFO] 2020-03-11 12:16:01,374 | /home/jhon/public_html/frappe-bench/apps/frappe/frappe/core/doctype/scheduled_job_type/scheduled_job_type.py:
Site: fianzacredito.com
Scheduled Job Start: frappe.email.doctype.email_account.email_account.notify_unreplied for fianzacredito.com
[INFO] 2020-03-11 12:16:01,413 | /home/jhon/public_html/frappe-bench/apps/frappe/frappe/core/doctype/scheduled_job_type/scheduled_job_type.py:
Site: fianzacredito.com
Scheduled Job Complete: frappe.email.doctype.email_account.email_account.notify_unreplied for fianzacredito.com
[INFO] 2020-03-11 12:16:01,443 | /home/jhon/public_html/frappe-bench/apps/frappe/frappe/core/doctype/scheduled_job_type/scheduled_job_type.py:
Site: fianzacredito.com
Scheduled Job Start: frappe.email.doctype.email_account.email_account.pull for fianzacredito.com
[INFO] 2020-03-11 12:16:01,486 | /home/jhon/public_html/frappe-bench/apps/frappe/frappe/core/doctype/scheduled_job_type/scheduled_job_type.py:
Site: fianzacredito.com
Scheduled Job Complete: frappe.email.doctype.email_account.email_account.pull for fianzacredito.com
[INFO] 2020-03-11 12:16:01,517 | /home/jhon/public_html/frappe-bench/apps/frappe/frappe/core/doctype/scheduled_job_type/scheduled_job_type.py:
Site: fianzacredito.com
Scheduled Job Start: frappe.email.queue.flush for fianzacredito.com
[INFO] 2020-03-11 12:16:01,545 | /home/jhon/public_html/frappe-bench/apps/frappe/frappe/core/doctype/scheduled_job_type/scheduled_job_type.py:
Site: fianzacredito.com
Scheduled Job Complete: frappe.email.queue.flush for fianzacredito.com
[DEBUG] 2020-03-11 12:17:01,356 | /home/jhon/public_html/frappe-bench/apps/frappe/frappe/utils/scheduler.py:
Site: fianzacredito.com
Queued events for site fianzacredito.com
[DEBUG] 2020-03-11 12:18:01,534 | /home/jhon/public_html/frappe-bench/apps/frappe/frappe/utils/scheduler.py:
Site: fianzacredito.com
Queued events for site fianzacredito.com
[DEBUG] 2020-03-11 12:19:01,797 | /home/jhon/public_html/frappe-bench/apps/frappe/frappe/utils/scheduler.py:
Site: fianzacredito.com
Queued events for site fianzacredito.com
[DEBUG] 2020-03-11 12:20:01,968 | /home/jhon/public_html/frappe-bench/apps/frappe/frappe/utils/scheduler.py:
Site: fianzacredito.com
Queued events for site fianzacredito.com
[INFO] 2020-03-11 12:20:01,976 | /home/jhon/public_html/frappe-bench/apps/frappe/frappe/core/doctype/scheduled_job_type/scheduled_job_type.py:
Site: fianzacredito.com
Scheduled Job Start: frappe.monitor.flush for fianzacredito.com
[INFO] 2020-03-11 12:20:01,992 | /home/jhon/public_html/frappe-bench/apps/frappe/frappe/core/doctype/scheduled_job_type/scheduled_job_type.py:
Site: fianzacredito.com
Scheduled Job Complete: frappe.monitor.flush for fianzacredito.com
[INFO] 2020-03-11 12:20:02,022 | /home/jhon/public_html/frappe-bench/apps/frappe/frappe/core/doctype/scheduled_job_type/scheduled_job_type.py:
Site: fianzacredito.com
Scheduled Job Start: frappe.utils.global_search.sync_global_search for fianzacredito.com
[INFO] 2020-03-11 12:20:02,038 | /home/jhon/public_html/frappe-bench/apps/frappe/frappe/core/doctype/scheduled_job_type/scheduled_job_type.py:
Site: fianzacredito.com
Scheduled Job Complete: frappe.utils.global_search.sync_global_search for fianzacredito.com
[INFO] 2020-03-11 12:20:02,067 | /home/jhon/public_html/frappe-bench/apps/frappe/frappe/core/doctype/scheduled_job_type/scheduled_job_type.py:
Site: fianzacredito.com
Scheduled Job Start: frappe.integrations.doctype.razorpay_settings.razorpay_settings.capture_payment for fianzacredito.com
[INFO] 2020-03-11 12:20:02,088 | /home/jhon/public_html/frappe-bench/apps/frappe/frappe/core/doctype/scheduled_job_type/scheduled_job_type.py:
Site: fianzacredito.com
Scheduled Job Complete: frappe.integrations.doctype.razorpay_settings.razorpay_settings.capture_payment for fianzacredito.com
[INFO] 2020-03-11 12:20:02,118 | /home/jhon/public_html/frappe-bench/apps/frappe/frappe/core/doctype/scheduled_job_type/scheduled_job_type.py:
Site: fianzacredito.com
Scheduled Job Start: frappe.email.doctype.email_account.email_account.notify_unreplied for fianzacredito.com
[INFO] 2020-03-11 12:20:02,157 | /home/jhon/public_html/frappe-bench/apps/frappe/frappe/core/doctype/scheduled_job_type/scheduled_job_type.py:
Site: fianzacredito.com
Scheduled Job Complete: frappe.email.doctype.email_account.email_account.notify_unreplied for fianzacredito.com
[INFO] 2020-03-11 12:20:02,186 | /home/jhon/public_html/frappe-bench/apps/frappe/frappe/core/doctype/scheduled_job_type/scheduled_job_type.py:
Site: fianzacredito.com
Scheduled Job Start: frappe.email.doctype.email_account.email_account.pull for fianzacredito.com
[INFO] 2020-03-11 12:20:02,240 | /home/jhon/public_html/frappe-bench/apps/frappe/frappe/core/doctype/scheduled_job_type/scheduled_job_type.py:
Site: fianzacredito.com
Scheduled Job Complete: frappe.email.doctype.email_account.email_account.pull for fianzacredito.com
[INFO] 2020-03-11 12:20:02,270 | /home/jhon/public_html/frappe-bench/apps/frappe/frappe/core/doctype/scheduled_job_type/scheduled_job_type.py:
Site: fianzacredito.com
Scheduled Job Start: frappe.email.queue.flush for fianzacredito.com
[INFO] 2020-03-11 12:20:02,298 | /home/jhon/public_html/frappe-bench/apps/frappe/frappe/core/doctype/scheduled_job_type/scheduled_job_type.py:
Site: fianzacredito.com
Scheduled Job Complete: frappe.email.queue.flush for fianzacredito.com
[DEBUG] 2020-03-11 12:21:02,155 | /home/jhon/public_html/frappe-bench/apps/frappe/frappe/utils/scheduler.py:
Site: fianzacredito.com
Queued events for site fianzacredito.com
[DEBUG] 2020-03-11 12:22:02,340 | /home/jhon/public_html/frappe-bench/apps/frappe/frappe/utils/scheduler.py:
Site: fianzacredito.com
Queued events for site fianzacredito.com
[DEBUG] 2020-03-11 12:23:02,513 | /home/jhon/public_html/frappe-bench/apps/frappe/frappe/utils/scheduler.py:
Site: fianzacredito.com
Queued events for site fianzacredito.com
[DEBUG] 2020-03-11 12:24:02,673 | /home/jhon/public_html/frappe-bench/apps/frappe/frappe/utils/scheduler.py:
Site: fianzacredito.com
Queued events for site fianzacredito.com
[INFO] 2020-03-11 12:24:02,684 | /home/jhon/public_html/frappe-bench/apps/frappe/frappe/core/doctype/scheduled_job_type/scheduled_job_type.py:
Site: fianzacredito.com
Scheduled Job Start: frappe.monitor.flush for fianzacredito.com
[INFO] 2020-03-11 12:24:02,700 | /home/jhon/public_html/frappe-bench/apps/frappe/frappe/core/doctype/scheduled_job_type/scheduled_job_type.py:
Site: fianzacredito.com
Scheduled Job Complete: frappe.monitor.flush for fianzacredito.com
[INFO] 2020-03-11 12:24:02,730 | /home/jhon/public_html/frappe-bench/apps/frappe/frappe/core/doctype/scheduled_job_type/scheduled_job_type.py:
Site: fianzacredito.com
Scheduled Job Start: frappe.utils.global_search.sync_global_search for fianzacredito.com
[INFO] 2020-03-11 12:24:02,746 | /home/jhon/public_html/frappe-bench/apps/frappe/frappe/core/doctype/scheduled_job_type/scheduled_job_type.py:
Site: fianzacredito.com
Scheduled Job Complete: frappe.utils.global_search.sync_global_search for fianzacredito.com
[INFO] 2020-03-11 12:24:02,776 | /home/jhon/public_html/frappe-bench/apps/frappe/frappe/core/doctype/scheduled_job_type/scheduled_job_type.py:
Site: fianzacredito.com
Scheduled Job Start: frappe.integrations.doctype.razorpay_settings.razorpay_settings.capture_payment for fianzacredito.com
[INFO] 2020-03-11 12:24:02,795 | /home/jhon/public_html/frappe-bench/apps/frappe/frappe/core/doctype/scheduled_job_type/scheduled_job_type.py:
Site: fianzacredito.com
Scheduled Job Complete: frappe.integrations.doctype.razorpay_settings.razorpay_settings.capture_payment for fianzacredito.com
[INFO] 2020-03-11 12:24:02,825 | /home/jhon/public_html/frappe-bench/apps/frappe/frappe/core/doctype/scheduled_job_type/scheduled_job_type.py:
Site: fianzacredito.com
Scheduled Job Start: frappe.email.doctype.email_account.email_account.notify_unreplied for fianzacredito.com
[INFO] 2020-03-11 12:24:02,864 | /home/jhon/public_html/frappe-bench/apps/frappe/frappe/core/doctype/scheduled_job_type/scheduled_job_type.py:
Site: fianzacredito.com
Scheduled Job Complete: frappe.email.doctype.email_account.email_account.notify_unreplied for fianzacredito.com
[INFO] 2020-03-11 12:24:02,894 | /home/jhon/public_html/frappe-bench/apps/frappe/frappe/core/doctype/scheduled_job_type/scheduled_job_type.py:
Site: fianzacredito.com
Scheduled Job Start: frappe.email.doctype.email_account.email_account.pull for fianzacredito.com
[INFO] 2020-03-11 12:24:02,937 | /home/jhon/public_html/frappe-bench/apps/frappe/frappe/core/doctype/scheduled_job_type/scheduled_job_type.py:
Site: fianzacredito.com
Scheduled Job Complete: frappe.email.doctype.email_account.email_account.pull for fianzacredito.com
[INFO] 2020-03-11 12:24:02,967 | /home/jhon/public_html/frappe-bench/apps/frappe/frappe/core/doctype/scheduled_job_type/scheduled_job_type.py:
Site: fianzacredito.com
Scheduled Job Start: frappe.email.queue.flush for fianzacredito.com
[INFO] 2020-03-11 12:24:03,006 | /home/jhon/public_html/frappe-bench/apps/frappe/frappe/core/doctype/scheduled_job_type/scheduled_job_type.py:
Site: fianzacredito.com
Scheduled Job Complete: frappe.email.queue.flush for fianzacredito.com
[DEBUG] 2020-03-11 12:25:02,840 | /home/jhon/public_html/frappe-bench/apps/frappe/frappe/utils/scheduler.py:
Site: fianzacredito.com
Queued events for site fianzacredito.com
[DEBUG] 2020-03-11 12:26:03,005 | /home/jhon/public_html/frappe-bench/apps/frappe/frappe/utils/scheduler.py:
Site: fianzacredito.com
Queued events for site fianzacredito.com
[DEBUG] 2020-03-11 12:27:03,172 | /home/jhon/public_html/frappe-bench/apps/frappe/frappe/utils/scheduler.py:
Site: fianzacredito.com
Queued events for site fianzacredito.com
[DEBUG] 2020-03-11 12:28:03,350 | /home/jhon/public_html/frappe-bench/apps/frappe/frappe/utils/scheduler.py:
Site: fianzacredito.com
Queued events for site fianzacredito.com
[INFO] 2020-03-11 12:28:03,358 | /home/jhon/public_html/frappe-bench/apps/frappe/frappe/core/doctype/scheduled_job_type/scheduled_job_type.py:
Site: fianzacredito.com
Scheduled Job Start: frappe.monitor.flush for fianzacredito.com
[INFO] 2020-03-11 12:28:03,376 | /home/jhon/public_html/frappe-bench/apps/frappe/frappe/core/doctype/scheduled_job_type/scheduled_job_type.py:
Site: fianzacredito.com
Scheduled Job Complete: frappe.monitor.flush for fianzacredito.com
[INFO] 2020-03-11 12:28:03,418 | /home/jhon/public_html/frappe-bench/apps/frappe/frappe/core/doctype/scheduled_job_type/scheduled_job_type.py:
Site: fianzacredito.com
Scheduled Job Start: frappe.utils.global_search.sync_global_search for fianzacredito.com
[INFO] 2020-03-11 12:28:03,434 | /home/jhon/public_html/frappe-bench/apps/frappe/frappe/core/doctype/scheduled_job_type/scheduled_job_type.py:
Site: fianzacredito.com
Scheduled Job Complete: frappe.utils.global_search.sync_global_search for fianzacredito.com
[INFO] 2020-03-11 12:28:03,464 | /home/jhon/public_html/frappe-bench/apps/frappe/frappe/core/doctype/scheduled_job_type/scheduled_job_type.py:
Site: fianzacredito.com
Scheduled Job Start: frappe.integrations.doctype.razorpay_settings.razorpay_settings.capture_payment for fianzacredito.com
[INFO] 2020-03-11 12:28:03,490 | /home/jhon/public_html/frappe-bench/apps/frappe/frappe/core/doctype/scheduled_job_type/scheduled_job_type.py:
Site: fianzacredito.com
Scheduled Job Complete: frappe.integrations.doctype.razorpay_settings.razorpay_settings.capture_payment for fianzacredito.com
[INFO] 2020-03-11 12:28:03,526 | /home/jhon/public_html/frappe-bench/apps/frappe/frappe/core/doctype/scheduled_job_type/scheduled_job_type.py:
Site: fianzacredito.com
Scheduled Job Start: frappe.email.doctype.email_account.email_account.notify_unreplied for fianzacredito.com
[INFO] 2020-03-11 12:28:03,567 | /home/jhon/public_html/frappe-bench/apps/frappe/frappe/core/doctype/scheduled_job_type/scheduled_job_type.py:
Site: fianzacredito.com
Scheduled Job Complete: frappe.email.doctype.email_account.email_account.notify_unreplied for fianzacredito.com
[INFO] 2020-03-11 12:28:03,598 | /home/jhon/public_html/frappe-bench/apps/frappe/frappe/core/doctype/scheduled_job_type/scheduled_job_type.py:
Site: fianzacredito.com
Scheduled Job Start: frappe.email.doctype.email_account.email_account.pull for fianzacredito.com
[INFO] 2020-03-11 12:28:03,641 | /home/jhon/public_html/frappe-bench/apps/frappe/frappe/core/doctype/scheduled_job_type/scheduled_job_type.py:
Site: fianzacredito.com
Scheduled Job Complete: frappe.email.doctype.email_account.email_account.pull for fianzacredito.com
[INFO] 2020-03-11 12:28:03,672 | /home/jhon/public_html/frappe-bench/apps/frappe/frappe/core/doctype/scheduled_job_type/scheduled_job_type.py:
Site: fianzacredito.com
Scheduled Job Start: frappe.email.queue.flush for fianzacredito.com
[INFO] 2020-03-11 12:28:03,699 | /home/jhon/public_html/frappe-bench/apps/frappe/frappe/core/doctype/scheduled_job_type/scheduled_job_type.py:
Site: fianzacredito.com
Scheduled Job Complete: frappe.email.queue.flush for fianzacredito.com
[DEBUG] 2020-03-11 12:29:03,510 | /home/jhon/public_html/frappe-bench/apps/frappe/frappe/utils/scheduler.py:
Site: fianzacredito.com
Queued events for site fianzacredito.com
[DEBUG] 2020-03-11 12:30:03,685 | /home/jhon/public_html/frappe-bench/apps/frappe/frappe/utils/scheduler.py:
Site: fianzacredito.com
Queued events for site fianzacredito.com
[INFO] 2020-03-11 12:30:03,707 | /home/jhon/public_html/frappe-bench/apps/frappe/frappe/core/doctype/scheduled_job_type/scheduled_job_type.py:
Site: fianzacredito.com
Scheduled Job Start: frappe.twofactor.delete_all_barcodes_for_users for fianzacredito.com
[INFO] 2020-03-11 12:30:03,769 | /home/jhon/public_html/frappe-bench/apps/frappe/frappe/core/doctype/scheduled_job_type/scheduled_job_type.py:
Site: fianzacredito.com
Scheduled Job Complete: frappe.twofactor.delete_all_barcodes_for_users for fianzacredito.com
[INFO] 2020-03-11 12:30:03,808 | /home/jhon/public_html/frappe-bench/apps/frappe/frappe/core/doctype/scheduled_job_type/scheduled_job_type.py:
Site: fianzacredito.com
Scheduled Job Start: frappe.website.doctype.web_page.web_page.check_publish_status for fianzacredito.com
[INFO] 2020-03-11 12:30:03,868 | /home/jhon/public_html/frappe-bench/apps/frappe/frappe/core/doctype/scheduled_job_type/scheduled_job_type.py:
Site: fianzacredito.com
Scheduled Job Complete: frappe.website.doctype.web_page.web_page.check_publish_status for fianzacredito.com
[INFO] 2020-03-11 12:30:03,906 | /home/jhon/public_html/frappe-bench/apps/frappe/frappe/core/doctype/scheduled_job_type/scheduled_job_type.py:
Site: fianzacredito.com
Scheduled Job Start: frappe.oauth.delete_oauth2_data for fianzacredito.com
[INFO] 2020-03-11 12:30:03,975 | /home/jhon/public_html/frappe-bench/apps/frappe/frappe/core/doctype/scheduled_job_type/scheduled_job_type.py:
Site: fianzacredito.com
Scheduled Job Complete: frappe.oauth.delete_oauth2_data for fianzacredito.com
[DEBUG] 2020-03-11 12:31:03,855 | /home/jhon/public_html/frappe-bench/apps/frappe/frappe/utils/scheduler.py:
Site: fianzacredito.com
Queued events for site fianzacredito.com
[DEBUG] 2020-03-11 12:32:04,036 | /home/jhon/public_html/frappe-bench/apps/frappe/frappe/utils/scheduler.py:
Site: fianzacredito.com
Queued events for site fianzacredito.com
[INFO] 2020-03-11 12:32:04,046 | /home/jhon/public_html/frappe-bench/apps/frappe/frappe/core/doctype/scheduled_job_type/scheduled_job_type.py:
Site: fianzacredito.com
Scheduled Job Start: frappe.monitor.flush for fianzacredito.com
[INFO] 2020-03-11 12:32:04,063 | /home/jhon/public_html/frappe-bench/apps/frappe/frappe/core/doctype/scheduled_job_type/scheduled_job_type.py:
Site: fianzacredito.com
Scheduled Job Complete: frappe.monitor.flush for fianzacredito.com
[INFO] 2020-03-11 12:32:04,105 | /home/jhon/public_html/frappe-bench/apps/frappe/frappe/core/doctype/scheduled_job_type/scheduled_job_type.py:
Site: fianzacredito.com
Scheduled Job Start: frappe.utils.global_search.sync_global_search for fianzacredito.com
[INFO] 2020-03-11 12:32:04,120 | /home/jhon/public_html/frappe-bench/apps/frappe/frappe/core/doctype/scheduled_job_type/scheduled_job_type.py:
Site: fianzacredito.com
Scheduled Job Complete: frappe.utils.global_search.sync_global_search for fianzacredito.com
[INFO] 2020-03-11 12:32:04,150 | /home/jhon/public_html/frappe-bench/apps/frappe/frappe/core/doctype/scheduled_job_type/scheduled_job_type.py:
Site: fianzacredito.com
Scheduled Job Start: frappe.integrations.doctype.razorpay_settings.razorpay_settings.capture_payment for fianzacredito.com
[INFO] 2020-03-11 12:32:04,169 | /home/jhon/public_html/frappe-bench/apps/frappe/frappe/core/doctype/scheduled_job_type/scheduled_job_type.py:
Site: fianzacredito.com
Scheduled Job Complete: frappe.integrations.doctype.razorpay_settings.razorpay_settings.capture_payment for fianzacredito.com
[INFO] 2020-03-11 12:32:04,199 | /home/jhon/public_html/frappe-bench/apps/frappe/frappe/core/doctype/scheduled_job_type/scheduled_job_type.py:
Site: fianzacredito.com
Scheduled Job Start: frappe.email.doctype.email_account.email_account.notify_unreplied for fianzacredito.com
[INFO] 2020-03-11 12:32:04,238 | /home/jhon/public_html/frappe-bench/apps/frappe/frappe/core/doctype/scheduled_job_type/scheduled_job_type.py:
Site: fianzacredito.com
Scheduled Job Complete: frappe.email.doctype.email_account.email_account.notify_unreplied for fianzacredito.com
[INFO] 2020-03-11 12:32:04,269 | /home/jhon/public_html/frappe-bench/apps/frappe/frappe/core/doctype/scheduled_job_type/scheduled_job_type.py:
Site: fianzacredito.com
Scheduled Job Start: frappe.email.doctype.email_account.email_account.pull for fianzacredito.com
[INFO] 2020-03-11 12:32:04,311 | /home/jhon/public_html/frappe-bench/apps/frappe/frappe/core/doctype/scheduled_job_type/scheduled_job_type.py:
Site: fianzacredito.com
Scheduled Job Complete: frappe.email.doctype.email_account.email_account.pull for fianzacredito.com
[INFO] 2020-03-11 12:32:04,341 | /home/jhon/public_html/frappe-bench/apps/frappe/frappe/core/doctype/scheduled_job_type/scheduled_job_type.py:
Site: fianzacredito.com
Scheduled Job Start: frappe.email.queue.flush for fianzacredito.com
[INFO] 2020-03-11 12:32:04,370 | /home/jhon/public_html/frappe-bench/apps/frappe/frappe/core/doctype/scheduled_job_type/scheduled_job_type.py:
Site: fianzacredito.com
Scheduled Job Complete: frappe.email.queue.flush for fianzacredito.com
[DEBUG] 2020-03-11 12:33:04,231 | /home/jhon/public_html/frappe-bench/apps/frappe/frappe/utils/scheduler.py:
Site: fianzacredito.com
Queued events for site fianzacredito.com
[DEBUG] 2020-03-11 12:34:04,367 | /home/jhon/public_html/frappe-bench/apps/frappe/frappe/utils/scheduler.py:
Site: fianzacredito.com
Queued events for site fianzacredito.com
[DEBUG] 2020-03-11 12:35:04,536 | /home/jhon/public_html/frappe-bench/apps/frappe/frappe/utils/scheduler.py:
Site: fianzacredito.com
Queued events for site fianzacredito.com
[DEBUG] 2020-03-11 12:36:04,741 | /home/jhon/public_html/frappe-bench/apps/frappe/frappe/utils/scheduler.py:
Site: fianzacredito.com
Queued events for site fianzacredito.com
[INFO] 2020-03-11 12:36:04,749 | /home/jhon/public_html/frappe-bench/apps/frappe/frappe/core/doctype/scheduled_job_type/scheduled_job_type.py:
Site: fianzacredito.com
Scheduled Job Start: frappe.monitor.flush for fianzacredito.com
[INFO] 2020-03-11 12:36:04,765 | /home/jhon/public_html/frappe-bench/apps/frappe/frappe/core/doctype/scheduled_job_type/scheduled_job_type.py:
Site: fianzacredito.com
Scheduled Job Complete: frappe.monitor.flush for fianzacredito.com
[INFO] 2020-03-11 12:36:04,796 | /home/jhon/public_html/frappe-bench/apps/frappe/frappe/core/doctype/scheduled_job_type/scheduled_job_type.py:
Site: fianzacredito.com
Scheduled Job Start: frappe.utils.global_search.sync_global_search for fianzacredito.com
[INFO] 2020-03-11 12:36:04,812 | /home/jhon/public_html/frappe-bench/apps/frappe/frappe/core/doctype/scheduled_job_type/scheduled_job_type.py:
Site: fianzacredito.com
Scheduled Job Complete: frappe.utils.global_search.sync_global_search for fianzacredito.com
[INFO] 2020-03-11 12:36:04,842 | /home/jhon/public_html/frappe-bench/apps/frappe/frappe/core/doctype/scheduled_job_type/scheduled_job_type.py:
Site: fianzacredito.com
Scheduled Job Start: frappe.integrations.doctype.razorpay_settings.razorpay_settings.capture_payment for fianzacredito.com
[INFO] 2020-03-11 12:36:04,862 | /home/jhon/public_html/frappe-bench/apps/frappe/frappe/core/doctype/scheduled_job_type/scheduled_job_type.py:
Site: fianzacredito.com
Scheduled Job Complete: frappe.integrations.doctype.razorpay_settings.razorpay_settings.capture_payment for fianzacredito.com
[INFO] 2020-03-11 12:36:04,892 | /home/jhon/public_html/frappe-bench/apps/frappe/frappe/core/doctype/scheduled_job_type/scheduled_job_type.py:
Site: fianzacredito.com
Scheduled Job Start: frappe.email.doctype.email_account.email_account.notify_unreplied for fianzacredito.com
[INFO] 2020-03-11 12:36:04,931 | /home/jhon/public_html/frappe-bench/apps/frappe/frappe/core/doctype/scheduled_job_type/scheduled_job_type.py:
Site: fianzacredito.com
Scheduled Job Complete: frappe.email.doctype.email_account.email_account.notify_unreplied for fianzacredito.com
[INFO] 2020-03-11 12:36:04,961 | /home/jhon/public_html/frappe-bench/apps/frappe/frappe/core/doctype/scheduled_job_type/scheduled_job_type.py:
Site: fianzacredito.com
Scheduled Job Start: frappe.email.doctype.email_account.email_account.pull for fianzacredito.com
[INFO] 2020-03-11 12:36:05,004 | /home/jhon/public_html/frappe-bench/apps/frappe/frappe/core/doctype/scheduled_job_type/scheduled_job_type.py:
Site: fianzacredito.com
Scheduled Job Complete: frappe.email.doctype.email_account.email_account.pull for fianzacredito.com
[INFO] 2020-03-11 12:36:05,035 | /home/jhon/public_html/frappe-bench/apps/frappe/frappe/core/doctype/scheduled_job_type/scheduled_job_type.py:
Site: fianzacredito.com
Scheduled Job Start: frappe.email.queue.flush for fianzacredito.com
[INFO] 2020-03-11 12:36:05,063 | /home/jhon/public_html/frappe-bench/apps/frappe/frappe/core/doctype/scheduled_job_type/scheduled_job_type.py:
Site: fianzacredito.com
Scheduled Job Complete: frappe.email.queue.flush for fianzacredito.com
[DEBUG] 2020-03-11 12:37:04,943 | /home/jhon/public_html/frappe-bench/apps/frappe/frappe/utils/scheduler.py:
Site: fianzacredito.com
Queued events for site fianzacredito.com
[DEBUG] 2020-03-11 12:38:05,110 | /home/jhon/public_html/frappe-bench/apps/frappe/frappe/utils/scheduler.py:
Site: fianzacredito.com
Queued events for site fianzacredito.com
[DEBUG] 2020-03-11 12:39:05,284 | /home/jhon/public_html/frappe-bench/apps/frappe/frappe/utils/scheduler.py:
Site: fianzacredito.com
Queued events for site fianzacredito.com
[DEBUG] 2020-03-11 12:40:05,467 | /home/jhon/public_html/frappe-bench/apps/frappe/frappe/utils/scheduler.py:
Site: fianzacredito.com
Queued events for site fianzacredito.com
[INFO] 2020-03-11 12:40:05,477 | /home/jhon/public_html/frappe-bench/apps/frappe/frappe/core/doctype/scheduled_job_type/scheduled_job_type.py:
Site: fianzacredito.com
Scheduled Job Start: frappe.monitor.flush for fianzacredito.com
[INFO] 2020-03-11 12:40:05,493 | /home/jhon/public_html/frappe-bench/apps/frappe/frappe/core/doctype/scheduled_job_type/scheduled_job_type.py:
Site: fianzacredito.com
Scheduled Job Complete: frappe.monitor.flush for fianzacredito.com
[INFO] 2020-03-11 12:40:05,524 | /home/jhon/public_html/frappe-bench/apps/frappe/frappe/core/doctype/scheduled_job_type/scheduled_job_type.py:
Site: fianzacredito.com
Scheduled Job Start: frappe.utils.global_search.sync_global_search for fianzacredito.com
[INFO] 2020-03-11 12:40:05,539 | /home/jhon/public_html/frappe-bench/apps/frappe/frappe/core/doctype/scheduled_job_type/scheduled_job_type.py:
Site: fianzacredito.com
Scheduled Job Complete: frappe.utils.global_search.sync_global_search for fianzacredito.com
[INFO] 2020-03-11 12:40:05,568 | /home/jhon/public_html/frappe-bench/apps/frappe/frappe/core/doctype/scheduled_job_type/scheduled_job_type.py:
Site: fianzacredito.com
Scheduled Job Start: frappe.integrations.doctype.razorpay_settings.razorpay_settings.capture_payment for fianzacredito.com
[INFO] 2020-03-11 12:40:05,587 | /home/jhon/public_html/frappe-bench/apps/frappe/frappe/core/doctype/scheduled_job_type/scheduled_job_type.py:
Site: fianzacredito.com
Scheduled Job Complete: frappe.integrations.doctype.razorpay_settings.razorpay_settings.capture_payment for fianzacredito.com
[INFO] 2020-03-11 12:40:05,619 | /home/jhon/public_html/frappe-bench/apps/frappe/frappe/core/doctype/scheduled_job_type/scheduled_job_type.py:
Site: fianzacredito.com
Scheduled Job Start: frappe.email.doctype.email_account.email_account.notify_unreplied for fianzacredito.com
[INFO] 2020-03-11 12:40:05,658 | /home/jhon/public_html/frappe-bench/apps/frappe/frappe/core/doctype/scheduled_job_type/scheduled_job_type.py:
Site: fianzacredito.com
Scheduled Job Complete: frappe.email.doctype.email_account.email_account.notify_unreplied for fianzacredito.com
[INFO] 2020-03-11 12:40:05,689 | /home/jhon/public_html/frappe-bench/apps/frappe/frappe/core/doctype/scheduled_job_type/scheduled_job_type.py:
Site: fianzacredito.com
Scheduled Job Start: frappe.email.doctype.email_account.email_account.pull for fianzacredito.com
[INFO] 2020-03-11 12:40:05,732 | /home/jhon/public_html/frappe-bench/apps/frappe/frappe/core/doctype/scheduled_job_type/scheduled_job_type.py:
Site: fianzacredito.com
Scheduled Job Complete: frappe.email.doctype.email_account.email_account.pull for fianzacredito.com
[INFO] 2020-03-11 12:40:05,762 | /home/jhon/public_html/frappe-bench/apps/frappe/frappe/core/doctype/scheduled_job_type/scheduled_job_type.py:
Site: fianzacredito.com
Scheduled Job Start: frappe.email.queue.flush for fianzacredito.com
[INFO] 2020-03-11 12:40:05,791 | /home/jhon/public_html/frappe-bench/apps/frappe/frappe/core/doctype/scheduled_job_type/scheduled_job_type.py:
Site: fianzacredito.com
Scheduled Job Complete: frappe.email.queue.flush for fianzacredito.com
[DEBUG] 2020-03-11 12:41:05,664 | /home/jhon/public_html/frappe-bench/apps/frappe/frappe/utils/scheduler.py:
Site: fianzacredito.com
Queued events for site fianzacredito.com
[DEBUG] 2020-03-11 12:42:05,820 | /home/jhon/public_html/frappe-bench/apps/frappe/frappe/utils/scheduler.py:
Site: fianzacredito.com
Queued events for site fianzacredito.com
[DEBUG] 2020-03-11 12:43:05,996 | /home/jhon/public_html/frappe-bench/apps/frappe/frappe/utils/scheduler.py:
Site: fianzacredito.com
Queued events for site fianzacredito.com
[DEBUG] 2020-03-11 12:44:06,210 | /home/jhon/public_html/frappe-bench/apps/frappe/frappe/utils/scheduler.py:
Site: fianzacredito.com
Queued events for site fianzacredito.com
[INFO] 2020-03-11 12:44:06,219 | /home/jhon/public_html/frappe-bench/apps/frappe/frappe/core/doctype/scheduled_job_type/scheduled_job_type.py:
Site: fianzacredito.com
Scheduled Job Start: frappe.monitor.flush for fianzacredito.com
[INFO] 2020-03-11 12:44:06,238 | /home/jhon/public_html/frappe-bench/apps/frappe/frappe/core/doctype/scheduled_job_type/scheduled_job_type.py:
Site: fianzacredito.com
Scheduled Job Complete: frappe.monitor.flush for fianzacredito.com
[INFO] 2020-03-11 12:44:06,274 | /home/jhon/public_html/frappe-bench/apps/frappe/frappe/core/doctype/scheduled_job_type/scheduled_job_type.py:
Site: fianzacredito.com
Scheduled Job Start: frappe.utils.global_search.sync_global_search for fianzacredito.com
[INFO] 2020-03-11 12:44:06,292 | /home/jhon/public_html/frappe-bench/apps/frappe/frappe/core/doctype/scheduled_job_type/scheduled_job_type.py:
Site: fianzacredito.com
Scheduled Job Complete: frappe.utils.global_search.sync_global_search for fianzacredito.com
[INFO] 2020-03-11 12:44:06,325 | /home/jhon/public_html/frappe-bench/apps/frappe/frappe/core/doctype/scheduled_job_type/scheduled_job_type.py:
Site: fianzacredito.com
Scheduled Job Start: frappe.integrations.doctype.razorpay_settings.razorpay_settings.capture_payment for fianzacredito.com
[INFO] 2020-03-11 12:44:06,348 | /home/jhon/public_html/frappe-bench/apps/frappe/frappe/core/doctype/scheduled_job_type/scheduled_job_type.py:
Site: fianzacredito.com
Scheduled Job Complete: frappe.integrations.doctype.razorpay_settings.razorpay_settings.capture_payment for fianzacredito.com
[INFO] 2020-03-11 12:44:06,379 | /home/jhon/public_html/frappe-bench/apps/frappe/frappe/core/doctype/scheduled_job_type/scheduled_job_type.py:
Site: fianzacredito.com
Scheduled Job Start: frappe.email.doctype.email_account.email_account.notify_unreplied for fianzacredito.com
[INFO] 2020-03-11 12:44:06,430 | /home/jhon/public_html/frappe-bench/apps/frappe/frappe/core/doctype/scheduled_job_type/scheduled_job_type.py:
Site: fianzacredito.com
Scheduled Job Complete: frappe.email.doctype.email_account.email_account.notify_unreplied for fianzacredito.com
[INFO] 2020-03-11 12:44:06,461 | /home/jhon/public_html/frappe-bench/apps/frappe/frappe/core/doctype/scheduled_job_type/scheduled_job_type.py:
Site: fianzacredito.com
Scheduled Job Start: frappe.email.doctype.email_account.email_account.pull for fianzacredito.com
[INFO] 2020-03-11 12:44:06,505 | /home/jhon/public_html/frappe-bench/apps/frappe/frappe/core/doctype/scheduled_job_type/scheduled_job_type.py:
Site: fianzacredito.com
Scheduled Job Complete: frappe.email.doctype.email_account.email_account.pull for fianzacredito.com
[INFO] 2020-03-11 12:44:06,535 | /home/jhon/public_html/frappe-bench/apps/frappe/frappe/core/doctype/scheduled_job_type/scheduled_job_type.py:
Site: fianzacredito.com
Scheduled Job Start: frappe.email.queue.flush for fianzacredito.com
[INFO] 2020-03-11 12:44:06,565 | /home/jhon/public_html/frappe-bench/apps/frappe/frappe/core/doctype/scheduled_job_type/scheduled_job_type.py:
Site: fianzacredito.com
Scheduled Job Complete: frappe.email.queue.flush for fianzacredito.com
[DEBUG] 2020-03-11 12:45:06,380 | /home/jhon/public_html/frappe-bench/apps/frappe/frappe/utils/scheduler.py:
Site: fianzacredito.com
Queued events for site fianzacredito.com
[INFO] 2020-03-11 12:45:06,402 | /home/jhon/public_html/frappe-bench/apps/frappe/frappe/core/doctype/scheduled_job_type/scheduled_job_type.py:
Site: fianzacredito.com
Scheduled Job Start: frappe.twofactor.delete_all_barcodes_for_users for fianzacredito.com
[INFO] 2020-03-11 12:45:06,462 | /home/jhon/public_html/frappe-bench/apps/frappe/frappe/core/doctype/scheduled_job_type/scheduled_job_type.py:
Site: fianzacredito.com
Scheduled Job Complete: frappe.twofactor.delete_all_barcodes_for_users for fianzacredito.com
[INFO] 2020-03-11 12:45:06,530 | /home/jhon/public_html/frappe-bench/apps/frappe/frappe/core/doctype/scheduled_job_type/scheduled_job_type.py:
Site: fianzacredito.com
Scheduled Job Start: frappe.website.doctype.web_page.web_page.check_publish_status for fianzacredito.com
[INFO] 2020-03-11 12:45:06,592 | /home/jhon/public_html/frappe-bench/apps/frappe/frappe/core/doctype/scheduled_job_type/scheduled_job_type.py:
Site: fianzacredito.com
Scheduled Job Complete: frappe.website.doctype.web_page.web_page.check_publish_status for fianzacredito.com
[INFO] 2020-03-11 12:45:06,643 | /home/jhon/public_html/frappe-bench/apps/frappe/frappe/core/doctype/scheduled_job_type/scheduled_job_type.py:
Site: fianzacredito.com
Scheduled Job Start: frappe.oauth.delete_oauth2_data for fianzacredito.com
[INFO] 2020-03-11 12:45:06,717 | /home/jhon/public_html/frappe-bench/apps/frappe/frappe/core/doctype/scheduled_job_type/scheduled_job_type.py:
Site: fianzacredito.com
Scheduled Job Complete: frappe.oauth.delete_oauth2_data for fianzacredito.com
[DEBUG] 2020-03-11 12:46:06,552 | /home/jhon/public_html/frappe-bench/apps/frappe/frappe/utils/scheduler.py:
Site: fianzacredito.com
Queued events for site fianzacredito.com
[DEBUG] 2020-03-11 12:47:06,792 | /home/jhon/public_html/frappe-bench/apps/frappe/frappe/utils/scheduler.py:
Site: fianzacredito.com
Queued events for site fianzacredito.com
[DEBUG] 2020-03-11 12:48:06,974 | /home/jhon/public_html/frappe-bench/apps/frappe/frappe/utils/scheduler.py:
Site: fianzacredito.com
Queued events for site fianzacredito.com
[INFO] 2020-03-11 12:48:06,985 | /home/jhon/public_html/frappe-bench/apps/frappe/frappe/core/doctype/scheduled_job_type/scheduled_job_type.py:
Site: fianzacredito.com
Scheduled Job Start: frappe.monitor.flush for fianzacredito.com
[INFO] 2020-03-11 12:48:07,000 | /home/jhon/public_html/frappe-bench/apps/frappe/frappe/core/doctype/scheduled_job_type/scheduled_job_type.py:
Site: fianzacredito.com
Scheduled Job Complete: frappe.monitor.flush for fianzacredito.com
[INFO] 2020-03-11 12:48:07,030 | /home/jhon/public_html/frappe-bench/apps/frappe/frappe/core/doctype/scheduled_job_type/scheduled_job_type.py:
Site: fianzacredito.com
Scheduled Job Start: frappe.utils.global_search.sync_global_search for fianzacredito.com
[INFO] 2020-03-11 12:48:07,046 | /home/jhon/public_html/frappe-bench/apps/frappe/frappe/core/doctype/scheduled_job_type/scheduled_job_type.py:
Site: fianzacredito.com
Scheduled Job Complete: frappe.utils.global_search.sync_global_search for fianzacredito.com
[INFO] 2020-03-11 12:48:07,076 | /home/jhon/public_html/frappe-bench/apps/frappe/frappe/core/doctype/scheduled_job_type/scheduled_job_type.py:
Site: fianzacredito.com
Scheduled Job Start: frappe.integrations.doctype.razorpay_settings.razorpay_settings.capture_payment for fianzacredito.com
[INFO] 2020-03-11 12:48:07,097 | /home/jhon/public_html/frappe-bench/apps/frappe/frappe/core/doctype/scheduled_job_type/scheduled_job_type.py:
Site: fianzacredito.com
Scheduled Job Complete: frappe.integrations.doctype.razorpay_settings.razorpay_settings.capture_payment for fianzacredito.com
[INFO] 2020-03-11 12:48:07,127 | /home/jhon/public_html/frappe-bench/apps/frappe/frappe/core/doctype/scheduled_job_type/scheduled_job_type.py:
Site: fianzacredito.com
Scheduled Job Start: frappe.email.doctype.email_account.email_account.notify_unreplied for fianzacredito.com
[INFO] 2020-03-11 12:48:07,166 | /home/jhon/public_html/frappe-bench/apps/frappe/frappe/core/doctype/scheduled_job_type/scheduled_job_type.py:
Site: fianzacredito.com
Scheduled Job Complete: frappe.email.doctype.email_account.email_account.notify_unreplied for fianzacredito.com
[INFO] 2020-03-11 12:48:07,197 | /home/jhon/public_html/frappe-bench/apps/frappe/frappe/core/doctype/scheduled_job_type/scheduled_job_type.py:
Site: fianzacredito.com
Scheduled Job Start: frappe.email.doctype.email_account.email_account.pull for fianzacredito.com
[INFO] 2020-03-11 12:48:07,240 | /home/jhon/public_html/frappe-bench/apps/frappe/frappe/core/doctype/scheduled_job_type/scheduled_job_type.py:
Site: fianzacredito.com
Scheduled Job Complete: frappe.email.doctype.email_account.email_account.pull for fianzacredito.com
[INFO] 2020-03-11 12:48:07,271 | /home/jhon/public_html/frappe-bench/apps/frappe/frappe/core/doctype/scheduled_job_type/scheduled_job_type.py:
Site: fianzacredito.com
Scheduled Job Start: frappe.email.queue.flush for fianzacredito.com
[INFO] 2020-03-11 12:48:07,300 | /home/jhon/public_html/frappe-bench/apps/frappe/frappe/core/doctype/scheduled_job_type/scheduled_job_type.py:
Site: fianzacredito.com
Scheduled Job Complete: frappe.email.queue.flush for fianzacredito.com
[DEBUG] 2020-03-11 12:49:07,124 | /home/jhon/public_html/frappe-bench/apps/frappe/frappe/utils/scheduler.py:
Site: fianzacredito.com
Queued events for site fianzacredito.com
[DEBUG] 2020-03-11 12:50:07,278 | /home/jhon/public_html/frappe-bench/apps/frappe/frappe/utils/scheduler.py:
Site: fianzacredito.com
Queued events for site fianzacredito.com
[DEBUG] 2020-03-11 12:51:07,434 | /home/jhon/public_html/frappe-bench/apps/frappe/frappe/utils/scheduler.py:
Site: fianzacredito.com
Queued events for site fianzacredito.com
[DEBUG] 2020-03-11 12:52:07,610 | /home/jhon/public_html/frappe-bench/apps/frappe/frappe/utils/scheduler.py:
Site: fianzacredito.com
Queued events for site fianzacredito.com
[INFO] 2020-03-11 12:52:07,619 | /home/jhon/public_html/frappe-bench/apps/frappe/frappe/core/doctype/scheduled_job_type/scheduled_job_type.py:
Site: fianzacredito.com
Scheduled Job Start: frappe.monitor.flush for fianzacredito.com
[INFO] 2020-03-11 12:52:07,635 | /home/jhon/public_html/frappe-bench/apps/frappe/frappe/core/doctype/scheduled_job_type/scheduled_job_type.py:
Site: fianzacredito.com
Scheduled Job Complete: frappe.monitor.flush for fianzacredito.com
[INFO] 2020-03-11 12:52:07,666 | /home/jhon/public_html/frappe-bench/apps/frappe/frappe/core/doctype/scheduled_job_type/scheduled_job_type.py:
Site: fianzacredito.com
Scheduled Job Start: frappe.utils.global_search.sync_global_search for fianzacredito.com
[INFO] 2020-03-11 12:52:07,681 | /home/jhon/public_html/frappe-bench/apps/frappe/frappe/core/doctype/scheduled_job_type/scheduled_job_type.py:
Site: fianzacredito.com
Scheduled Job Complete: frappe.utils.global_search.sync_global_search for fianzacredito.com
[INFO] 2020-03-11 12:52:07,713 | /home/jhon/public_html/frappe-bench/apps/frappe/frappe/core/doctype/scheduled_job_type/scheduled_job_type.py:
Site: fianzacredito.com
Scheduled Job Start: frappe.integrations.doctype.razorpay_settings.razorpay_settings.capture_payment for fianzacredito.com
[INFO] 2020-03-11 12:52:07,733 | /home/jhon/public_html/frappe-bench/apps/frappe/frappe/core/doctype/scheduled_job_type/scheduled_job_type.py:
Site: fianzacredito.com
Scheduled Job Complete: frappe.integrations.doctype.razorpay_settings.razorpay_settings.capture_payment for fianzacredito.com
[INFO] 2020-03-11 12:52:07,764 | /home/jhon/public_html/frappe-bench/apps/frappe/frappe/core/doctype/scheduled_job_type/scheduled_job_type.py:
Site: fianzacredito.com
Scheduled Job Start: frappe.email.doctype.email_account.email_account.notify_unreplied for fianzacredito.com
[INFO] 2020-03-11 12:52:07,804 | /home/jhon/public_html/frappe-bench/apps/frappe/frappe/core/doctype/scheduled_job_type/scheduled_job_type.py:
Site: fianzacredito.com
Scheduled Job Complete: frappe.email.doctype.email_account.email_account.notify_unreplied for fianzacredito.com
[INFO] 2020-03-11 12:52:07,835 | /home/jhon/public_html/frappe-bench/apps/frappe/frappe/core/doctype/scheduled_job_type/scheduled_job_type.py:
Site: fianzacredito.com
Scheduled Job Start: frappe.email.doctype.email_account.email_account.pull for fianzacredito.com
[INFO] 2020-03-11 12:52:07,879 | /home/jhon/public_html/frappe-bench/apps/frappe/frappe/core/doctype/scheduled_job_type/scheduled_job_type.py:
Site: fianzacredito.com
Scheduled Job Complete: frappe.email.doctype.email_account.email_account.pull for fianzacredito.com
[INFO] 2020-03-11 12:52:07,909 | /home/jhon/public_html/frappe-bench/apps/frappe/frappe/core/doctype/scheduled_job_type/scheduled_job_type.py:
Site: fianzacredito.com
Scheduled Job Start: frappe.email.queue.flush for fianzacredito.com
[INFO] 2020-03-11 12:52:07,938 | /home/jhon/public_html/frappe-bench/apps/frappe/frappe/core/doctype/scheduled_job_type/scheduled_job_type.py:
Site: fianzacredito.com
Scheduled Job Complete: frappe.email.queue.flush for fianzacredito.com
[DEBUG] 2020-03-11 12:53:07,780 | /home/jhon/public_html/frappe-bench/apps/frappe/frappe/utils/scheduler.py:
Site: fianzacredito.com
Queued events for site fianzacredito.com
[DEBUG] 2020-03-11 12:54:07,953 | /home/jhon/public_html/frappe-bench/apps/frappe/frappe/utils/scheduler.py:
Site: fianzacredito.com
Queued events for site fianzacredito.com
[DEBUG] 2020-03-11 12:55:08,123 | /home/jhon/public_html/frappe-bench/apps/frappe/frappe/utils/scheduler.py:
Site: fianzacredito.com
Queued events for site fianzacredito.com
[DEBUG] 2020-03-11 12:56:08,348 | /home/jhon/public_html/frappe-bench/apps/frappe/frappe/utils/scheduler.py:
Site: fianzacredito.com
Queued events for site fianzacredito.com
[INFO] 2020-03-11 12:56:08,358 | /home/jhon/public_html/frappe-bench/apps/frappe/frappe/core/doctype/scheduled_job_type/scheduled_job_type.py:
Site: fianzacredito.com
Scheduled Job Start: frappe.monitor.flush for fianzacredito.com
[INFO] 2020-03-11 12:56:08,375 | /home/jhon/public_html/frappe-bench/apps/frappe/frappe/core/doctype/scheduled_job_type/scheduled_job_type.py:
Site: fianzacredito.com
Scheduled Job Complete: frappe.monitor.flush for fianzacredito.com
[INFO] 2020-03-11 12:56:08,409 | /home/jhon/public_html/frappe-bench/apps/frappe/frappe/core/doctype/scheduled_job_type/scheduled_job_type.py:
Site: fianzacredito.com
Scheduled Job Start: frappe.utils.global_search.sync_global_search for fianzacredito.com
[INFO] 2020-03-11 12:56:08,428 | /home/jhon/public_html/frappe-bench/apps/frappe/frappe/core/doctype/scheduled_job_type/scheduled_job_type.py:
Site: fianzacredito.com
Scheduled Job Complete: frappe.utils.global_search.sync_global_search for fianzacredito.com
[INFO] 2020-03-11 12:56:08,460 | /home/jhon/public_html/frappe-bench/apps/frappe/frappe/core/doctype/scheduled_job_type/scheduled_job_type.py:
Site: fianzacredito.com
Scheduled Job Start: frappe.integrations.doctype.razorpay_settings.razorpay_settings.capture_payment for fianzacredito.com
[INFO] 2020-03-11 12:56:08,480 | /home/jhon/public_html/frappe-bench/apps/frappe/frappe/core/doctype/scheduled_job_type/scheduled_job_type.py:
Site: fianzacredito.com
Scheduled Job Complete: frappe.integrations.doctype.razorpay_settings.razorpay_settings.capture_payment for fianzacredito.com
[INFO] 2020-03-11 12:56:08,511 | /home/jhon/public_html/frappe-bench/apps/frappe/frappe/core/doctype/scheduled_job_type/scheduled_job_type.py:
Site: fianzacredito.com
Scheduled Job Start: frappe.email.doctype.email_account.email_account.notify_unreplied for fianzacredito.com
[INFO] 2020-03-11 12:56:08,554 | /home/jhon/public_html/frappe-bench/apps/frappe/frappe/core/doctype/scheduled_job_type/scheduled_job_type.py:
Site: fianzacredito.com
Scheduled Job Complete: frappe.email.doctype.email_account.email_account.notify_unreplied for fianzacredito.com
[INFO] 2020-03-11 12:56:08,586 | /home/jhon/public_html/frappe-bench/apps/frappe/frappe/core/doctype/scheduled_job_type/scheduled_job_type.py:
Site: fianzacredito.com
Scheduled Job Start: frappe.email.doctype.email_account.email_account.pull for fianzacredito.com
[INFO] 2020-03-11 12:56:08,631 | /home/jhon/public_html/frappe-bench/apps/frappe/frappe/core/doctype/scheduled_job_type/scheduled_job_type.py:
Site: fianzacredito.com
Scheduled Job Complete: frappe.email.doctype.email_account.email_account.pull for fianzacredito.com
[INFO] 2020-03-11 12:56:08,662 | /home/jhon/public_html/frappe-bench/apps/frappe/frappe/core/doctype/scheduled_job_type/scheduled_job_type.py:
Site: fianzacredito.com
Scheduled Job Start: frappe.email.queue.flush for fianzacredito.com
[INFO] 2020-03-11 12:56:08,690 | /home/jhon/public_html/frappe-bench/apps/frappe/frappe/core/doctype/scheduled_job_type/scheduled_job_type.py:
Site: fianzacredito.com
Scheduled Job Complete: frappe.email.queue.flush for fianzacredito.com
[DEBUG] 2020-03-11 12:57:08,521 | /home/jhon/public_html/frappe-bench/apps/frappe/frappe/utils/scheduler.py:
Site: fianzacredito.com
Queued events for site fianzacredito.com
[DEBUG] 2020-03-11 12:58:08,694 | /home/jhon/public_html/frappe-bench/apps/frappe/frappe/utils/scheduler.py:
Site: fianzacredito.com
Queued events for site fianzacredito.com
[DEBUG] 2020-03-11 12:59:08,859 | /home/jhon/public_html/frappe-bench/apps/frappe/frappe/utils/scheduler.py:
Site: fianzacredito.com
Queued events for site fianzacredito.com
[INFO] 2020-03-11 13:00:09,046 | /home/jhon/public_html/frappe-bench/apps/frappe/frappe/core/doctype/scheduled_job_type/scheduled_job_type.py:
Site: fianzacredito.com
Scheduled Job Start: frappe.integrations.doctype.google_calendar.google_calendar.sync for fianzacredito.com
[DEBUG] 2020-03-11 13:00:09,077 | /home/jhon/public_html/frappe-bench/apps/frappe/frappe/utils/scheduler.py:
Site: fianzacredito.com
Queued events for site fianzacredito.com
[INFO] 2020-03-11 13:00:09,144 | /home/jhon/public_html/frappe-bench/apps/frappe/frappe/core/doctype/scheduled_job_type/scheduled_job_type.py:
Site: fianzacredito.com
Scheduled Job Complete: frappe.integrations.doctype.google_calendar.google_calendar.sync for fianzacredito.com
[INFO] 2020-03-11 13:00:09,182 | /home/jhon/public_html/frappe-bench/apps/frappe/frappe/core/doctype/scheduled_job_type/scheduled_job_type.py:
Site: fianzacredito.com
Scheduled Job Start: frappe.desk.form.document_follow.send_hourly_updates for fianzacredito.com
[INFO] 2020-03-11 13:00:09,240 | /home/jhon/public_html/frappe-bench/apps/frappe/frappe/core/doctype/scheduled_job_type/scheduled_job_type.py:
Site: fianzacredito.com
Scheduled Job Complete: frappe.desk.form.document_follow.send_hourly_updates for fianzacredito.com
[INFO] 2020-03-11 13:00:09,277 | /home/jhon/public_html/frappe-bench/apps/frappe/frappe/core/doctype/scheduled_job_type/scheduled_job_type.py:
Site: fianzacredito.com
Scheduled Job Start: frappe.deferred_insert.save_to_db for fianzacredito.com
[INFO] 2020-03-11 13:00:09,380 | /home/jhon/public_html/frappe-bench/apps/frappe/frappe/core/doctype/scheduled_job_type/scheduled_job_type.py:
Site: fianzacredito.com
Scheduled Job Complete: frappe.deferred_insert.save_to_db for fianzacredito.com
[INFO] 2020-03-11 13:00:09,417 | /home/jhon/public_html/frappe-bench/apps/frappe/frappe/core/doctype/scheduled_job_type/scheduled_job_type.py:
Site: fianzacredito.com
Scheduled Job Start: frappe.desk.page.backups.backups.delete_downloadable_backups for fianzacredito.com
[INFO] 2020-03-11 13:00:09,477 | /home/jhon/public_html/frappe-bench/apps/frappe/frappe/core/doctype/scheduled_job_type/scheduled_job_type.py:
Site: fianzacredito.com
Scheduled Job Complete: frappe.desk.page.backups.backups.delete_downloadable_backups for fianzacredito.com
[INFO] 2020-03-11 13:00:09,515 | /home/jhon/public_html/frappe-bench/apps/frappe/frappe/core/doctype/scheduled_job_type/scheduled_job_type.py:
Site: fianzacredito.com
Scheduled Job Start: frappe.utils.error.collect_error_snapshots for fianzacredito.com
[INFO] 2020-03-11 13:00:09,573 | /home/jhon/public_html/frappe-bench/apps/frappe/frappe/core/doctype/scheduled_job_type/scheduled_job_type.py:
Site: fianzacredito.com
Scheduled Job Complete: frappe.utils.error.collect_error_snapshots for fianzacredito.com
[INFO] 2020-03-11 13:00:09,612 | /home/jhon/public_html/frappe-bench/apps/frappe/frappe/core/doctype/scheduled_job_type/scheduled_job_type.py:
Site: fianzacredito.com
Scheduled Job Start: frappe.model.utils.user_settings.sync_user_settings for fianzacredito.com
[INFO] 2020-03-11 13:00:09,693 | /home/jhon/public_html/frappe-bench/apps/frappe/frappe/core/doctype/scheduled_job_type/scheduled_job_type.py:
Site: fianzacredito.com
Scheduled Job Complete: frappe.model.utils.user_settings.sync_user_settings for fianzacredito.com
[INFO] 2020-03-11 13:00:09,744 | /home/jhon/public_html/frappe-bench/apps/frappe/frappe/core/doctype/scheduled_job_type/scheduled_job_type.py:
Site: fianzacredito.com
Scheduled Job Start: frappe.model.utils.link_count.update_link_count for fianzacredito.com
[INFO] 2020-03-11 13:00:09,810 | /home/jhon/public_html/frappe-bench/apps/frappe/frappe/core/doctype/scheduled_job_type/scheduled_job_type.py:
Site: fianzacredito.com
Scheduled Job Complete: frappe.model.utils.link_count.update_link_count for fianzacredito.com
[INFO] 2020-03-11 13:00:09,847 | /home/jhon/public_html/frappe-bench/apps/frappe/frappe/core/doctype/scheduled_job_type/scheduled_job_type.py:
Site: fianzacredito.com
Scheduled Job Start: frappe.monitor.flush for fianzacredito.com
[INFO] 2020-03-11 13:00:09,862 | /home/jhon/public_html/frappe-bench/apps/frappe/frappe/core/doctype/scheduled_job_type/scheduled_job_type.py:
Site: fianzacredito.com
Scheduled Job Complete: frappe.monitor.flush for fianzacredito.com
[INFO] 2020-03-11 13:00:09,892 | /home/jhon/public_html/frappe-bench/apps/frappe/frappe/core/doctype/scheduled_job_type/scheduled_job_type.py:
Site: fianzacredito.com
Scheduled Job Start: frappe.utils.global_search.sync_global_search for fianzacredito.com
[INFO] 2020-03-11 13:00:09,908 | /home/jhon/public_html/frappe-bench/apps/frappe/frappe/core/doctype/scheduled_job_type/scheduled_job_type.py:
Site: fianzacredito.com
Scheduled Job Complete: frappe.utils.global_search.sync_global_search for fianzacredito.com
[INFO] 2020-03-11 13:00:09,939 | /home/jhon/public_html/frappe-bench/apps/frappe/frappe/core/doctype/scheduled_job_type/scheduled_job_type.py:
Site: fianzacredito.com
Scheduled Job Start: frappe.integrations.doctype.razorpay_settings.razorpay_settings.capture_payment for fianzacredito.com
[INFO] 2020-03-11 13:00:09,958 | /home/jhon/public_html/frappe-bench/apps/frappe/frappe/core/doctype/scheduled_job_type/scheduled_job_type.py:
Site: fianzacredito.com
Scheduled Job Complete: frappe.integrations.doctype.razorpay_settings.razorpay_settings.capture_payment for fianzacredito.com
[INFO] 2020-03-11 13:00:09,989 | /home/jhon/public_html/frappe-bench/apps/frappe/frappe/core/doctype/scheduled_job_type/scheduled_job_type.py:
Site: fianzacredito.com
Scheduled Job Start: frappe.email.doctype.email_account.email_account.notify_unreplied for fianzacredito.com
[INFO] 2020-03-11 13:00:10,029 | /home/jhon/public_html/frappe-bench/apps/frappe/frappe/core/doctype/scheduled_job_type/scheduled_job_type.py:
Site: fianzacredito.com
Scheduled Job Complete: frappe.email.doctype.email_account.email_account.notify_unreplied for fianzacredito.com
[INFO] 2020-03-11 13:00:10,060 | /home/jhon/public_html/frappe-bench/apps/frappe/frappe/core/doctype/scheduled_job_type/scheduled_job_type.py:
Site: fianzacredito.com
Scheduled Job Start: frappe.email.doctype.email_account.email_account.pull for fianzacredito.com
[INFO] 2020-03-11 13:00:10,104 | /home/jhon/public_html/frappe-bench/apps/frappe/frappe/core/doctype/scheduled_job_type/scheduled_job_type.py:
Site: fianzacredito.com
Scheduled Job Complete: frappe.email.doctype.email_account.email_account.pull for fianzacredito.com
[INFO] 2020-03-11 13:00:10,136 | /home/jhon/public_html/frappe-bench/apps/frappe/frappe/core/doctype/scheduled_job_type/scheduled_job_type.py:
Site: fianzacredito.com
Scheduled Job Start: frappe.email.queue.flush for fianzacredito.com
[INFO] 2020-03-11 13:00:10,163 | /home/jhon/public_html/frappe-bench/apps/frappe/frappe/core/doctype/scheduled_job_type/scheduled_job_type.py:
Site: fianzacredito.com
Scheduled Job Complete: frappe.email.queue.flush for fianzacredito.com
[INFO] 2020-03-11 13:00:10,193 | /home/jhon/public_html/frappe-bench/apps/frappe/frappe/core/doctype/scheduled_job_type/scheduled_job_type.py:
Site: fianzacredito.com
Scheduled Job Start: frappe.twofactor.delete_all_barcodes_for_users for fianzacredito.com
[INFO] 2020-03-11 13:00:10,254 | /home/jhon/public_html/frappe-bench/apps/frappe/frappe/core/doctype/scheduled_job_type/scheduled_job_type.py:
Site: fianzacredito.com
Scheduled Job Complete: frappe.twofactor.delete_all_barcodes_for_users for fianzacredito.com
[INFO] 2020-03-11 13:00:10,291 | /home/jhon/public_html/frappe-bench/apps/frappe/frappe/core/doctype/scheduled_job_type/scheduled_job_type.py:
Site: fianzacredito.com
Scheduled Job Start: frappe.website.doctype.web_page.web_page.check_publish_status for fianzacredito.com
[INFO] 2020-03-11 13:00:10,352 | /home/jhon/public_html/frappe-bench/apps/frappe/frappe/core/doctype/scheduled_job_type/scheduled_job_type.py:
Site: fianzacredito.com
Scheduled Job Complete: frappe.website.doctype.web_page.web_page.check_publish_status for fianzacredito.com
[INFO] 2020-03-11 13:00:10,390 | /home/jhon/public_html/frappe-bench/apps/frappe/frappe/core/doctype/scheduled_job_type/scheduled_job_type.py:
Site: fianzacredito.com
Scheduled Job Start: frappe.oauth.delete_oauth2_data for fianzacredito.com
[INFO] 2020-03-11 13:00:10,459 | /home/jhon/public_html/frappe-bench/apps/frappe/frappe/core/doctype/scheduled_job_type/scheduled_job_type.py:
Site: fianzacredito.com
Scheduled Job Complete: frappe.oauth.delete_oauth2_data for fianzacredito.com
[DEBUG] 2020-03-11 14:39:50,171 | /home/jhon/public_html/frappe-bench/apps/frappe/frappe/utils/scheduler.py:
Site: fianzacredito.com
Queued events for site fianzacredito.com
